<?xml version="1.0" encoding="UTF-8" ?>
<VTKFile type="PolyData" version="0.1" order="LittleEndian">
<PolyData>
 <Piece NumberOfPoints="25" NumberOfVerts="1" NumberOfLines="0" NumberOfStrips="0" NumberOfPolys="0">
<PointData>
 <DataArray type="Float64" Name="speed" format="ascii">0 0 25.2256 19.2002 0 0 0 0 0 0 0 0 4.33732 5.70134 8.75992 0 0 0 0 0 3.5024 0 13.5281 6.43114 2.22291</DataArray>
</PointData>
<CellData/>
<Points>
 <DataArray type="Float64" Name="Points" NumberOfComponents="3" format="ascii">37.289 145.2 0 9.63478 145.2 0 169.598 142 0 132.399 142 0 135.399 145.2 0 128.85 145.2 0 154.8 135.399 0 158 50.458 0 164.601 154.8 0 171.371 158 0 178.264 158 0 173.781 154.8 0 204.393 154.8 0 212.821 158 0 258.767 158 0 164.601 158 0 270.657 154.8 0 286.6 154.8 0 145.2 274.206 0 142 273.388 0 145.2 287.481 0 158 10.1 0 148.4 265.371 0 148.4 281.06 0 142 292.427 0</DataArray>
</Points>
<Verts>
 <DataArray type="Int64" Name="connectivity" format="ascii">0 1 2 3 4 5 6 7 8 9 10 11 12 13 14 15 16 17 18 19 20 21 22 23 24</DataArray>
 <DataArray type="Int64" Name="offsets" format="ascii">25</DataArray>
</Verts>
<Lines>
 <DataArray type="Int64" Name="connectivity" format="ascii"/>
 <DataArray type="Int64" Name="offsets" format="ascii"/>
</Lines>
<Stripes>
 <DataArray type="Int64" Name="connectivity" format="ascii"/>
 <DataArray type="Int64" Name="offsets" format="ascii"/>
</Stripes>
<Polys>
 <DataArray type="Int64" Name="connectivity" format="ascii"/>
 <DataArray type="Int64" Name="offsets" format="ascii"/>
</Polys>
</Piece>
</PolyData>
</VTKFile>