<?xml version="1.0" encoding="UTF-8" ?>
<VTKFile type="PolyData" version="0.1" order="LittleEndian">
<PolyData>
 <Piece NumberOfPoints="26" NumberOfVerts="1" NumberOfLines="0" NumberOfStrips="0" NumberOfPolys="0">
<PointData>
 <DataArray type="Float64" Name="speed" format="ascii">0 0 0 0 0 0 0 4.98791 0 0 0 0 0 0 0 0 0 0 0 0 0 0 0 0 0 1.14639</DataArray>
</PointData>
<CellData/>
<Points>
 <DataArray type="Float64" Name="Points" NumberOfComponents="3" format="ascii">33.1922 145.2 0 23.8488 142 0 15.7661 145.2 0 9.15792 145.2 0 14.4145 142 0 5.1 142 0 154.8 19.0726 0 158 44.0952 0 273.802 154.8 0 281.018 154.8 0 289.108 154.8 0 164.601 158 0 274.544 158 0 294.9 158 0 145.2 270.15 0 145.2 278.806 0 145.2 290.892 0 142 294.9 0 151.6 12.1506 0 158 10.1 0 148.4 291.043 0 148.4 271.971 0 148.4 263.524 0 148.4 241.72 0 148.4 250.599 0 142 276.677 0</DataArray>
</Points>
<Verts>
 <DataArray type="Int64" Name="connectivity" format="ascii">0 1 2 3 4 5 6 7 8 9 10 11 12 13 14 15 16 17 18 19 20 21 22 23 24 25</DataArray>
 <DataArray type="Int64" Name="offsets" format="ascii">26</DataArray>
</Verts>
<Lines>
 <DataArray type="Int64" Name="connectivity" format="ascii"/>
 <DataArray type="Int64" Name="offsets" format="ascii"/>
</Lines>
<Stripes>
 <DataArray type="Int64" Name="connectivity" format="ascii"/>
 <DataArray type="Int64" Name="offsets" format="ascii"/>
</Stripes>
<Polys>
 <DataArray type="Int64" Name="connectivity" format="ascii"/>
 <DataArray type="Int64" Name="offsets" format="ascii"/>
</Polys>
</Piece>
</PolyData>
</VTKFile>