<?xml version="1.0" encoding="UTF-8" ?>
<VTKFile type="PolyData" version="0.1" order="LittleEndian">
<PolyData>
 <Piece NumberOfPoints="19" NumberOfVerts="1" NumberOfLines="0" NumberOfStrips="0" NumberOfPolys="0">
<PointData>
 <DataArray type="Float64" Name="speed" format="ascii">19.142 16.4159 0 0 0 0 0 0 0 0 0 18.1298 8.66747 4.74526 0 0 45 0 0</DataArray>
</PointData>
<CellData/>
<Points>
 <DataArray type="Float64" Name="Points" NumberOfComponents="3" format="ascii">134.644 145.2 0 108.917 145.2 0 19.5057 142 0 5.1 142 0 154.8 33.2578 0 158 36.8982 0 158 30.153 0 154.8 26.499 0 151.6 19.7823 0 291.547 151.6 0 291.238 154.8 0 246.466 158 0 277.216 158 0 291.259 158 0 145.2 286.432 0 142 275.138 0 126.4 158 0 158 10.1 0 142 294.9 0</DataArray>
</Points>
<Verts>
 <DataArray type="Int64" Name="connectivity" format="ascii">0 1 2 3 4 5 6 7 8 9 10 11 12 13 14 15 16 17 18</DataArray>
 <DataArray type="Int64" Name="offsets" format="ascii">19</DataArray>
</Verts>
<Lines>
 <DataArray type="Int64" Name="connectivity" format="ascii"/>
 <DataArray type="Int64" Name="offsets" format="ascii"/>
</Lines>
<Stripes>
 <DataArray type="Int64" Name="connectivity" format="ascii"/>
 <DataArray type="Int64" Name="offsets" format="ascii"/>
</Stripes>
<Polys>
 <DataArray type="Int64" Name="connectivity" format="ascii"/>
 <DataArray type="Int64" Name="offsets" format="ascii"/>
</Polys>
</Piece>
</PolyData>
</VTKFile>