<?xml version="1.0" encoding="UTF-8" ?>
<VTKFile type="PolyData" version="0.1" order="LittleEndian">
<PolyData>
 <Piece NumberOfPoints="26" NumberOfVerts="1" NumberOfLines="0" NumberOfStrips="0" NumberOfPolys="0">
<PointData>
 <DataArray type="Float64" Name="speed" format="ascii">0 0 0 0 0 0 0 12.0561 0 0 0 0 45 0.687433 0 2.90184 0 0 0 10.6052 0 0 4.06339 0 0 0</DataArray>
</PointData>
<CellData/>
<Points>
 <DataArray type="Float64" Name="Points" NumberOfComponents="3" format="ascii">50.6822 142 0 27.8181 145.2 0 135.399 145.2 0 18.1118 142 0 5.1 142 0 151.6 7.10453 0 154.8 6.79107 0 158 152.749 0 154.8 22.5403 0 158 5.1 0 267.132 158 0 254.101 154.8 0 131.4 158 0 277.095 154.8 0 287.274 154.8 0 289.141 158 0 145.2 259.462 0 145.2 285.066 0 145.2 291.952 0 142 147.78 0 142 272.55 0 142 294.9 0 150.103 143.963 0 151.6 27.3863 0 148.4 291.168 0 148.4 265.27 0</DataArray>
</Points>
<Verts>
 <DataArray type="Int64" Name="connectivity" format="ascii">0 1 2 3 4 5 6 7 8 9 10 11 12 13 14 15 16 17 18 19 20 21 22 23 24 25</DataArray>
 <DataArray type="Int64" Name="offsets" format="ascii">26</DataArray>
</Verts>
<Lines>
 <DataArray type="Int64" Name="connectivity" format="ascii"/>
 <DataArray type="Int64" Name="offsets" format="ascii"/>
</Lines>
<Stripes>
 <DataArray type="Int64" Name="connectivity" format="ascii"/>
 <DataArray type="Int64" Name="offsets" format="ascii"/>
</Stripes>
<Polys>
 <DataArray type="Int64" Name="connectivity" format="ascii"/>
 <DataArray type="Int64" Name="offsets" format="ascii"/>
</Polys>
</Piece>
</PolyData>
</VTKFile>