<?xml version="1.0" encoding="UTF-8" ?>
<VTKFile type="PolyData" version="0.1" order="LittleEndian">
<PolyData>
 <Piece NumberOfPoints="18" NumberOfVerts="1" NumberOfLines="0" NumberOfStrips="0" NumberOfPolys="0">
<PointData>
 <DataArray type="Float64" Name="speed" format="ascii">0 0 0 2.20442 0 0 0 0 0 0 0 0 0 0 0 0 0 0</DataArray>
</PointData>
<CellData/>
<Points>
 <DataArray type="Float64" Name="Points" NumberOfComponents="3" format="ascii">5.1 142 0 21.8015 142 0 14.9758 145.2 0 135.047 142 0 33.9931 145.2 0 154.8 19.7823 0 154.8 12.8161 0 158 23.0969 0 158 5.1 0 163.601 154.8 0 244.848 154.8 0 282.911 154.8 0 291.247 154.8 0 281.139 158 0 294.9 158 0 145.2 286.432 0 145.2 293.733 0 142 292.77 0</DataArray>
</Points>
<Verts>
 <DataArray type="Int64" Name="connectivity" format="ascii">0 1 2 3 4 5 6 7 8 9 10 11 12 13 14 15 16 17</DataArray>
 <DataArray type="Int64" Name="offsets" format="ascii">18</DataArray>
</Verts>
<Lines>
 <DataArray type="Int64" Name="connectivity" format="ascii"/>
 <DataArray type="Int64" Name="offsets" format="ascii"/>
</Lines>
<Stripes>
 <DataArray type="Int64" Name="connectivity" format="ascii"/>
 <DataArray type="Int64" Name="offsets" format="ascii"/>
</Stripes>
<Polys>
 <DataArray type="Int64" Name="connectivity" format="ascii"/>
 <DataArray type="Int64" Name="offsets" format="ascii"/>
</Polys>
</Piece>
</PolyData>
</VTKFile>