<?xml version="1.0" encoding="UTF-8" ?>
<VTKFile type="PolyData" version="0.1" order="LittleEndian">
<PolyData>
 <Piece NumberOfPoints="32" NumberOfVerts="1" NumberOfLines="0" NumberOfStrips="0" NumberOfPolys="0">
<PointData>
 <DataArray type="Float64" Name="speed" format="ascii">0 0 0 0 0 0 0 0 0 0 0 0 0 0 0 0 0 0 0 0 0 4.45953 4.05113 6.69602 0 0 0 0 0 0 0 0</DataArray>
</PointData>
<CellData/>
<Points>
 <DataArray type="Float64" Name="Points" NumberOfComponents="3" format="ascii">135.399 142 0 135.399 145.2 0 128.276 142 0 121.528 145.2 0 114.722 145.2 0 121.391 142 0 114.468 142 0 28.9636 142 0 5.1 142 0 154.8 59.1601 0 158 42.583 0 158 135.399 0 154.8 135.399 0 158 5.1 0 171.371 154.8 0 163.65 154.8 0 192.197 154.8 0 207.14 154.8 0 213.778 154.8 0 212.341 158 0 219.016 158 0 191.399 151.6 0 234.193 154.8 0 265.025 154.8 0 145.2 272.875 0 148.4 283.171 0 142 177.63 0 151.6 14.549 0 154.8 14.5405 0 158 22.9519 0 148.4 264.677 0 142 294.9 0</DataArray>
</Points>
<Verts>
 <DataArray type="Int64" Name="connectivity" format="ascii">0 1 2 3 4 5 6 7 8 9 10 11 12 13 14 15 16 17 18 19 20 21 22 23 24 25 26 27 28 29 30 31</DataArray>
 <DataArray type="Int64" Name="offsets" format="ascii">32</DataArray>
</Verts>
<Lines>
 <DataArray type="Int64" Name="connectivity" format="ascii"/>
 <DataArray type="Int64" Name="offsets" format="ascii"/>
</Lines>
<Stripes>
 <DataArray type="Int64" Name="connectivity" format="ascii"/>
 <DataArray type="Int64" Name="offsets" format="ascii"/>
</Stripes>
<Polys>
 <DataArray type="Int64" Name="connectivity" format="ascii"/>
 <DataArray type="Int64" Name="offsets" format="ascii"/>
</Polys>
</Piece>
</PolyData>
</VTKFile>