<?xml version="1.0" encoding="UTF-8" ?>
<VTKFile type="PolyData" version="0.1" order="LittleEndian">
<PolyData>
 <Piece NumberOfPoints="20" NumberOfVerts="1" NumberOfLines="0" NumberOfStrips="0" NumberOfPolys="0">
<PointData>
 <DataArray type="Float64" Name="speed" format="ascii">0 0 7.45368 0 0 0 0 0 0 0 0 0 0 11.6026 0 0 0 0 2.23943 0</DataArray>
</PointData>
<CellData/>
<Points>
 <DataArray type="Float64" Name="Points" NumberOfComponents="3" format="ascii">50.6822 142 0 27.8181 142 0 142.739 145.2 0 41.1412 145.2 0 16.7826 142 0 5.1 142 0 154.8 22.5403 0 154.8 15.6084 0 158 5.1 0 254.101 154.8 0 294.255 158 0 282.201 154.8 0 285.655 158 0 142 184.21 0 145.2 279.83 0 142 294.9 0 151.6 27.3863 0 158 20.491 0 148.4 248.557 0 148.4 278.007 0</DataArray>
</Points>
<Verts>
 <DataArray type="Int64" Name="connectivity" format="ascii">0 1 2 3 4 5 6 7 8 9 10 11 12 13 14 15 16 17 18 19</DataArray>
 <DataArray type="Int64" Name="offsets" format="ascii">20</DataArray>
</Verts>
<Lines>
 <DataArray type="Int64" Name="connectivity" format="ascii"/>
 <DataArray type="Int64" Name="offsets" format="ascii"/>
</Lines>
<Stripes>
 <DataArray type="Int64" Name="connectivity" format="ascii"/>
 <DataArray type="Int64" Name="offsets" format="ascii"/>
</Stripes>
<Polys>
 <DataArray type="Int64" Name="connectivity" format="ascii"/>
 <DataArray type="Int64" Name="offsets" format="ascii"/>
</Polys>
</Piece>
</PolyData>
</VTKFile>