<?xml version="1.0" encoding="UTF-8" ?>
<VTKFile type="PolyData" version="0.1" order="LittleEndian">
<PolyData>
 <Piece NumberOfPoints="24" NumberOfVerts="1" NumberOfLines="0" NumberOfStrips="0" NumberOfPolys="0">
<PointData>
 <DataArray type="Float64" Name="speed" format="ascii">0 0 0 0 0.785454 0 2.04842 0 0 0 0 0 0 0 0 0 0 0 0 0 0 0 0 0</DataArray>
</PointData>
<CellData/>
<Points>
 <DataArray type="Float64" Name="Points" NumberOfComponents="3" format="ascii">50.6822 142 0 27.8181 145.2 0 135.399 145.2 0 18.1118 142 0 20.2053 145.2 0 11.0967 145.2 0 8.51406 142 0 154.8 7.10453 0 158 6.79107 0 154.8 22.5403 0 267.132 158 0 254.101 154.8 0 277.001 154.8 0 287.274 154.8 0 273.827 158 0 287.273 158 0 294.9 158 0 145.2 256.084 0 145.2 288.821 0 142 294.9 0 151.6 27.3863 0 148.4 291.168 0 148.4 265.27 0 142 276.667 0</DataArray>
</Points>
<Verts>
 <DataArray type="Int64" Name="connectivity" format="ascii">0 1 2 3 4 5 6 7 8 9 10 11 12 13 14 15 16 17 18 19 20 21 22 23</DataArray>
 <DataArray type="Int64" Name="offsets" format="ascii">24</DataArray>
</Verts>
<Lines>
 <DataArray type="Int64" Name="connectivity" format="ascii"/>
 <DataArray type="Int64" Name="offsets" format="ascii"/>
</Lines>
<Stripes>
 <DataArray type="Int64" Name="connectivity" format="ascii"/>
 <DataArray type="Int64" Name="offsets" format="ascii"/>
</Stripes>
<Polys>
 <DataArray type="Int64" Name="connectivity" format="ascii"/>
 <DataArray type="Int64" Name="offsets" format="ascii"/>
</Polys>
</Piece>
</PolyData>
</VTKFile>