<?xml version="1.0" encoding="UTF-8" ?>
<VTKFile type="PolyData" version="0.1" order="LittleEndian">
<PolyData>
 <Piece NumberOfPoints="23" NumberOfVerts="1" NumberOfLines="0" NumberOfStrips="0" NumberOfPolys="0">
<PointData>
 <DataArray type="Float64" Name="speed" format="ascii">0 0 0 0 42.9234 0 0 0 0 2.06907 1.93765 44.6047 2.34466 0 0 43.4811 4.36762 2.24004 0 0 1.0436 0 0</DataArray>
</PointData>
<CellData/>
<Points>
 <DataArray type="Float64" Name="Points" NumberOfComponents="3" format="ascii">14.9345 145.2 0 30.3784 142 0 5.1 142 0 154.8 28.4286 0 158 277.773 0 267.168 154.8 0 277.336 154.8 0 286.69 158 0 294.9 158 0 142 163.566 0 145.2 163.632 0 142 109.098 0 142 283.359 0 142 294.9 0 158 10.1 0 82.7094 158 0 151.6 13.3795 0 154.8 11.22 0 148.4 291.043 0 148.4 271.971 0 148.4 263.818 0 145.2 281.636 0 145.2 290.717 0</DataArray>
</Points>
<Verts>
 <DataArray type="Int64" Name="connectivity" format="ascii">0 1 2 3 4 5 6 7 8 9 10 11 12 13 14 15 16 17 18 19 20 21 22</DataArray>
 <DataArray type="Int64" Name="offsets" format="ascii">23</DataArray>
</Verts>
<Lines>
 <DataArray type="Int64" Name="connectivity" format="ascii"/>
 <DataArray type="Int64" Name="offsets" format="ascii"/>
</Lines>
<Stripes>
 <DataArray type="Int64" Name="connectivity" format="ascii"/>
 <DataArray type="Int64" Name="offsets" format="ascii"/>
</Stripes>
<Polys>
 <DataArray type="Int64" Name="connectivity" format="ascii"/>
 <DataArray type="Int64" Name="offsets" format="ascii"/>
</Polys>
</Piece>
</PolyData>
</VTKFile>