<?xml version="1.0" encoding="UTF-8" ?>
<VTKFile type="PolyData" version="0.1" order="LittleEndian">
<PolyData>
 <Piece NumberOfPoints="28" NumberOfVerts="1" NumberOfLines="0" NumberOfStrips="0" NumberOfPolys="0">
<PointData>
 <DataArray type="Float64" Name="speed" format="ascii">0 0 0 0 0 0 0 0 43 43.5 0 0 0 0 0 0 0 44.1875 44.5 0 0 0 0 0 42.8 3.15743 1.81328 0</DataArray>
</PointData>
<CellData/>
<Points>
 <DataArray type="Float64" Name="Points" NumberOfComponents="3" format="ascii">30.5921 148.4 0 21.7003 145.2 0 11.084 145.2 0 94.8451 145.2 0 135.399 142 0 24.8994 142 0 5.1 142 0 154.8 31.3711 0 158 256.1 0 154.8 234.6 0 269.827 154.8 0 265.436 151.6 0 293.341 151.6 0 293.236 154.8 0 268.074 158 0 294.9 158 0 145.2 271.037 0 142 87.0563 0 145.2 109.15 0 142 171.579 0 145.2 294.161 0 142 293.93 0 151.6 11.1655 0 151.6 34.9107 0 83.05 158 0 154.8 12.4419 0 158 11.0066 0 142 286.911 0</DataArray>
</Points>
<Verts>
 <DataArray type="Int64" Name="connectivity" format="ascii">0 1 2 3 4 5 6 7 8 9 10 11 12 13 14 15 16 17 18 19 20 21 22 23 24 25 26 27</DataArray>
 <DataArray type="Int64" Name="offsets" format="ascii">28</DataArray>
</Verts>
<Lines>
 <DataArray type="Int64" Name="connectivity" format="ascii"/>
 <DataArray type="Int64" Name="offsets" format="ascii"/>
</Lines>
<Stripes>
 <DataArray type="Int64" Name="connectivity" format="ascii"/>
 <DataArray type="Int64" Name="offsets" format="ascii"/>
</Stripes>
<Polys>
 <DataArray type="Int64" Name="connectivity" format="ascii"/>
 <DataArray type="Int64" Name="offsets" format="ascii"/>
</Polys>
</Piece>
</PolyData>
</VTKFile>