<?xml version="1.0" encoding="UTF-8" ?>
<VTKFile type="PolyData" version="0.1" order="LittleEndian">
<PolyData>
 <Piece NumberOfPoints="36" NumberOfVerts="1" NumberOfLines="0" NumberOfStrips="0" NumberOfPolys="0">
<PointData>
 <DataArray type="Float64" Name="speed" format="ascii">43.5 43 0 0 0 0 0 0 0 0 0 0 0 0 43 44.5 0 0 0 0 0 0 3.18455 5.87362 2.14681 43.369 0 18.3255 4.26249 43.3395 0 0 0 9.6329 0 0</DataArray>
</PointData>
<CellData/>
<Points>
 <DataArray type="Float64" Name="Points" NumberOfComponents="3" format="ascii">234.6 145.2 0 256.1 142 0 128.276 145.2 0 121.528 145.2 0 114.722 145.2 0 121.391 142 0 114.468 142 0 28.9636 142 0 5.1 142 0 154.8 59.1601 0 158 42.583 0 158 135.399 0 154.8 135.399 0 158 5.1 0 43.9 158 0 109.15 154.8 0 192.197 154.8 0 207.14 154.8 0 213.778 154.8 0 212.341 158 0 219.016 158 0 182.561 158 0 198.685 151.6 0 223.529 151.6 0 293.827 158 0 145.2 21.3464 0 145.2 283.171 0 142 225.7 0 142 280.647 0 142 20.991 0 151.6 14.549 0 154.8 14.5405 0 158 22.9519 0 145.2 266.594 0 142 294.9 0 148.4 264.677 0</DataArray>
</Points>
<Verts>
 <DataArray type="Int64" Name="connectivity" format="ascii">0 1 2 3 4 5 6 7 8 9 10 11 12 13 14 15 16 17 18 19 20 21 22 23 24 25 26 27 28 29 30 31 32 33 34 35</DataArray>
 <DataArray type="Int64" Name="offsets" format="ascii">36</DataArray>
</Verts>
<Lines>
 <DataArray type="Int64" Name="connectivity" format="ascii"/>
 <DataArray type="Int64" Name="offsets" format="ascii"/>
</Lines>
<Stripes>
 <DataArray type="Int64" Name="connectivity" format="ascii"/>
 <DataArray type="Int64" Name="offsets" format="ascii"/>
</Stripes>
<Polys>
 <DataArray type="Int64" Name="connectivity" format="ascii"/>
 <DataArray type="Int64" Name="offsets" format="ascii"/>
</Polys>
</Piece>
</PolyData>
</VTKFile>