<?xml version="1.0" encoding="UTF-8" ?>
<VTKFile type="PolyData" version="0.1" order="LittleEndian">
<PolyData>
 <Piece NumberOfPoints="23" NumberOfVerts="1" NumberOfLines="0" NumberOfStrips="0" NumberOfPolys="0">
<PointData>
 <DataArray type="Float64" Name="speed" format="ascii">0 0 0 0 16.7023 4.7086 0.611174 0 0 0 0 0 0 0 0 2.08207 0 0 0 0 2.83669 0 0</DataArray>
</PointData>
<CellData/>
<Points>
 <DataArray type="Float64" Name="Points" NumberOfComponents="3" format="ascii">43.387 145.2 0 10.768 145.2 0 25.085 142 0 5.1 142 0 154.8 48.3147 0 154.8 21.4324 0 154.8 9.12793 0 158 29.9613 0 269.827 154.8 0 277.6 154.8 0 286.331 158 0 294.9 158 0 145.2 271.037 0 142 164.601 0 145.2 164.601 0 142 173.434 0 142 266.383 0 142 294.9 0 151.6 11.1655 0 151.6 34.9107 0 158 14.2588 0 145.2 286.911 0 148.4 278.517 0</DataArray>
</Points>
<Verts>
 <DataArray type="Int64" Name="connectivity" format="ascii">0 1 2 3 4 5 6 7 8 9 10 11 12 13 14 15 16 17 18 19 20 21 22</DataArray>
 <DataArray type="Int64" Name="offsets" format="ascii">23</DataArray>
</Verts>
<Lines>
 <DataArray type="Int64" Name="connectivity" format="ascii"/>
 <DataArray type="Int64" Name="offsets" format="ascii"/>
</Lines>
<Stripes>
 <DataArray type="Int64" Name="connectivity" format="ascii"/>
 <DataArray type="Int64" Name="offsets" format="ascii"/>
</Stripes>
<Polys>
 <DataArray type="Int64" Name="connectivity" format="ascii"/>
 <DataArray type="Int64" Name="offsets" format="ascii"/>
</Polys>
</Piece>
</PolyData>
</VTKFile>