<?xml version="1.0" encoding="UTF-8" ?>
<VTKFile type="PolyData" version="0.1" order="LittleEndian">
<PolyData>
 <Piece NumberOfPoints="22" NumberOfVerts="1" NumberOfLines="0" NumberOfStrips="0" NumberOfPolys="0">
<PointData>
 <DataArray type="Float64" Name="speed" format="ascii">0 0 0 0 0 0 0 0 0 0 0 0 0 0 0 2.14872 2.56994 0 3.75376 0 43.4267 42.5957</DataArray>
</PointData>
<CellData/>
<Points>
 <DataArray type="Float64" Name="Points" NumberOfComponents="3" format="ascii">24.9562 142 0 5.80982 145.2 0 5.94745 142 0 33.9931 145.2 0 154.8 76.3578 0 158 25.7408 0 158 5.1 0 235.451 158 0 164.601 154.8 0 271.805 154.8 0 291.695 154.8 0 276.068 158 0 294.9 158 0 145.2 278.238 0 142 271.204 0 142 281.186 0 142 289.575 0 154.8 19.4359 0 149.82 144.435 0 151.6 53.6154 0 278.646 148.4 0 298.844 145.2 0</DataArray>
</Points>
<Verts>
 <DataArray type="Int64" Name="connectivity" format="ascii">0 1 2 3 4 5 6 7 8 9 10 11 12 13 14 15 16 17 18 19 20 21</DataArray>
 <DataArray type="Int64" Name="offsets" format="ascii">22</DataArray>
</Verts>
<Lines>
 <DataArray type="Int64" Name="connectivity" format="ascii"/>
 <DataArray type="Int64" Name="offsets" format="ascii"/>
</Lines>
<Stripes>
 <DataArray type="Int64" Name="connectivity" format="ascii"/>
 <DataArray type="Int64" Name="offsets" format="ascii"/>
</Stripes>
<Polys>
 <DataArray type="Int64" Name="connectivity" format="ascii"/>
 <DataArray type="Int64" Name="offsets" format="ascii"/>
</Polys>
</Piece>
</PolyData>
</VTKFile>