<?xml version="1.0" encoding="UTF-8" ?>
<VTKFile type="PolyData" version="0.1" order="LittleEndian">
<PolyData>
 <Piece NumberOfPoints="25" NumberOfVerts="1" NumberOfLines="0" NumberOfStrips="0" NumberOfPolys="0">
<PointData>
 <DataArray type="Float64" Name="speed" format="ascii">0 0 0 0 0 0 0 0 44.1908 43.5 1.77209 0 45 0 0 0 0 3.51127 1.74395 0 0 0 0 0 8.06254</DataArray>
</PointData>
<CellData/>
<Points>
 <DataArray type="Float64" Name="Points" NumberOfComponents="3" format="ascii">28.4533 148.4 0 12.6949 145.2 0 135.399 142 0 135.399 145.2 0 128.654 142 0 128.293 145.2 0 28.3562 142 0 5.1 142 0 158 279.539 0 154.8 234.6 0 158 13.5622 0 158 5.1 0 131.4 158 0 250.429 154.8 0 264.058 158 0 288.415 154.8 0 164.601 154.8 0 191.676 154.8 0 179.042 154.8 0 284.786 158 0 294.9 158 0 145.2 275.559 0 142 294.9 0 151.6 20.409 0 154.8 27.9608 0</DataArray>
</Points>
<Verts>
 <DataArray type="Int64" Name="connectivity" format="ascii">0 1 2 3 4 5 6 7 8 9 10 11 12 13 14 15 16 17 18 19 20 21 22 23 24</DataArray>
 <DataArray type="Int64" Name="offsets" format="ascii">25</DataArray>
</Verts>
<Lines>
 <DataArray type="Int64" Name="connectivity" format="ascii"/>
 <DataArray type="Int64" Name="offsets" format="ascii"/>
</Lines>
<Stripes>
 <DataArray type="Int64" Name="connectivity" format="ascii"/>
 <DataArray type="Int64" Name="offsets" format="ascii"/>
</Stripes>
<Polys>
 <DataArray type="Int64" Name="connectivity" format="ascii"/>
 <DataArray type="Int64" Name="offsets" format="ascii"/>
</Polys>
</Piece>
</PolyData>
</VTKFile>