<?xml version="1.0" encoding="UTF-8" ?>
<VTKFile type="PolyData" version="0.1" order="LittleEndian">
<PolyData>
 <Piece NumberOfPoints="24" NumberOfVerts="1" NumberOfLines="0" NumberOfStrips="0" NumberOfPolys="0">
<PointData>
 <DataArray type="Float64" Name="speed" format="ascii">0 0 0 0 0 0 0 44.5 0 0 0 0 0 0 0 38.796 0 42.944 43.8608 43.8121 13.0575 0 26.5525 0</DataArray>
</PointData>
<CellData/>
<Points>
 <DataArray type="Float64" Name="Points" NumberOfComponents="3" format="ascii">30.5921 148.4 0 49.7413 142 0 36.3161 145.2 0 12.0664 145.2 0 42.9446 145.2 0 17.82 142 0 5.1 142 0 158 190.85 0 154.8 21.0376 0 293.341 151.6 0 293.236 154.8 0 279 154.8 0 282.735 158 0 294.9 158 0 145.2 294.161 0 145.2 0.499331 0 142 294.9 0 61.578 158 0 126.4 154.8 0 59.8111 154.8 0 113.563 151.6 0 158 10.1 0 257.177 148.4 0 148.4 279.178 0</DataArray>
</Points>
<Verts>
 <DataArray type="Int64" Name="connectivity" format="ascii">0 1 2 3 4 5 6 7 8 9 10 11 12 13 14 15 16 17 18 19 20 21 22 23</DataArray>
 <DataArray type="Int64" Name="offsets" format="ascii">24</DataArray>
</Verts>
<Lines>
 <DataArray type="Int64" Name="connectivity" format="ascii"/>
 <DataArray type="Int64" Name="offsets" format="ascii"/>
</Lines>
<Stripes>
 <DataArray type="Int64" Name="connectivity" format="ascii"/>
 <DataArray type="Int64" Name="offsets" format="ascii"/>
</Stripes>
<Polys>
 <DataArray type="Int64" Name="connectivity" format="ascii"/>
 <DataArray type="Int64" Name="offsets" format="ascii"/>
</Polys>
</Piece>
</PolyData>
</VTKFile>