<?xml version="1.0" encoding="UTF-8" ?>
<VTKFile type="PolyData" version="0.1" order="LittleEndian">
<PolyData>
 <Piece NumberOfPoints="28" NumberOfVerts="1" NumberOfLines="0" NumberOfStrips="0" NumberOfPolys="0">
<PointData>
 <DataArray type="Float64" Name="speed" format="ascii">0 0 0 0 0 0 0 0 0 0 0 0 0 43 0 0 43.5 5.05075 0.645012 2.89713 0 0 0 0 0 0 0 0</DataArray>
</PointData>
<CellData/>
<Points>
 <DataArray type="Float64" Name="Points" NumberOfComponents="3" format="ascii">128.702 142 0 36.959 145.2 0 27.0569 145.2 0 8.20195 145.2 0 135.399 145.2 0 29.0751 142 0 5.1 142 0 158 52.5252 0 154.8 51.7985 0 154.8 11.3982 0 158 22.2074 0 158 5.1 0 178.295 158 0 43.9 158 0 163.618 151.6 0 170.274 151.6 0 65.4 154.8 0 252.635 154.8 0 276.904 151.6 0 274.196 154.8 0 290.732 154.8 0 142 266.433 0 142 288.432 0 145.2 274.667 0 151.6 135.399 0 148.4 277.693 0 142 275.864 0 142 294.9 0</DataArray>
</Points>
<Verts>
 <DataArray type="Int64" Name="connectivity" format="ascii">0 1 2 3 4 5 6 7 8 9 10 11 12 13 14 15 16 17 18 19 20 21 22 23 24 25 26 27</DataArray>
 <DataArray type="Int64" Name="offsets" format="ascii">28</DataArray>
</Verts>
<Lines>
 <DataArray type="Int64" Name="connectivity" format="ascii"/>
 <DataArray type="Int64" Name="offsets" format="ascii"/>
</Lines>
<Stripes>
 <DataArray type="Int64" Name="connectivity" format="ascii"/>
 <DataArray type="Int64" Name="offsets" format="ascii"/>
</Stripes>
<Polys>
 <DataArray type="Int64" Name="connectivity" format="ascii"/>
 <DataArray type="Int64" Name="offsets" format="ascii"/>
</Polys>
</Piece>
</PolyData>
</VTKFile>