<?xml version="1.0" encoding="UTF-8" ?>
<VTKFile type="PolyData" version="0.1" order="LittleEndian">
<PolyData>
 <Piece NumberOfPoints="30" NumberOfVerts="1" NumberOfLines="0" NumberOfStrips="0" NumberOfPolys="0">
<PointData>
 <DataArray type="Float64" Name="speed" format="ascii">43 0 41.5232 0 43 5.84748 1.5535 0 0 0 45 3.17678 1.88595 0 0 0 0 0 0 0 0 0 0 0 0 1.55741 0 0 0 0</DataArray>
</PointData>
<CellData/>
<Points>
 <DataArray type="Float64" Name="Points" NumberOfComponents="3" format="ascii">256.1 145.2 0 36.959 145.2 0 189.362 142 0 14.9902 142 0 256.1 148.4 0 11.285 145.2 0 6.9035 142 0 158 52.5252 0 154.8 33.2578 0 158 36.8982 0 158 168.6 0 154.8 20.6802 0 154.8 13.7569 0 178.295 158 0 276.831 151.6 0 270.704 154.8 0 284.447 158 0 291.547 151.6 0 291.238 154.8 0 293.491 158 0 142 266.433 0 145.2 240.511 0 145.2 279.665 0 142 273.38 0 142 284.227 0 158 10.8787 0 148.4 277.693 0 148.4 284.353 0 145.2 286.281 0 142 294.9 0</DataArray>
</Points>
<Verts>
 <DataArray type="Int64" Name="connectivity" format="ascii">0 1 2 3 4 5 6 7 8 9 10 11 12 13 14 15 16 17 18 19 20 21 22 23 24 25 26 27 28 29</DataArray>
 <DataArray type="Int64" Name="offsets" format="ascii">30</DataArray>
</Verts>
<Lines>
 <DataArray type="Int64" Name="connectivity" format="ascii"/>
 <DataArray type="Int64" Name="offsets" format="ascii"/>
</Lines>
<Stripes>
 <DataArray type="Int64" Name="connectivity" format="ascii"/>
 <DataArray type="Int64" Name="offsets" format="ascii"/>
</Stripes>
<Polys>
 <DataArray type="Int64" Name="connectivity" format="ascii"/>
 <DataArray type="Int64" Name="offsets" format="ascii"/>
</Polys>
</Piece>
</PolyData>
</VTKFile>