<?xml version="1.0" encoding="UTF-8" ?>
<VTKFile type="PolyData" version="0.1" order="LittleEndian">
<PolyData>
 <Piece NumberOfPoints="24" NumberOfVerts="1" NumberOfLines="0" NumberOfStrips="0" NumberOfPolys="0">
<PointData>
 <DataArray type="Float64" Name="speed" format="ascii">0 0 0 0 0 0 0 0 44.4746 2.40902 0 0 0 0 0 0 43.7254 6.00108 0 0 4.35651 0 5.00686 1.64319</DataArray>
</PointData>
<CellData/>
<Points>
 <DataArray type="Float64" Name="Points" NumberOfComponents="3" format="ascii">50.6822 142 0 27.8181 142 0 135.399 145.2 0 41.1412 145.2 0 16.7826 142 0 5.1 142 0 154.8 22.5403 0 158 29.8186 0 158 279.539 0 154.8 12.4629 0 158 5.1 0 254.101 154.8 0 294.255 158 0 282.201 154.8 0 285.655 158 0 145.2 250.923 0 145.2 20.5145 0 145.2 279.653 0 142 294.9 0 151.6 27.3863 0 158 17.2563 0 142 280.797 0 148.4 285.666 0 145.2 290.464 0</DataArray>
</Points>
<Verts>
 <DataArray type="Int64" Name="connectivity" format="ascii">0 1 2 3 4 5 6 7 8 9 10 11 12 13 14 15 16 17 18 19 20 21 22 23</DataArray>
 <DataArray type="Int64" Name="offsets" format="ascii">24</DataArray>
</Verts>
<Lines>
 <DataArray type="Int64" Name="connectivity" format="ascii"/>
 <DataArray type="Int64" Name="offsets" format="ascii"/>
</Lines>
<Stripes>
 <DataArray type="Int64" Name="connectivity" format="ascii"/>
 <DataArray type="Int64" Name="offsets" format="ascii"/>
</Stripes>
<Polys>
 <DataArray type="Int64" Name="connectivity" format="ascii"/>
 <DataArray type="Int64" Name="offsets" format="ascii"/>
</Polys>
</Piece>
</PolyData>
</VTKFile>