<?xml version="1.0" encoding="UTF-8" ?>
<VTKFile type="PolyData" version="0.1" order="LittleEndian">
<PolyData>
 <Piece NumberOfPoints="29" NumberOfVerts="1" NumberOfLines="0" NumberOfStrips="0" NumberOfPolys="0">
<PointData>
 <DataArray type="Float64" Name="speed" format="ascii">0 0 0 45 0 0 0 0 0 3.86538 2.06028 0.861276 0 0 0 0 0 0 3.59098 0 0 0 0 14.9252 0.293334 0 0 0 0</DataArray>
</PointData>
<CellData/>
<Points>
 <DataArray type="Float64" Name="Points" NumberOfComponents="3" format="ascii">14.9345 145.2 0 14.0378 142 0 5.1 142 0 158 168.6 0 154.8 128.961 0 154.8 136.399 0 158 129.013 0 158 135.399 0 158 31.7285 0 154.8 31.091 0 154.8 19.4714 0 154.8 9.75319 0 293.762 151.6 0 293.545 154.8 0 261.729 158 0 294.9 158 0 145.2 164.601 0 142 164.601 0 145.2 179.167 0 145.2 283.226 0 145.2 290.209 0 142 271.681 0 142 294.9 0 151.6 63.8605 0 158 11.4357 0 148.4 291.043 0 148.4 271.971 0 148.4 263.524 0 148.4 241.72 0</DataArray>
</Points>
<Verts>
 <DataArray type="Int64" Name="connectivity" format="ascii">0 1 2 3 4 5 6 7 8 9 10 11 12 13 14 15 16 17 18 19 20 21 22 23 24 25 26 27 28</DataArray>
 <DataArray type="Int64" Name="offsets" format="ascii">29</DataArray>
</Verts>
<Lines>
 <DataArray type="Int64" Name="connectivity" format="ascii"/>
 <DataArray type="Int64" Name="offsets" format="ascii"/>
</Lines>
<Stripes>
 <DataArray type="Int64" Name="connectivity" format="ascii"/>
 <DataArray type="Int64" Name="offsets" format="ascii"/>
</Stripes>
<Polys>
 <DataArray type="Int64" Name="connectivity" format="ascii"/>
 <DataArray type="Int64" Name="offsets" format="ascii"/>
</Polys>
</Piece>
</PolyData>
</VTKFile>