<?xml version="1.0" encoding="UTF-8" ?>
<VTKFile type="PolyData" version="0.1" order="LittleEndian">
<PolyData>
 <Piece NumberOfPoints="27" NumberOfVerts="1" NumberOfLines="0" NumberOfStrips="0" NumberOfPolys="0">
<PointData>
 <DataArray type="Float64" Name="speed" format="ascii">0 0 0 0 0 0 0 0 0 0 0 0 0 0 0 0 0 0 8.05347 10.9491 11.8284 0 0 0 0 0 0.0168922</DataArray>
</PointData>
<CellData/>
<Points>
 <DataArray type="Float64" Name="Points" NumberOfComponents="3" format="ascii">36.959 145.2 0 19.8392 142 0 5.1 142 0 158 52.5252 0 154.8 33.2578 0 158 36.8982 0 154.8 24.9605 0 154.8 15.0858 0 158 14.8463 0 158 5.1 0 178.295 158 0 276.831 154.8 0 291.547 151.6 0 291.238 154.8 0 279.092 158 0 294.9 158 0 142 266.433 0 142 164.601 0 145.2 173.485 0 145.2 193.727 0 145.2 216.238 0 145.2 279.008 0 142 294.9 0 158 29.7734 0 148.4 277.693 0 148.4 186.679 0 148.4 194.29 0</DataArray>
</Points>
<Verts>
 <DataArray type="Int64" Name="connectivity" format="ascii">0 1 2 3 4 5 6 7 8 9 10 11 12 13 14 15 16 17 18 19 20 21 22 23 24 25 26</DataArray>
 <DataArray type="Int64" Name="offsets" format="ascii">27</DataArray>
</Verts>
<Lines>
 <DataArray type="Int64" Name="connectivity" format="ascii"/>
 <DataArray type="Int64" Name="offsets" format="ascii"/>
</Lines>
<Stripes>
 <DataArray type="Int64" Name="connectivity" format="ascii"/>
 <DataArray type="Int64" Name="offsets" format="ascii"/>
</Stripes>
<Polys>
 <DataArray type="Int64" Name="connectivity" format="ascii"/>
 <DataArray type="Int64" Name="offsets" format="ascii"/>
</Polys>
</Piece>
</PolyData>
</VTKFile>