<?xml version="1.0" encoding="UTF-8" ?>
<VTKFile type="PolyData" version="0.1" order="LittleEndian">
<PolyData>
 <Piece NumberOfPoints="24" NumberOfVerts="1" NumberOfLines="0" NumberOfStrips="0" NumberOfPolys="0">
<PointData>
 <DataArray type="Float64" Name="speed" format="ascii">0 0 0 0 0 43.5 2.62388 0 0 0 0 0 0 0 12.44 3.93412 1.36629 0 45 0 0 3.67417 6.91977 2.65207</DataArray>
</PointData>
<CellData/>
<Points>
 <DataArray type="Float64" Name="Points" NumberOfComponents="3" format="ascii">26.379 145.2 0 15.0103 142 0 7.55399 145.2 0 23.9874 142 0 5.1 142 0 158 234.6 0 158 6.41194 0 275.121 154.8 0 164.601 158 0 164.601 154.8 0 282.504 154.8 0 289.999 154.8 0 285.013 158 0 294.9 158 0 148.4 259.881 0 145.2 291.127 0 142 294.217 0 142 264.42 0 142 131.4 0 142 284.569 0 151.6 23.6139 0 154.8 14.2952 0 148.4 278.227 0 148.4 287.723 0</DataArray>
</Points>
<Verts>
 <DataArray type="Int64" Name="connectivity" format="ascii">0 1 2 3 4 5 6 7 8 9 10 11 12 13 14 15 16 17 18 19 20 21 22 23</DataArray>
 <DataArray type="Int64" Name="offsets" format="ascii">24</DataArray>
</Verts>
<Lines>
 <DataArray type="Int64" Name="connectivity" format="ascii"/>
 <DataArray type="Int64" Name="offsets" format="ascii"/>
</Lines>
<Stripes>
 <DataArray type="Int64" Name="connectivity" format="ascii"/>
 <DataArray type="Int64" Name="offsets" format="ascii"/>
</Stripes>
<Polys>
 <DataArray type="Int64" Name="connectivity" format="ascii"/>
 <DataArray type="Int64" Name="offsets" format="ascii"/>
</Polys>
</Piece>
</PolyData>
</VTKFile>