<?xml version="1.0" encoding="UTF-8" ?>
<VTKFile type="PolyData" version="0.1" order="LittleEndian">
<PolyData>
 <Piece NumberOfPoints="29" NumberOfVerts="1" NumberOfLines="0" NumberOfStrips="0" NumberOfPolys="0">
<PointData>
 <DataArray type="Float64" Name="speed" format="ascii">0 0 0 0 0 2.93626 1.42077 0.979227 0 0 0 0 44.5 8.62228 0.151585 0 3.138 0 0 0 0 0 4.9024 7.38456 4.43402 0 0 0 0</DataArray>
</PointData>
<CellData/>
<Points>
 <DataArray type="Float64" Name="Points" NumberOfComponents="3" format="ascii">128.702 142 0 121.839 142 0 136.377 145.2 0 38.4841 145.2 0 18.8893 142 0 33.3683 148.4 0 21.4994 148.4 0 16.4598 145.2 0 10.1186 145.2 0 5.1 142 0 154.8 122.303 0 158 52.5252 0 158 190.85 0 151.6 84.0942 0 151.6 26.8341 0 154.8 11.6771 0 158 15.4423 0 158 5.1 0 170.994 158 0 178.295 158 0 180.438 154.8 0 187.239 158 0 176.797 151.6 0 221.388 151.6 0 291.379 158 0 142 266.433 0 145.2 288.432 0 142 294.9 0 148.4 277.693 0</DataArray>
</Points>
<Verts>
 <DataArray type="Int64" Name="connectivity" format="ascii">0 1 2 3 4 5 6 7 8 9 10 11 12 13 14 15 16 17 18 19 20 21 22 23 24 25 26 27 28</DataArray>
 <DataArray type="Int64" Name="offsets" format="ascii">29</DataArray>
</Verts>
<Lines>
 <DataArray type="Int64" Name="connectivity" format="ascii"/>
 <DataArray type="Int64" Name="offsets" format="ascii"/>
</Lines>
<Stripes>
 <DataArray type="Int64" Name="connectivity" format="ascii"/>
 <DataArray type="Int64" Name="offsets" format="ascii"/>
</Stripes>
<Polys>
 <DataArray type="Int64" Name="connectivity" format="ascii"/>
 <DataArray type="Int64" Name="offsets" format="ascii"/>
</Polys>
</Piece>
</PolyData>
</VTKFile>