<?xml version="1.0" encoding="UTF-8" ?>
<VTKFile type="PolyData" version="0.1" order="LittleEndian">
<PolyData>
 <Piece NumberOfPoints="24" NumberOfVerts="1" NumberOfLines="0" NumberOfStrips="0" NumberOfPolys="0">
<PointData>
 <DataArray type="Float64" Name="speed" format="ascii">0 0 0 1.7617 9.93106 10.8779 1.01152 0 36.7546 30.0168 2.23616 0 0 0 0 0 0 0 0 0 0 0 0.654877 2.06496</DataArray>
</PointData>
<CellData/>
<Points>
 <DataArray type="Float64" Name="Points" NumberOfComponents="3" format="ascii">15.7661 142 0 9.05905 145.2 0 135.399 142 0 127.844 142 0 121.356 145.2 0 100.9 145.2 0 27.5788 145.2 0 5.1 142 0 154.8 245.911 0 158 121.225 0 158 30.9536 0 158 5.1 0 250.148 154.8 0 285.167 154.8 0 164.601 158 0 263.018 158 0 294.9 158 0 145.2 270.15 0 142 271.868 0 142 294.9 0 151.6 12.1506 0 154.8 16.0593 0 151.901 152.692 0 148.593 162.249 0</DataArray>
</Points>
<Verts>
 <DataArray type="Int64" Name="connectivity" format="ascii">0 1 2 3 4 5 6 7 8 9 10 11 12 13 14 15 16 17 18 19 20 21 22 23</DataArray>
 <DataArray type="Int64" Name="offsets" format="ascii">24</DataArray>
</Verts>
<Lines>
 <DataArray type="Int64" Name="connectivity" format="ascii"/>
 <DataArray type="Int64" Name="offsets" format="ascii"/>
</Lines>
<Stripes>
 <DataArray type="Int64" Name="connectivity" format="ascii"/>
 <DataArray type="Int64" Name="offsets" format="ascii"/>
</Stripes>
<Polys>
 <DataArray type="Int64" Name="connectivity" format="ascii"/>
 <DataArray type="Int64" Name="offsets" format="ascii"/>
</Polys>
</Piece>
</PolyData>
</VTKFile>