<?xml version="1.0" encoding="UTF-8" ?>
<VTKFile type="PolyData" version="0.1" order="LittleEndian">
<PolyData>
 <Piece NumberOfPoints="25" NumberOfVerts="1" NumberOfLines="0" NumberOfStrips="0" NumberOfPolys="0">
<PointData>
 <DataArray type="Float64" Name="speed" format="ascii">0 0 0 44.5 0 0 0 0 0 42 0 5.06291 3.17246 2.09159 0 0 0 0 0 0 0 0 0 0.74705 0</DataArray>
</PointData>
<CellData/>
<Points>
 <DataArray type="Float64" Name="Points" NumberOfComponents="3" format="ascii">128.702 142 0 36.959 145.2 0 27.0569 145.2 0 190.85 142 0 135.399 145.2 0 29.0751 142 0 5.1 142 0 158 52.5252 0 154.8 51.7985 0 158 298.35 0 158 22.2074 0 154.8 21.6933 0 154.8 9.10079 0 158 6.14579 0 178.295 158 0 241.131 154.8 0 276.831 151.6 0 270.704 158 0 290.732 154.8 0 281.792 154.8 0 277.474 158 0 142 266.433 0 142 294.9 0 151.6 13.0428 0 148.4 277.693 0</DataArray>
</Points>
<Verts>
 <DataArray type="Int64" Name="connectivity" format="ascii">0 1 2 3 4 5 6 7 8 9 10 11 12 13 14 15 16 17 18 19 20 21 22 23 24</DataArray>
 <DataArray type="Int64" Name="offsets" format="ascii">25</DataArray>
</Verts>
<Lines>
 <DataArray type="Int64" Name="connectivity" format="ascii"/>
 <DataArray type="Int64" Name="offsets" format="ascii"/>
</Lines>
<Stripes>
 <DataArray type="Int64" Name="connectivity" format="ascii"/>
 <DataArray type="Int64" Name="offsets" format="ascii"/>
</Stripes>
<Polys>
 <DataArray type="Int64" Name="connectivity" format="ascii"/>
 <DataArray type="Int64" Name="offsets" format="ascii"/>
</Polys>
</Piece>
</PolyData>
</VTKFile>