<?xml version="1.0" encoding="UTF-8" ?>
<VTKFile type="PolyData" version="0.1" order="LittleEndian">
<PolyData>
 <Piece NumberOfPoints="18" NumberOfVerts="1" NumberOfLines="0" NumberOfStrips="0" NumberOfPolys="0">
<PointData>
 <DataArray type="Float64" Name="speed" format="ascii">0 0 0 42.623 0 5.36197 0 0 0 0 0 44 3.38124 0 0 0 2.22169 0</DataArray>
</PointData>
<CellData/>
<Points>
 <DataArray type="Float64" Name="Points" NumberOfComponents="3" format="ascii">50.6822 142 0 27.8181 145.2 0 5.1 142 0 158 277.473 0 154.8 22.5403 0 158 16.7588 0 158 5.1 0 254.101 154.8 0 294.255 154.8 0 274.282 158 0 294.9 158 0 142 87.15 0 145.2 255.817 0 145.2 281.607 0 145.2 289.87 0 151.6 27.3863 0 142 282.74 0 142 294.9 0</DataArray>
</Points>
<Verts>
 <DataArray type="Int64" Name="connectivity" format="ascii">0 1 2 3 4 5 6 7 8 9 10 11 12 13 14 15 16 17</DataArray>
 <DataArray type="Int64" Name="offsets" format="ascii">18</DataArray>
</Verts>
<Lines>
 <DataArray type="Int64" Name="connectivity" format="ascii"/>
 <DataArray type="Int64" Name="offsets" format="ascii"/>
</Lines>
<Stripes>
 <DataArray type="Int64" Name="connectivity" format="ascii"/>
 <DataArray type="Int64" Name="offsets" format="ascii"/>
</Stripes>
<Polys>
 <DataArray type="Int64" Name="connectivity" format="ascii"/>
 <DataArray type="Int64" Name="offsets" format="ascii"/>
</Polys>
</Piece>
</PolyData>
</VTKFile>