<?xml version="1.0" encoding="UTF-8" ?>
<VTKFile type="PolyData" version="0.1" order="LittleEndian">
<PolyData>
 <Piece NumberOfPoints="30" NumberOfVerts="1" NumberOfLines="0" NumberOfStrips="0" NumberOfPolys="0">
<PointData>
 <DataArray type="Float64" Name="speed" format="ascii">0 0 0 7.7741 11.5078 2.44179 0 0 0 0 0 0 27.4732 0 0 0 0 0 0 0 0 0 0 8.51912 2.89832 0 0 0 0 0</DataArray>
</PointData>
<CellData/>
<Points>
 <DataArray type="Float64" Name="Points" NumberOfComponents="3" format="ascii">135.399 142 0 135.399 145.2 0 128.276 142 0 83.6322 142 0 31.2261 145.2 0 6.3209 142 0 154.8 9.48921 0 158 32.5593 0 158 5.1 0 154.8 56.1236 0 154.8 18.1655 0 171.371 154.8 0 73.5429 158 0 192.049 158 0 198.855 158 0 177.634 154.8 0 192.016 154.8 0 199.21 154.8 0 205.496 158 0 163.65 154.8 0 205.181 151.6 0 207.14 154.8 0 213.778 154.8 0 254.539 158 0 293.451 158 0 145.2 272.875 0 148.4 283.171 0 142 177.63 0 148.4 264.677 0 142 294.9 0</DataArray>
</Points>
<Verts>
 <DataArray type="Int64" Name="connectivity" format="ascii">0 1 2 3 4 5 6 7 8 9 10 11 12 13 14 15 16 17 18 19 20 21 22 23 24 25 26 27 28 29</DataArray>
 <DataArray type="Int64" Name="offsets" format="ascii">30</DataArray>
</Verts>
<Lines>
 <DataArray type="Int64" Name="connectivity" format="ascii"/>
 <DataArray type="Int64" Name="offsets" format="ascii"/>
</Lines>
<Stripes>
 <DataArray type="Int64" Name="connectivity" format="ascii"/>
 <DataArray type="Int64" Name="offsets" format="ascii"/>
</Stripes>
<Polys>
 <DataArray type="Int64" Name="connectivity" format="ascii"/>
 <DataArray type="Int64" Name="offsets" format="ascii"/>
</Polys>
</Piece>
</PolyData>
</VTKFile>