<?xml version="1.0" encoding="UTF-8" ?>
<VTKFile type="PolyData" version="0.1" order="LittleEndian">
<PolyData>
 <Piece NumberOfPoints="25" NumberOfVerts="1" NumberOfLines="0" NumberOfStrips="0" NumberOfPolys="0">
<PointData>
 <DataArray type="Float64" Name="speed" format="ascii">0 42.3609 0 0.448206 0 0 0 0 0 0 0 0 0 0 0 0 0 0 2.10325 0 0 0 0 0 14.4402</DataArray>
</PointData>
<CellData/>
<Points>
 <DataArray type="Float64" Name="Points" NumberOfComponents="3" format="ascii">25.697 145.2 0 299.252 142 0 18.7975 145.2 0 15.8794 142 0 5.1 142 0 154.8 30.2604 0 158 23.604 0 154.8 23.3256 0 158 16.7303 0 164.601 154.8 0 164.601 158 0 171.621 158 0 274.33 154.8 0 289.88 154.8 0 269.129 158 0 294.9 158 0 142 171.317 0 145.2 280.648 0 142 280.961 0 142 294.9 0 158 10.1 0 148.4 273.805 0 148.4 258.259 0 148.4 286.499 0 148.4 239.634 0</DataArray>
</Points>
<Verts>
 <DataArray type="Int64" Name="connectivity" format="ascii">0 1 2 3 4 5 6 7 8 9 10 11 12 13 14 15 16 17 18 19 20 21 22 23 24</DataArray>
 <DataArray type="Int64" Name="offsets" format="ascii">25</DataArray>
</Verts>
<Lines>
 <DataArray type="Int64" Name="connectivity" format="ascii"/>
 <DataArray type="Int64" Name="offsets" format="ascii"/>
</Lines>
<Stripes>
 <DataArray type="Int64" Name="connectivity" format="ascii"/>
 <DataArray type="Int64" Name="offsets" format="ascii"/>
</Stripes>
<Polys>
 <DataArray type="Int64" Name="connectivity" format="ascii"/>
 <DataArray type="Int64" Name="offsets" format="ascii"/>
</Polys>
</Piece>
</PolyData>
</VTKFile>