<?xml version="1.0" encoding="UTF-8" ?>
<VTKFile type="PolyData" version="0.1" order="LittleEndian">
<PolyData>
 <Piece NumberOfPoints="22" NumberOfVerts="1" NumberOfLines="0" NumberOfStrips="0" NumberOfPolys="0">
<PointData>
 <DataArray type="Float64" Name="speed" format="ascii">0 0 0 0 0 0 4.44637 3.65729 0 43.5 0 0 0 0 0 0 0 44.5 0 0 44.2079 0</DataArray>
</PointData>
<CellData/>
<Points>
 <DataArray type="Float64" Name="Points" NumberOfComponents="3" format="ascii">24.9562 142 0 15.8044 145.2 0 9.09607 145.2 0 13.8699 142 0 5.1 142 0 158 25.9733 0 154.8 26.8105 0 158 8.50701 0 235.451 158 0 65.4 154.8 0 269.827 154.8 0 277.774 154.8 0 287.705 154.8 0 288.041 158 0 294.9 158 0 142 293.95 0 145.2 271.037 0 142 109.15 0 151.6 11.1655 0 151.6 34.9107 0 37.0927 158 0 154.8 13.0334 0</DataArray>
</Points>
<Verts>
 <DataArray type="Int64" Name="connectivity" format="ascii">0 1 2 3 4 5 6 7 8 9 10 11 12 13 14 15 16 17 18 19 20 21</DataArray>
 <DataArray type="Int64" Name="offsets" format="ascii">22</DataArray>
</Verts>
<Lines>
 <DataArray type="Int64" Name="connectivity" format="ascii"/>
 <DataArray type="Int64" Name="offsets" format="ascii"/>
</Lines>
<Stripes>
 <DataArray type="Int64" Name="connectivity" format="ascii"/>
 <DataArray type="Int64" Name="offsets" format="ascii"/>
</Stripes>
<Polys>
 <DataArray type="Int64" Name="connectivity" format="ascii"/>
 <DataArray type="Int64" Name="offsets" format="ascii"/>
</Polys>
</Piece>
</PolyData>
</VTKFile>