<?xml version="1.0" encoding="UTF-8" ?>
<VTKFile type="PolyData" version="0.1" order="LittleEndian">
<PolyData>
 <Piece NumberOfPoints="25" NumberOfVerts="1" NumberOfLines="0" NumberOfStrips="0" NumberOfPolys="0">
<PointData>
 <DataArray type="Float64" Name="speed" format="ascii">0 0 0 0 3.39629 3.1485 0 0 0 0 0 0 0 44.4387 7.03115 2.91028 0 0 0 0 17.5403 7.01879 0 0 0</DataArray>
</PointData>
<CellData/>
<Points>
 <DataArray type="Float64" Name="Points" NumberOfComponents="3" format="ascii">24.9562 142 0 5.80982 145.2 0 5.94745 142 0 33.9931 145.2 0 154.8 71.4189 0 158 21.5453 0 158 5.1 0 181.342 154.8 0 235.451 158 0 164.601 158 0 167.674 154.8 0 171.415 158 0 266.076 158 0 64.5255 158 0 287.611 154.8 0 292.22 158 0 145.2 271.404 0 142 278.238 0 142 271.204 0 151.6 19.4359 0 151.6 88.285 0 151.6 44.109 0 145.2 291.316 0 148.4 279.505 0 142 294.9 0</DataArray>
</Points>
<Verts>
 <DataArray type="Int64" Name="connectivity" format="ascii">0 1 2 3 4 5 6 7 8 9 10 11 12 13 14 15 16 17 18 19 20 21 22 23 24</DataArray>
 <DataArray type="Int64" Name="offsets" format="ascii">25</DataArray>
</Verts>
<Lines>
 <DataArray type="Int64" Name="connectivity" format="ascii"/>
 <DataArray type="Int64" Name="offsets" format="ascii"/>
</Lines>
<Stripes>
 <DataArray type="Int64" Name="connectivity" format="ascii"/>
 <DataArray type="Int64" Name="offsets" format="ascii"/>
</Stripes>
<Polys>
 <DataArray type="Int64" Name="connectivity" format="ascii"/>
 <DataArray type="Int64" Name="offsets" format="ascii"/>
</Polys>
</Piece>
</PolyData>
</VTKFile>