<?xml version="1.0" encoding="UTF-8" ?>
<VTKFile type="PolyData" version="0.1" order="LittleEndian">
<PolyData>
 <Piece NumberOfPoints="27" NumberOfVerts="1" NumberOfLines="0" NumberOfStrips="0" NumberOfPolys="0">
<PointData>
 <DataArray type="Float64" Name="speed" format="ascii">0 0 5.57459 8.24512 10.8985 1.43677 0 0 0 0 0 0 0 0 0 0 0 0 0 0 0 0 0 0 0 0 0</DataArray>
</PointData>
<CellData/>
<Points>
 <DataArray type="Float64" Name="Points" NumberOfComponents="3" format="ascii">6.03703 148.4 0 56.8172 142 0 131.537 145.2 0 117.74 142 0 100.439 145.2 0 33.715 145.2 0 5.1 142 0 158 128.784 0 154.8 28.4286 0 158 5.1 0 281.883 154.8 0 288.566 154.8 0 280.374 158 0 294.9 158 0 145.2 267.95 0 142 164.601 0 145.2 164.601 0 142 265.426 0 151.6 22.8375 0 154.8 21.5657 0 151.6 135.399 0 158 24.8841 0 148.4 205.601 0 145.2 275.942 0 142 294.9 0 145.2 286.079 0 148.4 275.888 0</DataArray>
</Points>
<Verts>
 <DataArray type="Int64" Name="connectivity" format="ascii">0 1 2 3 4 5 6 7 8 9 10 11 12 13 14 15 16 17 18 19 20 21 22 23 24 25 26</DataArray>
 <DataArray type="Int64" Name="offsets" format="ascii">27</DataArray>
</Verts>
<Lines>
 <DataArray type="Int64" Name="connectivity" format="ascii"/>
 <DataArray type="Int64" Name="offsets" format="ascii"/>
</Lines>
<Stripes>
 <DataArray type="Int64" Name="connectivity" format="ascii"/>
 <DataArray type="Int64" Name="offsets" format="ascii"/>
</Stripes>
<Polys>
 <DataArray type="Int64" Name="connectivity" format="ascii"/>
 <DataArray type="Int64" Name="offsets" format="ascii"/>
</Polys>
</Piece>
</PolyData>
</VTKFile>