<?xml version="1.0" encoding="UTF-8" ?>
<VTKFile type="PolyData" version="0.1" order="LittleEndian">
<PolyData>
 <Piece NumberOfPoints="28" NumberOfVerts="1" NumberOfLines="0" NumberOfStrips="0" NumberOfPolys="0">
<PointData>
 <DataArray type="Float64" Name="speed" format="ascii">0 0 0 0 0 0 0 0 0 0 0 0 0 0 25.6818 20.3972 0 12.1923 0 6.84897 0 0 4.0119 4.61336 0 0 5.2817 0</DataArray>
</PointData>
<CellData/>
<Points>
 <DataArray type="Float64" Name="Points" NumberOfComponents="3" format="ascii">6.03703 148.4 0 56.8172 142 0 135.399 145.2 0 135.399 142 0 128.526 142 0 34.4018 145.2 0 5.1 142 0 158 128.784 0 154.8 28.4286 0 158 5.1 0 281.883 154.8 0 288.543 154.8 0 279.99 158 0 294.9 158 0 142 86.3028 0 145.2 101.684 0 145.2 279.246 0 142 252.388 0 151.6 22.8375 0 140.125 151.068 0 158 24.8841 0 148.4 205.601 0 148.4 222.885 0 148.4 234.88 0 148.4 291.043 0 145.2 286.053 0 142 287.992 0 142 294.9 0</DataArray>
</Points>
<Verts>
 <DataArray type="Int64" Name="connectivity" format="ascii">0 1 2 3 4 5 6 7 8 9 10 11 12 13 14 15 16 17 18 19 20 21 22 23 24 25 26 27</DataArray>
 <DataArray type="Int64" Name="offsets" format="ascii">28</DataArray>
</Verts>
<Lines>
 <DataArray type="Int64" Name="connectivity" format="ascii"/>
 <DataArray type="Int64" Name="offsets" format="ascii"/>
</Lines>
<Stripes>
 <DataArray type="Int64" Name="connectivity" format="ascii"/>
 <DataArray type="Int64" Name="offsets" format="ascii"/>
</Stripes>
<Polys>
 <DataArray type="Int64" Name="connectivity" format="ascii"/>
 <DataArray type="Int64" Name="offsets" format="ascii"/>
</Polys>
</Piece>
</PolyData>
</VTKFile>