<?xml version="1.0" encoding="UTF-8" ?>
<VTKFile type="PolyData" version="0.1" order="LittleEndian">
<PolyData>
 <Piece NumberOfPoints="33" NumberOfVerts="1" NumberOfLines="0" NumberOfStrips="0" NumberOfPolys="0">
<PointData>
 <DataArray type="Float64" Name="speed" format="ascii">0 4.47215 13.0503 0 0 0 0 0 0 0 44.3997 0 0 0 0 0 0 0 0.147911 2.36406 7.8077 9.95843 5.74599 0 0 0 0 0 0 0 0 0 0</DataArray>
</PointData>
<CellData/>
<Points>
 <DataArray type="Float64" Name="Points" NumberOfComponents="3" format="ascii">135.399 142 0 133.177 145.2 0 63.1411 145.2 0 154.8 9.48921 0 158 32.5593 0 158 5.1 0 154.8 56.1236 0 154.8 18.1655 0 171.371 158 0 164.601 154.8 0 20.7503 158 0 186.012 154.8 0 185.197 158 0 192.049 158 0 198.855 158 0 177.634 154.8 0 192.016 154.8 0 199.21 154.8 0 205.496 154.8 0 210.181 151.6 0 251.509 154.8 0 274.505 151.6 0 288.937 154.8 0 145.2 163.6 0 142 294.9 0 142 274.206 0 142 164.601 0 142 171.032 0 145.2 177.63 0 148.4 164.601 0 148.4 171.191 0 148.4 178.577 0 148.4 264.677 0</DataArray>
</Points>
<Verts>
 <DataArray type="Int64" Name="connectivity" format="ascii">0 1 2 3 4 5 6 7 8 9 10 11 12 13 14 15 16 17 18 19 20 21 22 23 24 25 26 27 28 29 30 31 32</DataArray>
 <DataArray type="Int64" Name="offsets" format="ascii">33</DataArray>
</Verts>
<Lines>
 <DataArray type="Int64" Name="connectivity" format="ascii"/>
 <DataArray type="Int64" Name="offsets" format="ascii"/>
</Lines>
<Stripes>
 <DataArray type="Int64" Name="connectivity" format="ascii"/>
 <DataArray type="Int64" Name="offsets" format="ascii"/>
</Stripes>
<Polys>
 <DataArray type="Int64" Name="connectivity" format="ascii"/>
 <DataArray type="Int64" Name="offsets" format="ascii"/>
</Polys>
</Piece>
</PolyData>
</VTKFile>