<?xml version="1.0" encoding="UTF-8" ?>
<VTKFile type="PolyData" version="0.1" order="LittleEndian">
<PolyData>
 <Piece NumberOfPoints="30" NumberOfVerts="1" NumberOfLines="0" NumberOfStrips="0" NumberOfPolys="0">
<PointData>
 <DataArray type="Float64" Name="speed" format="ascii">0 0 0 0 0 0 0 0 0 21.198 23.7814 0 0 0 0 0 0 2.5157 7.67321 7.83004 6.6801 0 37.7 0 0 0 0 2.6329 0 0</DataArray>
</PointData>
<CellData/>
<Points>
 <DataArray type="Float64" Name="Points" NumberOfComponents="3" format="ascii">128.276 145.2 0 121.528 145.2 0 114.722 145.2 0 121.391 142 0 114.468 142 0 28.9636 142 0 5.1 142 0 154.8 59.1601 0 158 42.583 0 158 207.944 0 154.8 216.174 0 158 5.1 0 192.197 154.8 0 212.341 158 0 219.016 158 0 182.561 158 0 194.381 151.6 0 196.89 158 0 240.265 154.8 0 259.305 154.8 0 275.007 154.8 0 145.2 283.171 0 142 19.3702 0 142 272.597 0 151.6 14.549 0 154.8 14.5405 0 158 22.9519 0 148.4 225.414 0 142 294.9 0 148.4 264.677 0</DataArray>
</Points>
<Verts>
 <DataArray type="Int64" Name="connectivity" format="ascii">0 1 2 3 4 5 6 7 8 9 10 11 12 13 14 15 16 17 18 19 20 21 22 23 24 25 26 27 28 29</DataArray>
 <DataArray type="Int64" Name="offsets" format="ascii">30</DataArray>
</Verts>
<Lines>
 <DataArray type="Int64" Name="connectivity" format="ascii"/>
 <DataArray type="Int64" Name="offsets" format="ascii"/>
</Lines>
<Stripes>
 <DataArray type="Int64" Name="connectivity" format="ascii"/>
 <DataArray type="Int64" Name="offsets" format="ascii"/>
</Stripes>
<Polys>
 <DataArray type="Int64" Name="connectivity" format="ascii"/>
 <DataArray type="Int64" Name="offsets" format="ascii"/>
</Polys>
</Piece>
</PolyData>
</VTKFile>