<?xml version="1.0" encoding="UTF-8" ?>
<VTKFile type="PolyData" version="0.1" order="LittleEndian">
<PolyData>
 <Piece NumberOfPoints="27" NumberOfVerts="1" NumberOfLines="0" NumberOfStrips="0" NumberOfPolys="0">
<PointData>
 <DataArray type="Float64" Name="speed" format="ascii">44.0677 0 0 0 0 18.5717 6.58491 0 0 0 0 0 0 0 11.8953 15.5436 15.1711 8.73824 3.37883 0 0 18.7187 11.5655 1.91977 0 12.8498 2.45908</DataArray>
</PointData>
<CellData/>
<Points>
 <DataArray type="Float64" Name="Points" NumberOfComponents="3" format="ascii">256.634 142 0 15.0103 142 0 7.55399 145.2 0 23.9874 142 0 5.1 142 0 158 67.9649 0 158 15.8972 0 275.121 154.8 0 164.601 158 0 164.601 154.8 0 282.504 154.8 0 289.999 154.8 0 285.013 158 0 294.9 158 0 145.2 185.234 0 145.2 227.33 0 145.2 247.92 0 145.2 279.257 0 145.2 288.932 0 142 264.42 0 151.6 23.6139 0 151.6 73.5262 0 154.8 29.8343 0 148.4 257.378 0 148.4 284.843 0 145.2 263.253 0 142 293.67 0</DataArray>
</Points>
<Verts>
 <DataArray type="Int64" Name="connectivity" format="ascii">0 1 2 3 4 5 6 7 8 9 10 11 12 13 14 15 16 17 18 19 20 21 22 23 24 25 26</DataArray>
 <DataArray type="Int64" Name="offsets" format="ascii">27</DataArray>
</Verts>
<Lines>
 <DataArray type="Int64" Name="connectivity" format="ascii"/>
 <DataArray type="Int64" Name="offsets" format="ascii"/>
</Lines>
<Stripes>
 <DataArray type="Int64" Name="connectivity" format="ascii"/>
 <DataArray type="Int64" Name="offsets" format="ascii"/>
</Stripes>
<Polys>
 <DataArray type="Int64" Name="connectivity" format="ascii"/>
 <DataArray type="Int64" Name="offsets" format="ascii"/>
</Polys>
</Piece>
</PolyData>
</VTKFile>