<?xml version="1.0" encoding="UTF-8" ?>
<VTKFile type="PolyData" version="0.1" order="LittleEndian">
<PolyData>
 <Piece NumberOfPoints="24" NumberOfVerts="1" NumberOfLines="0" NumberOfStrips="0" NumberOfPolys="0">
<PointData>
 <DataArray type="Float64" Name="speed" format="ascii">0 0 0 0 0 0 43.5 4.7998 0 0 0 0 0 0 0 0 44.2713 0 0 0.955525 0 0 1.66596 3.13688</DataArray>
</PointData>
<CellData/>
<Points>
 <DataArray type="Float64" Name="Points" NumberOfComponents="3" format="ascii">6.37897 142 0 20.9757 145.2 0 154.8 135.399 0 158 128.34 0 158 136.4 0 158 33.1743 0 158 234.6 0 154.8 10.876 0 164.601 154.8 0 171.165 158 0 163.6 158 0 175.845 154.8 0 264.07 158 0 294.9 158 0 145.2 260.544 0 142 270.733 0 142 65.0144 0 148.4 275.559 0 142 294.9 0 158 11.5888 0 148.4 288.149 0 145.2 287.594 0 145.2 279.21 0 142 286.28 0</DataArray>
</Points>
<Verts>
 <DataArray type="Int64" Name="connectivity" format="ascii">0 1 2 3 4 5 6 7 8 9 10 11 12 13 14 15 16 17 18 19 20 21 22 23</DataArray>
 <DataArray type="Int64" Name="offsets" format="ascii">24</DataArray>
</Verts>
<Lines>
 <DataArray type="Int64" Name="connectivity" format="ascii"/>
 <DataArray type="Int64" Name="offsets" format="ascii"/>
</Lines>
<Stripes>
 <DataArray type="Int64" Name="connectivity" format="ascii"/>
 <DataArray type="Int64" Name="offsets" format="ascii"/>
</Stripes>
<Polys>
 <DataArray type="Int64" Name="connectivity" format="ascii"/>
 <DataArray type="Int64" Name="offsets" format="ascii"/>
</Polys>
</Piece>
</PolyData>
</VTKFile>