<?xml version="1.0" encoding="UTF-8" ?>
<VTKFile type="PolyData" version="0.1" order="LittleEndian">
<PolyData>
 <Piece NumberOfPoints="20" NumberOfVerts="1" NumberOfLines="0" NumberOfStrips="0" NumberOfPolys="0">
<PointData>
 <DataArray type="Float64" Name="speed" format="ascii">0 0 15.4606 14.1757 0 0 0 0 0 0 0 0 9.13391 13.9597 2.67684 3.91834 0 45 0 0</DataArray>
</PointData>
<CellData/>
<Points>
 <DataArray type="Float64" Name="Points" NumberOfComponents="3" format="ascii">30.5921 148.4 0 42.9446 145.2 0 167.411 142 0 164.095 145.2 0 29.3207 142 0 5.1 142 0 154.8 21.0376 0 293.341 151.6 0 293.236 154.8 0 283.111 158 0 294.9 158 0 145.2 294.161 0 142 176.253 0 142 211.888 0 145.2 270.411 0 142 276.024 0 142 294.9 0 126.4 158 0 158 10.1 0 148.4 279.178 0</DataArray>
</Points>
<Verts>
 <DataArray type="Int64" Name="connectivity" format="ascii">0 1 2 3 4 5 6 7 8 9 10 11 12 13 14 15 16 17 18 19</DataArray>
 <DataArray type="Int64" Name="offsets" format="ascii">20</DataArray>
</Verts>
<Lines>
 <DataArray type="Int64" Name="connectivity" format="ascii"/>
 <DataArray type="Int64" Name="offsets" format="ascii"/>
</Lines>
<Stripes>
 <DataArray type="Int64" Name="connectivity" format="ascii"/>
 <DataArray type="Int64" Name="offsets" format="ascii"/>
</Stripes>
<Polys>
 <DataArray type="Int64" Name="connectivity" format="ascii"/>
 <DataArray type="Int64" Name="offsets" format="ascii"/>
</Polys>
</Piece>
</PolyData>
</VTKFile>