<?xml version="1.0" encoding="UTF-8" ?>
<VTKFile type="PolyData" version="0.1" order="LittleEndian">
<PolyData>
 <Piece NumberOfPoints="33" NumberOfVerts="1" NumberOfLines="0" NumberOfStrips="0" NumberOfPolys="0">
<PointData>
 <DataArray type="Float64" Name="speed" format="ascii">0 0 0 0 0 0 0 0 0 45 0 0 0 0 0 0 0 0 42 0 0 0 0 0 5.27405 0 0 0 0 0 0 0 0</DataArray>
</PointData>
<CellData/>
<Points>
 <DataArray type="Float64" Name="Points" NumberOfComponents="3" format="ascii">136.399 145.2 0 128.702 142 0 129.433 145.2 0 121.839 142 0 136.377 148.4 0 38.4841 145.2 0 12.0014 145.2 0 18.8893 142 0 5.1 142 0 158 168.6 0 154.8 128.903 0 151.6 122.303 0 154.8 121.632 0 158 52.5252 0 158 45.8259 0 158 20.2738 0 158 5.1 0 170.994 158 0 1.65 151.6 0 163.601 151.6 0 170.99 151.6 0 178.295 158 0 180.438 154.8 0 187.239 158 0 209.402 158 0 142 266.433 0 145.2 288.432 0 142 294.9 0 154.8 34.4073 0 154.8 16.4816 0 151.6 24.4178 0 154.8 45.6053 0 148.4 277.693 0</DataArray>
</Points>
<Verts>
 <DataArray type="Int64" Name="connectivity" format="ascii">0 1 2 3 4 5 6 7 8 9 10 11 12 13 14 15 16 17 18 19 20 21 22 23 24 25 26 27 28 29 30 31 32</DataArray>
 <DataArray type="Int64" Name="offsets" format="ascii">33</DataArray>
</Verts>
<Lines>
 <DataArray type="Int64" Name="connectivity" format="ascii"/>
 <DataArray type="Int64" Name="offsets" format="ascii"/>
</Lines>
<Stripes>
 <DataArray type="Int64" Name="connectivity" format="ascii"/>
 <DataArray type="Int64" Name="offsets" format="ascii"/>
</Stripes>
<Polys>
 <DataArray type="Int64" Name="connectivity" format="ascii"/>
 <DataArray type="Int64" Name="offsets" format="ascii"/>
</Polys>
</Piece>
</PolyData>
</VTKFile>