<?xml version="1.0" encoding="UTF-8" ?>
<VTKFile type="PolyData" version="0.1" order="LittleEndian">
<PolyData>
 <Piece NumberOfPoints="31" NumberOfVerts="1" NumberOfLines="0" NumberOfStrips="0" NumberOfPolys="0">
<PointData>
 <DataArray type="Float64" Name="speed" format="ascii">0 0 44.733 1.19199 1.52175 43 44 0 0 0 43.5 1.86538 0.0602819 0 0 0 0 0 7.05032 6.18501 3.12394 0 0 0 0 15.1674 1.42764 0 0 0 0</DataArray>
</PointData>
<CellData/>
<Points>
 <DataArray type="Float64" Name="Points" NumberOfComponents="3" format="ascii">14.9345 145.2 0 14.0378 142 0 213.216 142 0 6.54199 145.2 0 5.86088 142 0 158 256.1 0 151.6 212.85 0 154.8 136.399 0 158 129.013 0 158 135.399 0 154.8 234.6 0 151.6 36.3217 0 154.8 21.092 0 154.8 9.93383 0 293.762 151.6 0 293.545 154.8 0 261.729 158 0 294.9 158 0 145.2 157.83 0 142 158.327 0 145.2 173.258 0 145.2 283.226 0 145.2 290.209 0 142 271.681 0 142 294.9 0 151.6 95.5804 0 158 13.7716 0 148.4 291.043 0 148.4 271.971 0 148.4 263.524 0 148.4 241.72 0</DataArray>
</Points>
<Verts>
 <DataArray type="Int64" Name="connectivity" format="ascii">0 1 2 3 4 5 6 7 8 9 10 11 12 13 14 15 16 17 18 19 20 21 22 23 24 25 26 27 28 29 30</DataArray>
 <DataArray type="Int64" Name="offsets" format="ascii">31</DataArray>
</Verts>
<Lines>
 <DataArray type="Int64" Name="connectivity" format="ascii"/>
 <DataArray type="Int64" Name="offsets" format="ascii"/>
</Lines>
<Stripes>
 <DataArray type="Int64" Name="connectivity" format="ascii"/>
 <DataArray type="Int64" Name="offsets" format="ascii"/>
</Stripes>
<Polys>
 <DataArray type="Int64" Name="connectivity" format="ascii"/>
 <DataArray type="Int64" Name="offsets" format="ascii"/>
</Polys>
</Piece>
</PolyData>
</VTKFile>