<?xml version="1.0" encoding="UTF-8" ?>
<VTKFile type="PolyData" version="0.1" order="LittleEndian">
<PolyData>
 <Piece NumberOfPoints="24" NumberOfVerts="1" NumberOfLines="0" NumberOfStrips="0" NumberOfPolys="0">
<PointData>
 <DataArray type="Float64" Name="speed" format="ascii">0 0 0 0 0 0 0 0 0 0 44.5 0.650516 3.0068 0 0 28.201 1.40085 2.83626 0 0 0 0 42.9065 0</DataArray>
</PointData>
<CellData/>
<Points>
 <DataArray type="Float64" Name="Points" NumberOfComponents="3" format="ascii">23.068 142 0 43.2729 145.2 0 14.2729 145.2 0 7.40922 145.2 0 6.39894 142 0 154.8 31.3152 0 158 21.6198 0 154.8 7.23992 0 277.168 154.8 0 291.65 151.6 0 109.15 158 0 283.948 154.8 0 288.745 158 0 294.9 158 0 142 251.129 0 145.2 182.999 0 145.2 272.503 0 142 282.592 0 142 294.9 0 158 14.3829 0 148.4 286.499 0 148.4 277.571 0 277.756 142 0 145.2 288.993 0</DataArray>
</Points>
<Verts>
 <DataArray type="Int64" Name="connectivity" format="ascii">0 1 2 3 4 5 6 7 8 9 10 11 12 13 14 15 16 17 18 19 20 21 22 23</DataArray>
 <DataArray type="Int64" Name="offsets" format="ascii">24</DataArray>
</Verts>
<Lines>
 <DataArray type="Int64" Name="connectivity" format="ascii"/>
 <DataArray type="Int64" Name="offsets" format="ascii"/>
</Lines>
<Stripes>
 <DataArray type="Int64" Name="connectivity" format="ascii"/>
 <DataArray type="Int64" Name="offsets" format="ascii"/>
</Stripes>
<Polys>
 <DataArray type="Int64" Name="connectivity" format="ascii"/>
 <DataArray type="Int64" Name="offsets" format="ascii"/>
</Polys>
</Piece>
</PolyData>
</VTKFile>