<?xml version="1.0" encoding="UTF-8" ?>
<VTKFile type="PolyData" version="0.1" order="LittleEndian">
<PolyData>
 <Piece NumberOfPoints="21" NumberOfVerts="1" NumberOfLines="0" NumberOfStrips="0" NumberOfPolys="0">
<PointData>
 <DataArray type="Float64" Name="speed" format="ascii">0 43.5531 0 9.83077 5.77563 21.185 0 44.5 2.53069 0 0 0 0 0 0 0.549778 0 0 0 10.8681 9.81646</DataArray>
</PointData>
<CellData/>
<Points>
 <DataArray type="Float64" Name="Points" NumberOfComponents="3" format="ascii">15.7661 145.2 0 278.742 142 0 9.05905 145.2 0 22.0414 142 0 9.44808 142 0 154.8 206.493 0 158 22.9725 0 158 190.85 0 154.8 6.36534 0 250.148 154.8 0 285.167 154.8 0 164.601 158 0 263.018 158 0 294.9 158 0 145.2 270.15 0 142 271.893 0 142 294.9 0 151.6 12.1506 0 158 10.1 0 148.4 210.635 0 148.4 228.117 0</DataArray>
</Points>
<Verts>
 <DataArray type="Int64" Name="connectivity" format="ascii">0 1 2 3 4 5 6 7 8 9 10 11 12 13 14 15 16 17 18 19 20</DataArray>
 <DataArray type="Int64" Name="offsets" format="ascii">21</DataArray>
</Verts>
<Lines>
 <DataArray type="Int64" Name="connectivity" format="ascii"/>
 <DataArray type="Int64" Name="offsets" format="ascii"/>
</Lines>
<Stripes>
 <DataArray type="Int64" Name="connectivity" format="ascii"/>
 <DataArray type="Int64" Name="offsets" format="ascii"/>
</Stripes>
<Polys>
 <DataArray type="Int64" Name="connectivity" format="ascii"/>
 <DataArray type="Int64" Name="offsets" format="ascii"/>
</Polys>
</Piece>
</PolyData>
</VTKFile>