<?xml version="1.0" encoding="UTF-8" ?>
<VTKFile type="PolyData" version="0.1" order="LittleEndian">
<PolyData>
 <Piece NumberOfPoints="25" NumberOfVerts="1" NumberOfLines="0" NumberOfStrips="0" NumberOfPolys="0">
<PointData>
 <DataArray type="Float64" Name="speed" format="ascii">0 0 0 22.4444 16.9153 10.7932 0 0 0 0 0 0 0 0 0 0 0 0.95976 0.436061 0 0 3.35223 1.99697 0 0</DataArray>
</PointData>
<CellData/>
<Points>
 <DataArray type="Float64" Name="Points" NumberOfComponents="3" format="ascii">20.9757 145.2 0 22.5354 142 0 5.1 142 0 158 87.4464 0 158 50.0781 0 154.8 25.9614 0 171.165 158 0 164.601 154.8 0 265.73 154.8 0 288.105 154.8 0 171.597 154.8 0 281.329 158 0 294.9 158 0 145.2 260.544 0 142 270.733 0 148.4 275.559 0 145.2 289.133 0 142 277.985 0 142 287.464 0 142 294.9 0 151.6 20.409 0 154.8 12.6911 0 158 11.0985 0 148.4 288.149 0 145.2 272.878 0</DataArray>
</Points>
<Verts>
 <DataArray type="Int64" Name="connectivity" format="ascii">0 1 2 3 4 5 6 7 8 9 10 11 12 13 14 15 16 17 18 19 20 21 22 23 24</DataArray>
 <DataArray type="Int64" Name="offsets" format="ascii">25</DataArray>
</Verts>
<Lines>
 <DataArray type="Int64" Name="connectivity" format="ascii"/>
 <DataArray type="Int64" Name="offsets" format="ascii"/>
</Lines>
<Stripes>
 <DataArray type="Int64" Name="connectivity" format="ascii"/>
 <DataArray type="Int64" Name="offsets" format="ascii"/>
</Stripes>
<Polys>
 <DataArray type="Int64" Name="connectivity" format="ascii"/>
 <DataArray type="Int64" Name="offsets" format="ascii"/>
</Polys>
</Piece>
</PolyData>
</VTKFile>