<?xml version="1.0" encoding="UTF-8" ?>
<VTKFile type="PolyData" version="0.1" order="LittleEndian">
<PolyData>
 <Piece NumberOfPoints="23" NumberOfVerts="1" NumberOfLines="0" NumberOfStrips="0" NumberOfPolys="0">
<PointData>
 <DataArray type="Float64" Name="speed" format="ascii">0 0 0 0 0 0 0 0 0 0 5.33564 11.2186 11.6839 13.2828 13.7574 10.6374 2.31301 0 0 0 6.15899 4.2293 4.86609</DataArray>
</PointData>
<CellData/>
<Points>
 <DataArray type="Float64" Name="Points" NumberOfComponents="3" format="ascii">25.697 145.2 0 36.4439 142 0 5.1 142 0 154.8 30.2604 0 158 23.604 0 266.249 154.8 0 282.139 154.8 0 290.427 154.8 0 274.228 158 0 294.9 158 0 145.2 168.104 0 142 182.866 0 145.2 202.247 0 145.2 223.279 0 145.2 257.104 0 145.2 276.705 0 142 293.743 0 151.6 23.6139 0 158 14.2256 0 142 273.805 0 148.4 258.318 0 148.4 271.145 0 145.2 287.328 0</DataArray>
</Points>
<Verts>
 <DataArray type="Int64" Name="connectivity" format="ascii">0 1 2 3 4 5 6 7 8 9 10 11 12 13 14 15 16 17 18 19 20 21 22</DataArray>
 <DataArray type="Int64" Name="offsets" format="ascii">23</DataArray>
</Verts>
<Lines>
 <DataArray type="Int64" Name="connectivity" format="ascii"/>
 <DataArray type="Int64" Name="offsets" format="ascii"/>
</Lines>
<Stripes>
 <DataArray type="Int64" Name="connectivity" format="ascii"/>
 <DataArray type="Int64" Name="offsets" format="ascii"/>
</Stripes>
<Polys>
 <DataArray type="Int64" Name="connectivity" format="ascii"/>
 <DataArray type="Int64" Name="offsets" format="ascii"/>
</Polys>
</Piece>
</PolyData>
</VTKFile>