<?xml version="1.0" encoding="UTF-8" ?>
<VTKFile type="PolyData" version="0.1" order="LittleEndian">
<PolyData>
 <Piece NumberOfPoints="25" NumberOfVerts="1" NumberOfLines="0" NumberOfStrips="0" NumberOfPolys="0">
<PointData>
 <DataArray type="Float64" Name="speed" format="ascii">0 0 0 0 0 0 0 0 0 44 2.41602 2.19946 0 0 0 36.6714 0 0 0 0 43.5 0 0 44.3969 2.10465</DataArray>
</PointData>
<CellData/>
<Points>
 <DataArray type="Float64" Name="Points" NumberOfComponents="3" format="ascii">30.5921 148.4 0 42.9446 145.2 0 33.6257 142 0 20.1176 145.2 0 26.379 145.2 0 14.9323 142 0 5.1 142 0 154.8 21.0376 0 158 30.4089 0 158 212.85 0 154.8 7.60061 0 158 6.19973 0 293.341 151.6 0 293.236 154.8 0 258.192 154.8 0 78.4778 158 0 264.39 158 0 294.9 158 0 145.2 294.161 0 142 282.12 0 145.2 65.4 0 151.6 37.1133 0 148.4 279.178 0 279.973 142 0 142 291.079 0</DataArray>
</Points>
<Verts>
 <DataArray type="Int64" Name="connectivity" format="ascii">0 1 2 3 4 5 6 7 8 9 10 11 12 13 14 15 16 17 18 19 20 21 22 23 24</DataArray>
 <DataArray type="Int64" Name="offsets" format="ascii">25</DataArray>
</Verts>
<Lines>
 <DataArray type="Int64" Name="connectivity" format="ascii"/>
 <DataArray type="Int64" Name="offsets" format="ascii"/>
</Lines>
<Stripes>
 <DataArray type="Int64" Name="connectivity" format="ascii"/>
 <DataArray type="Int64" Name="offsets" format="ascii"/>
</Stripes>
<Polys>
 <DataArray type="Int64" Name="connectivity" format="ascii"/>
 <DataArray type="Int64" Name="offsets" format="ascii"/>
</Polys>
</Piece>
</PolyData>
</VTKFile>