<?xml version="1.0" encoding="UTF-8" ?>
<VTKFile type="PolyData" version="0.1" order="LittleEndian">
<PolyData>
 <Piece NumberOfPoints="27" NumberOfVerts="1" NumberOfLines="0" NumberOfStrips="0" NumberOfPolys="0">
<PointData>
 <DataArray type="Float64" Name="speed" format="ascii">0 0 43.5 0 0 0 0 0 0 44.5 2.00695 0 0 43 0 0 0 0 0 2.87228 3.86702 0 0 0 0 0 0</DataArray>
</PointData>
<CellData/>
<Points>
 <DataArray type="Float64" Name="Points" NumberOfComponents="3" format="ascii">128.276 145.2 0 121.528 145.2 0 234.6 142 0 121.391 142 0 114.468 142 0 28.9636 142 0 5.1 142 0 154.8 59.1601 0 158 42.583 0 158 190.85 0 154.8 6.10348 0 158 5.1 0 192.197 154.8 0 43.9 158 0 182.561 158 0 194.381 151.6 0 189.338 158 0 196.272 158 0 200.711 151.6 0 205.058 154.8 0 218.959 154.8 0 145.2 283.171 0 142 272.597 0 158 22.9519 0 148.4 222.581 0 142 294.9 0 148.4 264.677 0</DataArray>
</Points>
<Verts>
 <DataArray type="Int64" Name="connectivity" format="ascii">0 1 2 3 4 5 6 7 8 9 10 11 12 13 14 15 16 17 18 19 20 21 22 23 24 25 26</DataArray>
 <DataArray type="Int64" Name="offsets" format="ascii">27</DataArray>
</Verts>
<Lines>
 <DataArray type="Int64" Name="connectivity" format="ascii"/>
 <DataArray type="Int64" Name="offsets" format="ascii"/>
</Lines>
<Stripes>
 <DataArray type="Int64" Name="connectivity" format="ascii"/>
 <DataArray type="Int64" Name="offsets" format="ascii"/>
</Stripes>
<Polys>
 <DataArray type="Int64" Name="connectivity" format="ascii"/>
 <DataArray type="Int64" Name="offsets" format="ascii"/>
</Polys>
</Piece>
</PolyData>
</VTKFile>