<?xml version="1.0" encoding="UTF-8" ?>
<VTKFile type="PolyData" version="0.1" order="LittleEndian">
<PolyData>
 <Piece NumberOfPoints="26" NumberOfVerts="1" NumberOfLines="0" NumberOfStrips="0" NumberOfPolys="0">
<PointData>
 <DataArray type="Float64" Name="speed" format="ascii">0 0 0 0 1.39629 1.1485 0 0 0 0 0 0 0 14.2439 4.8681 1.28216 1.53071 0 0 0 0 11.5662 2.61879 0 0 0</DataArray>
</PointData>
<CellData/>
<Points>
 <DataArray type="Float64" Name="Points" NumberOfComponents="3" format="ascii">24.9562 142 0 5.80982 145.2 0 5.94745 142 0 33.9931 145.2 0 154.8 75.7115 0 158 25.3423 0 158 5.1 0 181.342 154.8 0 235.451 158 0 164.601 158 0 167.674 154.8 0 171.415 158 0 266.076 158 0 264.874 151.6 0 282.461 154.8 0 292.227 154.8 0 293.119 158 0 145.2 271.404 0 142 278.238 0 142 271.204 0 151.6 19.4359 0 151.6 115.917 0 151.6 52.6466 0 145.2 291.316 0 148.4 279.505 0 142 294.9 0</DataArray>
</Points>
<Verts>
 <DataArray type="Int64" Name="connectivity" format="ascii">0 1 2 3 4 5 6 7 8 9 10 11 12 13 14 15 16 17 18 19 20 21 22 23 24 25</DataArray>
 <DataArray type="Int64" Name="offsets" format="ascii">26</DataArray>
</Verts>
<Lines>
 <DataArray type="Int64" Name="connectivity" format="ascii"/>
 <DataArray type="Int64" Name="offsets" format="ascii"/>
</Lines>
<Stripes>
 <DataArray type="Int64" Name="connectivity" format="ascii"/>
 <DataArray type="Int64" Name="offsets" format="ascii"/>
</Stripes>
<Polys>
 <DataArray type="Int64" Name="connectivity" format="ascii"/>
 <DataArray type="Int64" Name="offsets" format="ascii"/>
</Polys>
</Piece>
</PolyData>
</VTKFile>