<?xml version="1.0" encoding="UTF-8" ?>
<VTKFile type="PolyData" version="0.1" order="LittleEndian">
<PolyData>
 <Piece NumberOfPoints="28" NumberOfVerts="1" NumberOfLines="0" NumberOfStrips="0" NumberOfPolys="0">
<PointData>
 <DataArray type="Float64" Name="speed" format="ascii">0 0 0.966557 0 12.0481 5.09468 0 0 0 1.17763 0 0 0 0 0 0 0 0 0 0 0 0 0 0 8.43008 0 0 0</DataArray>
</PointData>
<CellData/>
<Points>
 <DataArray type="Float64" Name="Points" NumberOfComponents="3" format="ascii">128.702 142 0 36.959 145.2 0 26.8236 145.2 0 8.20195 145.2 0 41.3789 142 0 17.3517 142 0 5.1 142 0 158 52.5252 0 154.8 135.569 0 154.8 51.3708 0 154.8 11.3982 0 158 22.2074 0 158 5.1 0 170.994 154.8 0 178.295 158 0 187.239 154.8 0 163.609 154.8 0 163.618 151.6 0 170.274 151.6 0 275.293 158 0 294.9 158 0 142 266.433 0 142 288.432 0 145.2 274.667 0 151.6 125.574 0 148.4 277.693 0 142 275.864 0 142 294.9 0</DataArray>
</Points>
<Verts>
 <DataArray type="Int64" Name="connectivity" format="ascii">0 1 2 3 4 5 6 7 8 9 10 11 12 13 14 15 16 17 18 19 20 21 22 23 24 25 26 27</DataArray>
 <DataArray type="Int64" Name="offsets" format="ascii">28</DataArray>
</Verts>
<Lines>
 <DataArray type="Int64" Name="connectivity" format="ascii"/>
 <DataArray type="Int64" Name="offsets" format="ascii"/>
</Lines>
<Stripes>
 <DataArray type="Int64" Name="connectivity" format="ascii"/>
 <DataArray type="Int64" Name="offsets" format="ascii"/>
</Stripes>
<Polys>
 <DataArray type="Int64" Name="connectivity" format="ascii"/>
 <DataArray type="Int64" Name="offsets" format="ascii"/>
</Polys>
</Piece>
</PolyData>
</VTKFile>