<?xml version="1.0" encoding="UTF-8" ?>
<VTKFile type="PolyData" version="0.1" order="LittleEndian">
<PolyData>
 <Piece NumberOfPoints="31" NumberOfVerts="1" NumberOfLines="0" NumberOfStrips="0" NumberOfPolys="0">
<PointData>
 <DataArray type="Float64" Name="speed" format="ascii">0 0 28.9649 24.5852 0 0 0 0 0 0 0 0 0 0 9.6591 2.35916 0 2.87987 3.50554 0 0 0 0 0 0 0 0 0 0 0 0</DataArray>
</PointData>
<CellData/>
<Points>
 <DataArray type="Float64" Name="Points" NumberOfComponents="3" format="ascii">20.9757 142 0 14.2299 145.2 0 242.877 142 0 226.012 145.2 0 28.4533 145.2 0 5.1 142 0 158 135.399 0 154.8 135.399 0 158 128.298 0 158 22.9823 0 158 5.1 0 171.165 158 0 164.601 154.8 0 171.597 154.8 0 221.219 151.6 0 266.025 158 0 289.286 154.8 0 277.243 151.6 0 286.189 158 0 294.9 158 0 145.2 260.544 0 142 270.733 0 148.4 275.559 0 145.2 289.133 0 142 277.756 0 142 287.464 0 142 294.9 0 154.8 20.409 0 151.6 55.7048 0 148.4 288.149 0 145.2 272.878 0</DataArray>
</Points>
<Verts>
 <DataArray type="Int64" Name="connectivity" format="ascii">0 1 2 3 4 5 6 7 8 9 10 11 12 13 14 15 16 17 18 19 20 21 22 23 24 25 26 27 28 29 30</DataArray>
 <DataArray type="Int64" Name="offsets" format="ascii">31</DataArray>
</Verts>
<Lines>
 <DataArray type="Int64" Name="connectivity" format="ascii"/>
 <DataArray type="Int64" Name="offsets" format="ascii"/>
</Lines>
<Stripes>
 <DataArray type="Int64" Name="connectivity" format="ascii"/>
 <DataArray type="Int64" Name="offsets" format="ascii"/>
</Stripes>
<Polys>
 <DataArray type="Int64" Name="connectivity" format="ascii"/>
 <DataArray type="Int64" Name="offsets" format="ascii"/>
</Polys>
</Piece>
</PolyData>
</VTKFile>