<?xml version="1.0" encoding="UTF-8" ?>
<VTKFile type="PolyData" version="0.1" order="LittleEndian">
<PolyData>
 <Piece NumberOfPoints="30" NumberOfVerts="1" NumberOfLines="0" NumberOfStrips="0" NumberOfPolys="0">
<PointData>
 <DataArray type="Float64" Name="speed" format="ascii">0 0 0 0 0 0 7.4551 7.94213 0 0 0 42 0 0 0 42.5 0 0 0 0 3.10707 0 0 0 0 0 0 0 0 0</DataArray>
</PointData>
<CellData/>
<Points>
 <DataArray type="Float64" Name="Points" NumberOfComponents="3" format="ascii">136.333 145.2 0 136.399 148.4 0 129.223 142 0 129.573 145.2 0 129.646 148.4 0 122.923 145.2 0 92.3915 142 0 74.2111 142 0 154.8 59.1601 0 158 42.583 0 154.8 39.9138 0 158 298.35 0 158 21.9508 0 158 5.1 0 182.561 158 0 22.65 158 0 205.849 154.8 0 212.666 154.8 0 203.113 158 0 210.191 158 0 223.643 158 0 145.2 283.171 0 145.2 290.163 0 142 287.698 0 142 294.9 0 151.6 24.4178 0 154.8 27.2288 0 148.4 222.581 0 148.4 168.512 0 148.4 264.677 0</DataArray>
</Points>
<Verts>
 <DataArray type="Int64" Name="connectivity" format="ascii">0 1 2 3 4 5 6 7 8 9 10 11 12 13 14 15 16 17 18 19 20 21 22 23 24 25 26 27 28 29</DataArray>
 <DataArray type="Int64" Name="offsets" format="ascii">30</DataArray>
</Verts>
<Lines>
 <DataArray type="Int64" Name="connectivity" format="ascii"/>
 <DataArray type="Int64" Name="offsets" format="ascii"/>
</Lines>
<Stripes>
 <DataArray type="Int64" Name="connectivity" format="ascii"/>
 <DataArray type="Int64" Name="offsets" format="ascii"/>
</Stripes>
<Polys>
 <DataArray type="Int64" Name="connectivity" format="ascii"/>
 <DataArray type="Int64" Name="offsets" format="ascii"/>
</Polys>
</Piece>
</PolyData>
</VTKFile>