<?xml version="1.0" encoding="UTF-8" ?>
<VTKFile type="PolyData" version="0.1" order="LittleEndian">
<PolyData>
 <Piece NumberOfPoints="29" NumberOfVerts="1" NumberOfLines="0" NumberOfStrips="0" NumberOfPolys="0">
<PointData>
 <DataArray type="Float64" Name="speed" format="ascii">0 0 0 1.41227 2.29106 3.5882 8.6258 0 0 0 0 0 0 0 0 0 0 0 0 0 0 4.37467 0 0 0 0 0 0 0</DataArray>
</PointData>
<CellData/>
<Points>
 <DataArray type="Float64" Name="Points" NumberOfComponents="3" format="ascii">128.276 145.2 0 121.528 142 0 136.333 145.2 0 134.882 148.4 0 126.268 148.4 0 113.182 148.4 0 71.6911 142 0 154.8 59.1601 0 158 42.583 0 154.8 39.9138 0 154.8 10.3072 0 158 21.9508 0 158 5.1 0 182.561 158 0 194.381 151.6 0 189.338 158 0 196.272 158 0 200.711 151.6 0 199.178 154.8 0 205.849 154.8 0 212.666 154.8 0 215.618 158 0 145.2 283.171 0 142 272.597 0 151.6 24.4178 0 154.8 27.2288 0 148.4 222.581 0 142 294.9 0 148.4 264.677 0</DataArray>
</Points>
<Verts>
 <DataArray type="Int64" Name="connectivity" format="ascii">0 1 2 3 4 5 6 7 8 9 10 11 12 13 14 15 16 17 18 19 20 21 22 23 24 25 26 27 28</DataArray>
 <DataArray type="Int64" Name="offsets" format="ascii">29</DataArray>
</Verts>
<Lines>
 <DataArray type="Int64" Name="connectivity" format="ascii"/>
 <DataArray type="Int64" Name="offsets" format="ascii"/>
</Lines>
<Stripes>
 <DataArray type="Int64" Name="connectivity" format="ascii"/>
 <DataArray type="Int64" Name="offsets" format="ascii"/>
</Stripes>
<Polys>
 <DataArray type="Int64" Name="connectivity" format="ascii"/>
 <DataArray type="Int64" Name="offsets" format="ascii"/>
</Polys>
</Piece>
</PolyData>
</VTKFile>