<?xml version="1.0" encoding="UTF-8" ?>
<VTKFile type="PolyData" version="0.1" order="LittleEndian">
<PolyData>
 <Piece NumberOfPoints="31" NumberOfVerts="1" NumberOfLines="0" NumberOfStrips="0" NumberOfPolys="0">
<PointData>
 <DataArray type="Float64" Name="speed" format="ascii">0 0 0 0 0 0 0 0 0 0 0 0 0 0 0 0 0 0 0 1.06057 0 0 0 0 0 0 0 0 0 0 0</DataArray>
</PointData>
<CellData/>
<Points>
 <DataArray type="Float64" Name="Points" NumberOfComponents="3" format="ascii">25.697 145.2 0 18.3339 145.2 0 10.7329 145.2 0 21.7903 142 0 5.1 142 0 154.8 30.2604 0 158 23.604 0 266.249 154.8 0 282.139 154.8 0 290.427 154.8 0 274.228 158 0 294.9 158 0 145.2 164.601 0 142 164.601 0 142 171.317 0 142 178.247 0 145.2 174.979 0 145.2 181.997 0 142 184.939 0 145.2 189.819 0 145.2 273.372 0 142 283.658 0 142 294.9 0 151.6 23.6139 0 158 14.2256 0 142 273.805 0 148.4 240.864 0 148.4 263.228 0 148.4 190.68 0 148.4 221.016 0 145.2 284.983 0</DataArray>
</Points>
<Verts>
 <DataArray type="Int64" Name="connectivity" format="ascii">0 1 2 3 4 5 6 7 8 9 10 11 12 13 14 15 16 17 18 19 20 21 22 23 24 25 26 27 28 29 30</DataArray>
 <DataArray type="Int64" Name="offsets" format="ascii">31</DataArray>
</Verts>
<Lines>
 <DataArray type="Int64" Name="connectivity" format="ascii"/>
 <DataArray type="Int64" Name="offsets" format="ascii"/>
</Lines>
<Stripes>
 <DataArray type="Int64" Name="connectivity" format="ascii"/>
 <DataArray type="Int64" Name="offsets" format="ascii"/>
</Stripes>
<Polys>
 <DataArray type="Int64" Name="connectivity" format="ascii"/>
 <DataArray type="Int64" Name="offsets" format="ascii"/>
</Polys>
</Piece>
</PolyData>
</VTKFile>