<?xml version="1.0" encoding="UTF-8" ?>
<VTKFile type="PolyData" version="0.1" order="LittleEndian">
<PolyData>
 <Piece NumberOfPoints="30" NumberOfVerts="1" NumberOfLines="0" NumberOfStrips="0" NumberOfPolys="0">
<PointData>
 <DataArray type="Float64" Name="speed" format="ascii">0 0 44.5 44 43.8677 0 0 0 0 44 0 43.369 6.32004 2.38985 0 0 0 15.1754 0 0 0 0 0 0 0 0 6.81852 0 0 0</DataArray>
</PointData>
<CellData/>
<Points>
 <DataArray type="Float64" Name="Points" NumberOfComponents="3" format="ascii">128.702 142 0 36.959 145.2 0 190.85 148.4 0 212.85 145.2 0 235.152 142 0 15.6224 142 0 5.1 142 0 158 52.5252 0 154.8 135.569 0 158 212.85 0 158 19.6063 0 151.6 278.654 0 154.8 11.9498 0 158 7.73985 0 170.994 154.8 0 178.295 158 0 187.239 154.8 0 114.961 158 0 163.609 154.8 0 163.618 151.6 0 170.274 151.6 0 275.293 158 0 294.9 158 0 142 266.433 0 142 288.432 0 145.2 274.667 0 151.6 20.046 0 148.4 277.693 0 142 275.864 0 142 294.9 0</DataArray>
</Points>
<Verts>
 <DataArray type="Int64" Name="connectivity" format="ascii">0 1 2 3 4 5 6 7 8 9 10 11 12 13 14 15 16 17 18 19 20 21 22 23 24 25 26 27 28 29</DataArray>
 <DataArray type="Int64" Name="offsets" format="ascii">30</DataArray>
</Verts>
<Lines>
 <DataArray type="Int64" Name="connectivity" format="ascii"/>
 <DataArray type="Int64" Name="offsets" format="ascii"/>
</Lines>
<Stripes>
 <DataArray type="Int64" Name="connectivity" format="ascii"/>
 <DataArray type="Int64" Name="offsets" format="ascii"/>
</Stripes>
<Polys>
 <DataArray type="Int64" Name="connectivity" format="ascii"/>
 <DataArray type="Int64" Name="offsets" format="ascii"/>
</Polys>
</Piece>
</PolyData>
</VTKFile>