<?xml version="1.0" encoding="UTF-8" ?>
<VTKFile type="PolyData" version="0.1" order="LittleEndian">
<PolyData>
 <Piece NumberOfPoints="21" NumberOfVerts="1" NumberOfLines="0" NumberOfStrips="0" NumberOfPolys="0">
<PointData>
 <DataArray type="Float64" Name="speed" format="ascii">0 8.82612 12.1621 12.506 2.55021 0 2.70602 0 0 0 13.6292 12.952 0 0 0 0 12.1649 1.46675 0 0 2.49811</DataArray>
</PointData>
<CellData/>
<Points>
 <DataArray type="Float64" Name="Points" NumberOfComponents="3" format="ascii">20.9833 145.2 0 124.584 142 0 113.75 145.2 0 100.951 142 0 32.6062 142 0 5.1 142 0 158 30.2126 0 158 5.1 0 164.601 154.8 0 164.601 158 0 142 137.795 0 145.2 135.369 0 145.2 279.24 0 142 294.9 0 151.6 16.0593 0 151.6 49.1122 0 154.8 60.0387 0 154.8 31.7855 0 148.4 246.694 0 148.4 268.353 0 150.387 155.219 0</DataArray>
</Points>
<Verts>
 <DataArray type="Int64" Name="connectivity" format="ascii">0 1 2 3 4 5 6 7 8 9 10 11 12 13 14 15 16 17 18 19 20</DataArray>
 <DataArray type="Int64" Name="offsets" format="ascii">21</DataArray>
</Verts>
<Lines>
 <DataArray type="Int64" Name="connectivity" format="ascii"/>
 <DataArray type="Int64" Name="offsets" format="ascii"/>
</Lines>
<Stripes>
 <DataArray type="Int64" Name="connectivity" format="ascii"/>
 <DataArray type="Int64" Name="offsets" format="ascii"/>
</Stripes>
<Polys>
 <DataArray type="Int64" Name="connectivity" format="ascii"/>
 <DataArray type="Int64" Name="offsets" format="ascii"/>
</Polys>
</Piece>
</PolyData>
</VTKFile>