<?xml version="1.0" encoding="UTF-8" ?>
<VTKFile type="PolyData" version="0.1" order="LittleEndian">
<PolyData>
 <Piece NumberOfPoints="30" NumberOfVerts="1" NumberOfLines="0" NumberOfStrips="0" NumberOfPolys="0">
<PointData>
 <DataArray type="Float64" Name="speed" format="ascii">0 44 0 0 0 0 0 0 0 0 0 0 1.07882 10.484 0 0 0 12.4948 0 0 0 2.02174 4.76315 7.78802 0 0 0 0 1.77068 2.56409</DataArray>
</PointData>
<CellData/>
<Points>
 <DataArray type="Float64" Name="Points" NumberOfComponents="3" format="ascii">37.289 145.2 0 212.85 142 0 135.399 145.2 0 128.85 145.2 0 154.8 135.399 0 158 50.458 0 164.601 154.8 0 171.371 158 0 178.264 158 0 173.781 154.8 0 196.043 154.8 0 186.012 154.8 0 185.525 158 0 257.818 158 0 164.601 158 0 270.657 154.8 0 286.6 154.8 0 145.2 207.142 0 142 294.9 0 145.2 274.206 0 145.2 281.78 0 142 164.862 0 142 174.981 0 142 189.685 0 158 10.1 0 148.4 164.601 0 148.4 171.191 0 145.2 290.481 0 148.4 179.733 0 145.2 267.337 0</DataArray>
</Points>
<Verts>
 <DataArray type="Int64" Name="connectivity" format="ascii">0 1 2 3 4 5 6 7 8 9 10 11 12 13 14 15 16 17 18 19 20 21 22 23 24 25 26 27 28 29</DataArray>
 <DataArray type="Int64" Name="offsets" format="ascii">30</DataArray>
</Verts>
<Lines>
 <DataArray type="Int64" Name="connectivity" format="ascii"/>
 <DataArray type="Int64" Name="offsets" format="ascii"/>
</Lines>
<Stripes>
 <DataArray type="Int64" Name="connectivity" format="ascii"/>
 <DataArray type="Int64" Name="offsets" format="ascii"/>
</Stripes>
<Polys>
 <DataArray type="Int64" Name="connectivity" format="ascii"/>
 <DataArray type="Int64" Name="offsets" format="ascii"/>
</Polys>
</Piece>
</PolyData>
</VTKFile>