<?xml version="1.0" encoding="UTF-8" ?>
<VTKFile type="PolyData" version="0.1" order="LittleEndian">
<PolyData>
 <Piece NumberOfPoints="24" NumberOfVerts="1" NumberOfLines="0" NumberOfStrips="0" NumberOfPolys="0">
<PointData>
 <DataArray type="Float64" Name="speed" format="ascii">0 0 0 0 0 44 19.8512 7.57327 0 0 0 0 0 0 0 42.5 0 0.297489 4.1462 2.29163 11.4732 1.16616 0 0</DataArray>
</PointData>
<CellData/>
<Points>
 <DataArray type="Float64" Name="Points" NumberOfComponents="3" format="ascii">6.37897 145.2 0 135.399 142 0 135.399 145.2 0 20.9757 145.2 0 5.1 142 0 158 212.85 0 154.8 67.7933 0 154.8 17.4132 0 254.101 154.8 0 164.601 154.8 0 164.601 158 0 272.87 154.8 0 285.319 154.8 0 282.504 158 0 294.9 158 0 142 22.65 0 145.2 260.544 0 142 270.733 0 145.2 276.556 0 142 282.178 0 151.6 38.7114 0 158 12.7421 0 148.4 288.149 0 142 294.9 0</DataArray>
</Points>
<Verts>
 <DataArray type="Int64" Name="connectivity" format="ascii">0 1 2 3 4 5 6 7 8 9 10 11 12 13 14 15 16 17 18 19 20 21 22 23</DataArray>
 <DataArray type="Int64" Name="offsets" format="ascii">24</DataArray>
</Verts>
<Lines>
 <DataArray type="Int64" Name="connectivity" format="ascii"/>
 <DataArray type="Int64" Name="offsets" format="ascii"/>
</Lines>
<Stripes>
 <DataArray type="Int64" Name="connectivity" format="ascii"/>
 <DataArray type="Int64" Name="offsets" format="ascii"/>
</Stripes>
<Polys>
 <DataArray type="Int64" Name="connectivity" format="ascii"/>
 <DataArray type="Int64" Name="offsets" format="ascii"/>
</Polys>
</Piece>
</PolyData>
</VTKFile>