<?xml version="1.0" encoding="UTF-8" ?>
<VTKFile type="PolyData" version="0.1" order="LittleEndian">
<PolyData>
 <Piece NumberOfPoints="21" NumberOfVerts="1" NumberOfLines="0" NumberOfStrips="0" NumberOfPolys="0">
<PointData>
 <DataArray type="Float64" Name="speed" format="ascii">0 0 0 0 0 0 0 0 0 0 31.2989 26.9182 21.2153 11.7152 10.6885 0 0 0 0 0 7.98634</DataArray>
</PointData>
<CellData/>
<Points>
 <DataArray type="Float64" Name="Points" NumberOfComponents="3" format="ascii">135.399 145.2 0 20.8014 142 0 5.1 142 0 158 23.604 0 171.621 154.8 0 282.921 158 0 294.9 158 0 142 171.317 0 145.2 263.065 0 145.2 290.494 0 145.2 123.371 0 145.2 170.922 0 145.2 207.912 0 145.2 251.173 0 142 270.728 0 142 294.9 0 158 10.1 0 148.4 258.259 0 148.4 286.499 0 148.4 276.163 0 142 286.857 0</DataArray>
</Points>
<Verts>
 <DataArray type="Int64" Name="connectivity" format="ascii">0 1 2 3 4 5 6 7 8 9 10 11 12 13 14 15 16 17 18 19 20</DataArray>
 <DataArray type="Int64" Name="offsets" format="ascii">21</DataArray>
</Verts>
<Lines>
 <DataArray type="Int64" Name="connectivity" format="ascii"/>
 <DataArray type="Int64" Name="offsets" format="ascii"/>
</Lines>
<Stripes>
 <DataArray type="Int64" Name="connectivity" format="ascii"/>
 <DataArray type="Int64" Name="offsets" format="ascii"/>
</Stripes>
<Polys>
 <DataArray type="Int64" Name="connectivity" format="ascii"/>
 <DataArray type="Int64" Name="offsets" format="ascii"/>
</Polys>
</Piece>
</PolyData>
</VTKFile>