<?xml version="1.0" encoding="UTF-8" ?>
<VTKFile type="PolyData" version="0.1" order="LittleEndian">
<PolyData>
 <Piece NumberOfPoints="22" NumberOfVerts="1" NumberOfLines="0" NumberOfStrips="0" NumberOfPolys="0">
<PointData>
 <DataArray type="Float64" Name="speed" format="ascii">0 0 0 0 0 0 44 4.74171 0 0 0 0 0 0 0 0 0 43.2206 5.29749 0 1.877 2.29845</DataArray>
</PointData>
<CellData/>
<Points>
 <DataArray type="Float64" Name="Points" NumberOfComponents="3" format="ascii">6.37897 145.2 0 135.399 142 0 135.399 145.2 0 20.9757 145.2 0 5.1 142 0 158 26.0558 0 158 212.85 0 154.8 8.95955 0 254.101 154.8 0 164.601 154.8 0 164.601 158 0 272.87 154.8 0 285.319 154.8 0 282.504 158 0 294.9 158 0 142 279.83 0 145.2 260.544 0 142 21.6112 0 145.2 283.47 0 142 294.9 0 158 11.0385 0 145.2 290.246 0</DataArray>
</Points>
<Verts>
 <DataArray type="Int64" Name="connectivity" format="ascii">0 1 2 3 4 5 6 7 8 9 10 11 12 13 14 15 16 17 18 19 20 21</DataArray>
 <DataArray type="Int64" Name="offsets" format="ascii">22</DataArray>
</Verts>
<Lines>
 <DataArray type="Int64" Name="connectivity" format="ascii"/>
 <DataArray type="Int64" Name="offsets" format="ascii"/>
</Lines>
<Stripes>
 <DataArray type="Int64" Name="connectivity" format="ascii"/>
 <DataArray type="Int64" Name="offsets" format="ascii"/>
</Stripes>
<Polys>
 <DataArray type="Int64" Name="connectivity" format="ascii"/>
 <DataArray type="Int64" Name="offsets" format="ascii"/>
</Polys>
</Piece>
</PolyData>
</VTKFile>