<?xml version="1.0" encoding="UTF-8" ?>
<VTKFile type="PolyData" version="0.1" order="LittleEndian">
<PolyData>
 <Piece NumberOfPoints="32" NumberOfVerts="1" NumberOfLines="0" NumberOfStrips="0" NumberOfPolys="0">
<PointData>
 <DataArray type="Float64" Name="speed" format="ascii">0 0 0 0 0 0 0 0 0 0 44.5 0 45 42.4976 0 0 0 0 0 0 0 0 0 27.4527 0 0 0 0 0 0 0 0</DataArray>
</PointData>
<CellData/>
<Points>
 <DataArray type="Float64" Name="Points" NumberOfComponents="3" format="ascii">43.287 145.2 0 11.4896 145.2 0 135.399 142 0 135.399 145.2 0 32.8137 142 0 5.1 142 0 154.8 23.604 0 154.8 135.399 0 158 135.399 0 158 128.582 0 154.8 190.85 0 158 32.7951 0 151.6 168.6 0 158 299.096 0 254.26 158 0 164.601 154.8 0 277.168 154.8 0 294.9 158 0 142 171.317 0 145.2 164.601 0 145.2 171.808 0 145.2 268.282 0 145.2 289.715 0 18.7393 151.6 0 151.6 15.911 0 158 10.1 0 148.4 258.259 0 148.4 286.499 0 148.4 276.163 0 148.4 200.724 0 142 277.88 0 142 294.9 0</DataArray>
</Points>
<Verts>
 <DataArray type="Int64" Name="connectivity" format="ascii">0 1 2 3 4 5 6 7 8 9 10 11 12 13 14 15 16 17 18 19 20 21 22 23 24 25 26 27 28 29 30 31</DataArray>
 <DataArray type="Int64" Name="offsets" format="ascii">32</DataArray>
</Verts>
<Lines>
 <DataArray type="Int64" Name="connectivity" format="ascii"/>
 <DataArray type="Int64" Name="offsets" format="ascii"/>
</Lines>
<Stripes>
 <DataArray type="Int64" Name="connectivity" format="ascii"/>
 <DataArray type="Int64" Name="offsets" format="ascii"/>
</Stripes>
<Polys>
 <DataArray type="Int64" Name="connectivity" format="ascii"/>
 <DataArray type="Int64" Name="offsets" format="ascii"/>
</Polys>
</Piece>
</PolyData>
</VTKFile>