<?xml version="1.0" encoding="UTF-8" ?>
<VTKFile type="PolyData" version="0.1" order="LittleEndian">
<PolyData>
 <Piece NumberOfPoints="22" NumberOfVerts="1" NumberOfLines="0" NumberOfStrips="0" NumberOfPolys="0">
<PointData>
 <DataArray type="Float64" Name="speed" format="ascii">0 44.4802 0 44 1.67467 0 44 45 7.10917 0 0 0 0 0 0 0 0 4.54978 0 0 13.4489 10.7551</DataArray>
</PointData>
<CellData/>
<Points>
 <DataArray type="Float64" Name="Points" NumberOfComponents="3" format="ascii">15.7661 145.2 0 278.867 142 0 15.6171 142 0 212.85 145.2 0 7.02467 145.2 0 5.1 142 0 158 212.85 0 154.8 168.6 0 154.8 142.991 0 158 22.9725 0 158 5.1 0 250.148 154.8 0 285.167 154.8 0 164.601 158 0 263.018 158 0 294.9 158 0 145.2 270.15 0 142 281.092 0 142 294.9 0 151.6 12.1506 0 148.4 259.172 0 148.4 272.824 0</DataArray>
</Points>
<Verts>
 <DataArray type="Int64" Name="connectivity" format="ascii">0 1 2 3 4 5 6 7 8 9 10 11 12 13 14 15 16 17 18 19 20 21</DataArray>
 <DataArray type="Int64" Name="offsets" format="ascii">22</DataArray>
</Verts>
<Lines>
 <DataArray type="Int64" Name="connectivity" format="ascii"/>
 <DataArray type="Int64" Name="offsets" format="ascii"/>
</Lines>
<Stripes>
 <DataArray type="Int64" Name="connectivity" format="ascii"/>
 <DataArray type="Int64" Name="offsets" format="ascii"/>
</Stripes>
<Polys>
 <DataArray type="Int64" Name="connectivity" format="ascii"/>
 <DataArray type="Int64" Name="offsets" format="ascii"/>
</Polys>
</Piece>
</PolyData>
</VTKFile>