<?xml version="1.0" encoding="UTF-8" ?>
<VTKFile type="PolyData" version="0.1" order="LittleEndian">
<PolyData>
 <Piece NumberOfPoints="25" NumberOfVerts="1" NumberOfLines="0" NumberOfStrips="0" NumberOfPolys="0">
<PointData>
 <DataArray type="Float64" Name="speed" format="ascii">43.2086 0 0 0 0.936682 0 1.62725 0 44.8623 0 0 17.0947 0 0 0 0 0 0 0 0 0 0 0 0 0</DataArray>
</PointData>
<CellData/>
<Points>
 <DataArray type="Float64" Name="Points" NumberOfComponents="3" format="ascii">256.411 148.4 0 135.399 145.2 0 128.849 145.2 0 27.8404 148.4 0 39.4415 148.4 0 8.64595 145.2 0 20.0425 142 0 5.1 142 0 158 235.649 0 158 13.3675 0 158 5.1 0 121.454 158 0 257.681 154.8 0 270.613 154.8 0 283.336 158 0 294.9 158 0 145.2 245.224 0 145.2 281.329 0 145.2 290.362 0 142 164.601 0 142 276.555 0 142 294.9 0 151.6 12.1506 0 154.8 16.0593 0 158 25.866 0</DataArray>
</Points>
<Verts>
 <DataArray type="Int64" Name="connectivity" format="ascii">0 1 2 3 4 5 6 7 8 9 10 11 12 13 14 15 16 17 18 19 20 21 22 23 24</DataArray>
 <DataArray type="Int64" Name="offsets" format="ascii">25</DataArray>
</Verts>
<Lines>
 <DataArray type="Int64" Name="connectivity" format="ascii"/>
 <DataArray type="Int64" Name="offsets" format="ascii"/>
</Lines>
<Stripes>
 <DataArray type="Int64" Name="connectivity" format="ascii"/>
 <DataArray type="Int64" Name="offsets" format="ascii"/>
</Stripes>
<Polys>
 <DataArray type="Int64" Name="connectivity" format="ascii"/>
 <DataArray type="Int64" Name="offsets" format="ascii"/>
</Polys>
</Piece>
</PolyData>
</VTKFile>