<?xml version="1.0" encoding="UTF-8" ?>
<VTKFile type="PolyData" version="0.1" order="LittleEndian">
<PolyData>
 <Piece NumberOfPoints="34" NumberOfVerts="1" NumberOfLines="0" NumberOfStrips="0" NumberOfPolys="0">
<PointData>
 <DataArray type="Float64" Name="speed" format="ascii">0 45 0 0 0 0 0 0 0 0 0 0 0 0 45 0 0 0 0 0 0 0 5.18455 4.16775 44.5 0 13.6501 3.53712 44.8997 0 0 0 5.73249 0</DataArray>
</PointData>
<CellData/>
<Points>
 <DataArray type="Float64" Name="Points" NumberOfComponents="3" format="ascii">135.399 142 0 168.6 142 0 128.276 145.2 0 121.528 145.2 0 114.722 145.2 0 121.391 142 0 114.468 142 0 28.9636 142 0 5.1 142 0 154.8 59.1601 0 158 42.583 0 158 135.399 0 154.8 135.399 0 158 5.1 0 131.4 158 0 163.65 154.8 0 192.197 154.8 0 207.14 154.8 0 213.778 154.8 0 212.341 158 0 219.016 158 0 182.561 158 0 206.554 151.6 0 235.45 154.8 0 145.2 109.15 0 148.4 283.171 0 142 260.735 0 142 290.672 0 142 108.95 0 151.6 14.549 0 154.8 14.5405 0 158 22.9519 0 145.2 285.667 0 148.4 264.677 0</DataArray>
</Points>
<Verts>
 <DataArray type="Int64" Name="connectivity" format="ascii">0 1 2 3 4 5 6 7 8 9 10 11 12 13 14 15 16 17 18 19 20 21 22 23 24 25 26 27 28 29 30 31 32 33</DataArray>
 <DataArray type="Int64" Name="offsets" format="ascii">34</DataArray>
</Verts>
<Lines>
 <DataArray type="Int64" Name="connectivity" format="ascii"/>
 <DataArray type="Int64" Name="offsets" format="ascii"/>
</Lines>
<Stripes>
 <DataArray type="Int64" Name="connectivity" format="ascii"/>
 <DataArray type="Int64" Name="offsets" format="ascii"/>
</Stripes>
<Polys>
 <DataArray type="Int64" Name="connectivity" format="ascii"/>
 <DataArray type="Int64" Name="offsets" format="ascii"/>
</Polys>
</Piece>
</PolyData>
</VTKFile>