<?xml version="1.0" encoding="UTF-8" ?>
<VTKFile type="PolyData" version="0.1" order="LittleEndian">
<PolyData>
 <Piece NumberOfPoints="28" NumberOfVerts="1" NumberOfLines="0" NumberOfStrips="0" NumberOfPolys="0">
<PointData>
 <DataArray type="Float64" Name="speed" format="ascii">0 0 0 0 0 0 0 0 0 0 0 0 44.3589 0 0 0 43 1.42467 44.5 0 0 0 0 0 0.260097 0 0 0</DataArray>
</PointData>
<CellData/>
<Points>
 <DataArray type="Float64" Name="Points" NumberOfComponents="3" format="ascii">36.959 145.2 0 24.5333 145.2 0 11.7961 145.2 0 22.3127 142 0 5.1 142 0 158 52.5252 0 154.8 33.2578 0 158 36.8982 0 154.8 26.2268 0 154.8 17.8307 0 154.8 9.1583 0 178.295 158 0 42.9397 158 0 291.547 151.6 0 291.238 154.8 0 279.092 158 0 43.9 154.8 0 290.551 158 0 145.2 109.15 0 145.2 164.601 0 145.2 171.141 0 142 279.008 0 142 294.9 0 158 29.7734 0 158 17.6855 0 145.2 277.693 0 148.4 186.679 0 148.4 193.592 0</DataArray>
</Points>
<Verts>
 <DataArray type="Int64" Name="connectivity" format="ascii">0 1 2 3 4 5 6 7 8 9 10 11 12 13 14 15 16 17 18 19 20 21 22 23 24 25 26 27</DataArray>
 <DataArray type="Int64" Name="offsets" format="ascii">28</DataArray>
</Verts>
<Lines>
 <DataArray type="Int64" Name="connectivity" format="ascii"/>
 <DataArray type="Int64" Name="offsets" format="ascii"/>
</Lines>
<Stripes>
 <DataArray type="Int64" Name="connectivity" format="ascii"/>
 <DataArray type="Int64" Name="offsets" format="ascii"/>
</Stripes>
<Polys>
 <DataArray type="Int64" Name="connectivity" format="ascii"/>
 <DataArray type="Int64" Name="offsets" format="ascii"/>
</Polys>
</Piece>
</PolyData>
</VTKFile>