<?xml version="1.0" encoding="UTF-8" ?>
<VTKFile type="PolyData" version="0.1" order="LittleEndian">
<PolyData>
 <Piece NumberOfPoints="28" NumberOfVerts="1" NumberOfLines="0" NumberOfStrips="0" NumberOfPolys="0">
<PointData>
 <DataArray type="Float64" Name="speed" format="ascii">0 0 0 0 0 0 0 0 0 0 0 1.14221 5.78389 0 0 0 8.06837 0 0 17.6967 15.3554 14.6088 0 0 4.20113 0 10.1939 0</DataArray>
</PointData>
<CellData/>
<Points>
 <DataArray type="Float64" Name="Points" NumberOfComponents="3" format="ascii">37.289 145.2 0 9.63478 145.2 0 135.399 145.2 0 128.85 145.2 0 154.8 135.399 0 158 50.458 0 164.601 154.8 0 171.371 158 0 178.264 158 0 173.781 154.8 0 196.043 154.8 0 186.404 154.8 0 203.441 158 0 164.601 158 0 270.657 154.8 0 286.6 154.8 0 142 286.973 0 145.2 274.206 0 145.2 281.78 0 142 225.667 0 142 247.278 0 142 267.29 0 158 10.1 0 148.4 164.601 0 148.4 175.479 0 145.2 290.481 0 148.4 210.585 0 142 294.9 0</DataArray>
</Points>
<Verts>
 <DataArray type="Int64" Name="connectivity" format="ascii">0 1 2 3 4 5 6 7 8 9 10 11 12 13 14 15 16 17 18 19 20 21 22 23 24 25 26 27</DataArray>
 <DataArray type="Int64" Name="offsets" format="ascii">28</DataArray>
</Verts>
<Lines>
 <DataArray type="Int64" Name="connectivity" format="ascii"/>
 <DataArray type="Int64" Name="offsets" format="ascii"/>
</Lines>
<Stripes>
 <DataArray type="Int64" Name="connectivity" format="ascii"/>
 <DataArray type="Int64" Name="offsets" format="ascii"/>
</Stripes>
<Polys>
 <DataArray type="Int64" Name="connectivity" format="ascii"/>
 <DataArray type="Int64" Name="offsets" format="ascii"/>
</Polys>
</Piece>
</PolyData>
</VTKFile>