<?xml version="1.0" encoding="UTF-8" ?>
<VTKFile type="PolyData" version="0.1" order="LittleEndian">
<PolyData>
 <Piece NumberOfPoints="32" NumberOfVerts="1" NumberOfLines="0" NumberOfStrips="0" NumberOfPolys="0">
<PointData>
 <DataArray type="Float64" Name="speed" format="ascii">0 1.47215 11.6203 0 0 0 0 0 0 0 0 0 0 0 0 0 0 0 4.79431 7.61017 8.95843 7.26249 0 0 0 0 0 0 0 0 0 0</DataArray>
</PointData>
<CellData/>
<Points>
 <DataArray type="Float64" Name="Points" NumberOfComponents="3" format="ascii">135.399 142 0 135.399 145.2 0 75.1243 145.2 0 154.8 9.48921 0 158 32.5593 0 158 5.1 0 154.8 56.1236 0 154.8 18.1655 0 171.371 158 0 164.601 154.8 0 186.012 154.8 0 185.197 158 0 192.049 158 0 198.855 158 0 177.634 154.8 0 192.016 154.8 0 199.21 154.8 0 205.496 158 0 205.387 151.6 0 243.728 154.8 0 265.296 151.6 0 282.094 154.8 0 145.2 163.6 0 142 294.9 0 142 274.206 0 142 164.601 0 142 171.032 0 145.2 177.63 0 148.4 164.601 0 148.4 171.191 0 148.4 178.577 0 148.4 264.677 0</DataArray>
</Points>
<Verts>
 <DataArray type="Int64" Name="connectivity" format="ascii">0 1 2 3 4 5 6 7 8 9 10 11 12 13 14 15 16 17 18 19 20 21 22 23 24 25 26 27 28 29 30 31</DataArray>
 <DataArray type="Int64" Name="offsets" format="ascii">32</DataArray>
</Verts>
<Lines>
 <DataArray type="Int64" Name="connectivity" format="ascii"/>
 <DataArray type="Int64" Name="offsets" format="ascii"/>
</Lines>
<Stripes>
 <DataArray type="Int64" Name="connectivity" format="ascii"/>
 <DataArray type="Int64" Name="offsets" format="ascii"/>
</Stripes>
<Polys>
 <DataArray type="Int64" Name="connectivity" format="ascii"/>
 <DataArray type="Int64" Name="offsets" format="ascii"/>
</Polys>
</Piece>
</PolyData>
</VTKFile>