<?xml version="1.0" encoding="UTF-8" ?>
<VTKFile type="PolyData" version="0.1" order="LittleEndian">
<PolyData>
 <Piece NumberOfPoints="22" NumberOfVerts="1" NumberOfLines="0" NumberOfStrips="0" NumberOfPolys="0">
<PointData>
 <DataArray type="Float64" Name="speed" format="ascii">0 0 45 0 0 3.11448 5.37007 5.95114 0 43.7764 0 0 0 0 0 6.53922 0 0 0 0 0 0</DataArray>
</PointData>
<CellData/>
<Points>
 <DataArray type="Float64" Name="Points" NumberOfComponents="3" format="ascii">115.166 142 0 46.8416 145.2 0 168.6 142 0 39.9877 142 0 135.399 142 0 132.254 148.4 0 130.993 145.2 0 114.839 145.2 0 158 14.9834 0 158 256.876 0 170.994 158 0 275.143 158 0 164.601 154.8 0 244.71 154.8 0 171.817 154.8 0 285.356 151.6 0 142 294.9 0 154.8 52.1377 0 151.6 24.4178 0 151.6 45.6053 0 148.4 222.581 0 148.4 264.677 0</DataArray>
</Points>
<Verts>
 <DataArray type="Int64" Name="connectivity" format="ascii">0 1 2 3 4 5 6 7 8 9 10 11 12 13 14 15 16 17 18 19 20 21</DataArray>
 <DataArray type="Int64" Name="offsets" format="ascii">22</DataArray>
</Verts>
<Lines>
 <DataArray type="Int64" Name="connectivity" format="ascii"/>
 <DataArray type="Int64" Name="offsets" format="ascii"/>
</Lines>
<Stripes>
 <DataArray type="Int64" Name="connectivity" format="ascii"/>
 <DataArray type="Int64" Name="offsets" format="ascii"/>
</Stripes>
<Polys>
 <DataArray type="Int64" Name="connectivity" format="ascii"/>
 <DataArray type="Int64" Name="offsets" format="ascii"/>
</Polys>
</Piece>
</PolyData>
</VTKFile>