<?xml version="1.0" encoding="UTF-8" ?>
<VTKFile type="PolyData" version="0.1" order="LittleEndian">
<PolyData>
 <Piece NumberOfPoints="21" NumberOfVerts="1" NumberOfLines="0" NumberOfStrips="0" NumberOfPolys="0">
<PointData>
 <DataArray type="Float64" Name="speed" format="ascii">0 0 0 0 0 0 0 44.3312 0 0 0 0 0.86725 3.42644 0 0 0 44 4.74208 2.30961 25.552</DataArray>
</PointData>
<CellData/>
<Points>
 <DataArray type="Float64" Name="Points" NumberOfComponents="3" format="ascii">24.9562 142 0 14.0334 145.2 0 12.8096 142 0 5.1 142 0 33.9931 145.2 0 158 27.1066 0 158 5.1 0 21.1799 158 0 181.342 154.8 0 235.451 158 0 279.808 151.6 0 164.601 158 0 167.858 154.8 0 176.827 158 0 266.076 158 0 294.9 158 0 142 269.679 0 142 87.15 0 145.2 291.185 0 142 293.745 0 33.6968 151.6 0</DataArray>
</Points>
<Verts>
 <DataArray type="Int64" Name="connectivity" format="ascii">0 1 2 3 4 5 6 7 8 9 10 11 12 13 14 15 16 17 18 19 20</DataArray>
 <DataArray type="Int64" Name="offsets" format="ascii">21</DataArray>
</Verts>
<Lines>
 <DataArray type="Int64" Name="connectivity" format="ascii"/>
 <DataArray type="Int64" Name="offsets" format="ascii"/>
</Lines>
<Stripes>
 <DataArray type="Int64" Name="connectivity" format="ascii"/>
 <DataArray type="Int64" Name="offsets" format="ascii"/>
</Stripes>
<Polys>
 <DataArray type="Int64" Name="connectivity" format="ascii"/>
 <DataArray type="Int64" Name="offsets" format="ascii"/>
</Polys>
</Piece>
</PolyData>
</VTKFile>