<?xml version="1.0" encoding="UTF-8" ?>
<VTKFile type="PolyData" version="0.1" order="LittleEndian">
<PolyData>
 <Piece NumberOfPoints="29" NumberOfVerts="1" NumberOfLines="0" NumberOfStrips="0" NumberOfPolys="0">
<PointData>
 <DataArray type="Float64" Name="speed" format="ascii">0 0 0 0 0 1.93626 0.420774 0 0 2.85304 0 0 43.5 7.62228 0 0 2.138 0 0 0 0 0 3.9024 6.64839 8.33627 0 0 0 0</DataArray>
</PointData>
<CellData/>
<Points>
 <DataArray type="Float64" Name="Points" NumberOfComponents="3" format="ascii">128.702 142 0 121.839 142 0 136.377 145.2 0 38.4841 145.2 0 18.8893 142 0 35.5546 148.4 0 22.1702 148.4 0 16.6994 145.2 0 10.1186 145.2 0 7.88698 142 0 154.8 122.303 0 158 52.5252 0 158 234.6 0 151.6 91.9665 0 154.8 26.8341 0 154.8 11.6771 0 158 17.8303 0 158 5.1 0 170.994 158 0 178.295 158 0 180.438 154.8 0 187.239 158 0 172.645 154.8 0 214.56 151.6 0 283.661 158 0 142 266.433 0 145.2 288.432 0 142 294.9 0 148.4 277.693 0</DataArray>
</Points>
<Verts>
 <DataArray type="Int64" Name="connectivity" format="ascii">0 1 2 3 4 5 6 7 8 9 10 11 12 13 14 15 16 17 18 19 20 21 22 23 24 25 26 27 28</DataArray>
 <DataArray type="Int64" Name="offsets" format="ascii">29</DataArray>
</Verts>
<Lines>
 <DataArray type="Int64" Name="connectivity" format="ascii"/>
 <DataArray type="Int64" Name="offsets" format="ascii"/>
</Lines>
<Stripes>
 <DataArray type="Int64" Name="connectivity" format="ascii"/>
 <DataArray type="Int64" Name="offsets" format="ascii"/>
</Stripes>
<Polys>
 <DataArray type="Int64" Name="connectivity" format="ascii"/>
 <DataArray type="Int64" Name="offsets" format="ascii"/>
</Polys>
</Piece>
</PolyData>
</VTKFile>