<?xml version="1.0" encoding="UTF-8" ?>
<VTKFile type="PolyData" version="0.1" order="LittleEndian">
<PolyData>
 <Piece NumberOfPoints="27" NumberOfVerts="1" NumberOfLines="0" NumberOfStrips="0" NumberOfPolys="0">
<PointData>
 <DataArray type="Float64" Name="speed" format="ascii">45 0 0 0 0 13.0233 2.03418 0 0 0 0 0 0 0 17.6871 14.1113 10.2043 1.80887 0 0 43.8647 0 12.4205 3.47223 3.91977 0 7.07222</DataArray>
</PointData>
<CellData/>
<Points>
 <DataArray type="Float64" Name="Points" NumberOfComponents="3" format="ascii">168.6 142 0 15.0103 142 0 7.55399 145.2 0 23.9874 142 0 5.1 142 0 158 33.3156 0 158 6.11709 0 275.121 154.8 0 164.601 158 0 164.601 154.8 0 282.504 154.8 0 289.999 154.8 0 285.013 158 0 294.9 158 0 145.2 213.525 0 145.2 259.271 0 145.2 276.286 0 145.2 293.996 0 142 294.9 0 142 264.42 0 145.2 20.6029 0 151.6 23.6139 0 151.6 39.9108 0 154.8 12.7505 0 148.4 262.718 0 148.4 284.843 0 145.2 285.791 0</DataArray>
</Points>
<Verts>
 <DataArray type="Int64" Name="connectivity" format="ascii">0 1 2 3 4 5 6 7 8 9 10 11 12 13 14 15 16 17 18 19 20 21 22 23 24 25 26</DataArray>
 <DataArray type="Int64" Name="offsets" format="ascii">27</DataArray>
</Verts>
<Lines>
 <DataArray type="Int64" Name="connectivity" format="ascii"/>
 <DataArray type="Int64" Name="offsets" format="ascii"/>
</Lines>
<Stripes>
 <DataArray type="Int64" Name="connectivity" format="ascii"/>
 <DataArray type="Int64" Name="offsets" format="ascii"/>
</Stripes>
<Polys>
 <DataArray type="Int64" Name="connectivity" format="ascii"/>
 <DataArray type="Int64" Name="offsets" format="ascii"/>
</Polys>
</Piece>
</PolyData>
</VTKFile>