<?xml version="1.0" encoding="UTF-8" ?>
<VTKFile type="PolyData" version="0.1" order="LittleEndian">
<PolyData>
 <Piece NumberOfPoints="33" NumberOfVerts="1" NumberOfLines="0" NumberOfStrips="0" NumberOfPolys="0">
<PointData>
 <DataArray type="Float64" Name="speed" format="ascii">42.5 0 0 0.00227015 0 2.84057 6.24288 1.89169 0 0 0 0 0 0 0 0 0 0 0 0 0 0 2.27946 7.17681 0 0 1.56124 0 0 0 43 4.22306 0</DataArray>
</PointData>
<CellData/>
<Points>
 <DataArray type="Float64" Name="Points" NumberOfComponents="3" format="ascii">277.35 142 0 121.528 142 0 136.333 145.2 0 136.399 148.4 0 129.223 142 0 122.576 145.2 0 92.8744 145.2 0 6.04584 142 0 154.8 59.1601 0 158 42.583 0 154.8 39.9138 0 154.8 10.3072 0 158 21.9508 0 158 5.1 0 182.561 158 0 194.381 151.6 0 189.338 158 0 196.272 158 0 200.711 151.6 0 199.178 154.8 0 205.849 154.8 0 212.666 154.8 0 206.141 158 0 287.518 158 0 145.2 283.171 0 142 272.597 0 145.2 291.247 0 151.6 24.4178 0 154.8 27.2288 0 148.4 222.581 0 256.1 145.2 0 142 289.362 0 148.4 264.677 0</DataArray>
</Points>
<Verts>
 <DataArray type="Int64" Name="connectivity" format="ascii">0 1 2 3 4 5 6 7 8 9 10 11 12 13 14 15 16 17 18 19 20 21 22 23 24 25 26 27 28 29 30 31 32</DataArray>
 <DataArray type="Int64" Name="offsets" format="ascii">33</DataArray>
</Verts>
<Lines>
 <DataArray type="Int64" Name="connectivity" format="ascii"/>
 <DataArray type="Int64" Name="offsets" format="ascii"/>
</Lines>
<Stripes>
 <DataArray type="Int64" Name="connectivity" format="ascii"/>
 <DataArray type="Int64" Name="offsets" format="ascii"/>
</Stripes>
<Polys>
 <DataArray type="Int64" Name="connectivity" format="ascii"/>
 <DataArray type="Int64" Name="offsets" format="ascii"/>
</Polys>
</Piece>
</PolyData>
</VTKFile>