<?xml version="1.0" encoding="UTF-8" ?>
<VTKFile type="PolyData" version="0.1" order="LittleEndian">
<PolyData>
 <Piece NumberOfPoints="29" NumberOfVerts="1" NumberOfLines="0" NumberOfStrips="0" NumberOfPolys="0">
<PointData>
 <DataArray type="Float64" Name="speed" format="ascii">0 0 0 0 0 0 0 0 0 0 0 0 0.919444 4.02322 1.7556 0 43.2193 0 0 2.77493 0 0 0 0 0 0 0 0 3.80645</DataArray>
</PointData>
<CellData/>
<Points>
 <DataArray type="Float64" Name="Points" NumberOfComponents="3" format="ascii">135.399 142 0 135.399 145.2 0 42.7031 145.2 0 14.0054 145.2 0 21.3593 142 0 5.1 142 0 154.8 128.582 0 158 27.269 0 158 5.1 0 254.26 158 0 164.601 154.8 0 277.168 154.8 0 264.941 154.8 0 269.674 158 0 282.782 158 0 294.9 158 0 142 21.1552 0 145.2 164.601 0 145.2 171.808 0 142 254.317 0 142 294.9 0 154.8 15.911 0 151.6 38.7876 0 148.4 258.259 0 148.4 286.499 0 148.4 276.163 0 148.4 200.724 0 145.2 285.591 0 142 283.893 0</DataArray>
</Points>
<Verts>
 <DataArray type="Int64" Name="connectivity" format="ascii">0 1 2 3 4 5 6 7 8 9 10 11 12 13 14 15 16 17 18 19 20 21 22 23 24 25 26 27 28</DataArray>
 <DataArray type="Int64" Name="offsets" format="ascii">29</DataArray>
</Verts>
<Lines>
 <DataArray type="Int64" Name="connectivity" format="ascii"/>
 <DataArray type="Int64" Name="offsets" format="ascii"/>
</Lines>
<Stripes>
 <DataArray type="Int64" Name="connectivity" format="ascii"/>
 <DataArray type="Int64" Name="offsets" format="ascii"/>
</Stripes>
<Polys>
 <DataArray type="Int64" Name="connectivity" format="ascii"/>
 <DataArray type="Int64" Name="offsets" format="ascii"/>
</Polys>
</Piece>
</PolyData>
</VTKFile>