<?xml version="1.0" encoding="UTF-8" ?>
<VTKFile type="PolyData" version="0.1" order="LittleEndian">
<PolyData>
 <Piece NumberOfPoints="17" NumberOfVerts="1" NumberOfLines="0" NumberOfStrips="0" NumberOfPolys="0">
<PointData>
 <DataArray type="Float64" Name="speed" format="ascii">0 5.59722 0 0 0 0 0 7.63959 8.28557 0 0 0 0 31.1516 11.2587 0.0426368 0</DataArray>
</PointData>
<CellData/>
<Points>
 <DataArray type="Float64" Name="Points" NumberOfComponents="3" format="ascii">20.9833 145.2 0 141.21 145.2 0 14.1103 145.2 0 7.93724 145.2 0 23.5068 142 0 5.1 142 0 154.8 10.051 0 156.73 154.8 0 156.543 158 0 145.2 279.24 0 142 269.159 0 151.6 16.0593 0 154.8 25.8463 0 81.8373 151.6 0 151.6 116.979 0 158 14.5391 0 142 294.9 0</DataArray>
</Points>
<Verts>
 <DataArray type="Int64" Name="connectivity" format="ascii">0 1 2 3 4 5 6 7 8 9 10 11 12 13 14 15 16</DataArray>
 <DataArray type="Int64" Name="offsets" format="ascii">17</DataArray>
</Verts>
<Lines>
 <DataArray type="Int64" Name="connectivity" format="ascii"/>
 <DataArray type="Int64" Name="offsets" format="ascii"/>
</Lines>
<Stripes>
 <DataArray type="Int64" Name="connectivity" format="ascii"/>
 <DataArray type="Int64" Name="offsets" format="ascii"/>
</Stripes>
<Polys>
 <DataArray type="Int64" Name="connectivity" format="ascii"/>
 <DataArray type="Int64" Name="offsets" format="ascii"/>
</Polys>
</Piece>
</PolyData>
</VTKFile>