<?xml version="1.0" encoding="UTF-8" ?>
<VTKFile type="PolyData" version="0.1" order="LittleEndian">
<PolyData>
 <Piece NumberOfPoints="29" NumberOfVerts="1" NumberOfLines="0" NumberOfStrips="0" NumberOfPolys="0">
<PointData>
 <DataArray type="Float64" Name="speed" format="ascii">0 0 0 0 0 0 0 0 3.03508 0 0 0 0 42.5 0 43.3327 0 0 0 6.01308 9.83271 7.11619 0 0 0 0 0 0 0</DataArray>
</PointData>
<CellData/>
<Points>
 <DataArray type="Float64" Name="Points" NumberOfComponents="3" format="ascii">115.166 142 0 46.8416 145.2 0 135.399 142 0 136.399 148.4 0 135.399 145.2 0 128.702 142 0 123.84 145.2 0 116.818 145.2 0 102.688 145.2 0 35.0775 142 0 5.1 142 0 158 5.1 0 170.994 158 0 22.65 158 0 164.601 154.8 0 43.401 154.8 0 171.817 154.8 0 177.605 158 0 163.601 151.6 0 240.928 154.8 0 245.792 158 0 288.168 158 0 142 261.52 0 154.8 15.0235 0 158 34.4073 0 158 20.7441 0 151.6 24.4178 0 151.6 45.6053 0 142 294.9 0</DataArray>
</Points>
<Verts>
 <DataArray type="Int64" Name="connectivity" format="ascii">0 1 2 3 4 5 6 7 8 9 10 11 12 13 14 15 16 17 18 19 20 21 22 23 24 25 26 27 28</DataArray>
 <DataArray type="Int64" Name="offsets" format="ascii">29</DataArray>
</Verts>
<Lines>
 <DataArray type="Int64" Name="connectivity" format="ascii"/>
 <DataArray type="Int64" Name="offsets" format="ascii"/>
</Lines>
<Stripes>
 <DataArray type="Int64" Name="connectivity" format="ascii"/>
 <DataArray type="Int64" Name="offsets" format="ascii"/>
</Stripes>
<Polys>
 <DataArray type="Int64" Name="connectivity" format="ascii"/>
 <DataArray type="Int64" Name="offsets" format="ascii"/>
</Polys>
</Piece>
</PolyData>
</VTKFile>