<?xml version="1.0" encoding="UTF-8" ?>
<VTKFile type="PolyData" version="0.1" order="LittleEndian">
<PolyData>
 <Piece NumberOfPoints="28" NumberOfVerts="1" NumberOfLines="0" NumberOfStrips="0" NumberOfPolys="0">
<PointData>
 <DataArray type="Float64" Name="speed" format="ascii">0 0 0 0 0 0 0 0 0 0 0 0 5.91944 4.516 0 0 0 43.3241 7.77493 0 0 0 0 0 0 0 2.8906 2.34224</DataArray>
</PointData>
<CellData/>
<Points>
 <DataArray type="Float64" Name="Points" NumberOfComponents="3" format="ascii">135.399 142 0 135.399 145.2 0 42.7031 145.2 0 14.0054 145.2 0 21.3593 142 0 5.1 142 0 154.8 128.582 0 158 27.269 0 158 5.1 0 254.26 158 0 164.601 154.8 0 277.168 154.8 0 280.788 158 0 291.234 158 0 142 171.317 0 145.2 164.601 0 145.2 171.808 0 142 43.5633 0 145.2 279.441 0 154.8 15.911 0 151.6 38.7876 0 148.4 258.259 0 148.4 286.499 0 148.4 276.163 0 148.4 200.724 0 142 277.88 0 145.2 289.068 0 142 293.729 0</DataArray>
</Points>
<Verts>
 <DataArray type="Int64" Name="connectivity" format="ascii">0 1 2 3 4 5 6 7 8 9 10 11 12 13 14 15 16 17 18 19 20 21 22 23 24 25 26 27</DataArray>
 <DataArray type="Int64" Name="offsets" format="ascii">28</DataArray>
</Verts>
<Lines>
 <DataArray type="Int64" Name="connectivity" format="ascii"/>
 <DataArray type="Int64" Name="offsets" format="ascii"/>
</Lines>
<Stripes>
 <DataArray type="Int64" Name="connectivity" format="ascii"/>
 <DataArray type="Int64" Name="offsets" format="ascii"/>
</Stripes>
<Polys>
 <DataArray type="Int64" Name="connectivity" format="ascii"/>
 <DataArray type="Int64" Name="offsets" format="ascii"/>
</Polys>
</Piece>
</PolyData>
</VTKFile>