<?xml version="1.0" encoding="UTF-8" ?>
<VTKFile type="PolyData" version="0.1" order="LittleEndian">
<PolyData>
 <Piece NumberOfPoints="30" NumberOfVerts="1" NumberOfLines="0" NumberOfStrips="0" NumberOfPolys="0">
<PointData>
 <DataArray type="Float64" Name="speed" format="ascii">0 0 0 0 0 5.99309 0 0 0 21.0516 21.7096 0 0 0 0 0 0 1.8109 0 0 0 0 0 0.98543 8.94821 0 0 1.06441 0 0</DataArray>
</PointData>
<CellData/>
<Points>
 <DataArray type="Float64" Name="Points" NumberOfComponents="3" format="ascii">15.0103 142 0 7.55399 145.2 0 23.9874 142 0 5.1 142 0 158 135.399 0 154.8 130.909 0 154.8 30.2604 0 158 5.1 0 275.121 154.8 0 100.017 158 0 92.2438 154.8 0 282.504 154.8 0 289.999 154.8 0 285.013 158 0 294.9 158 0 145.2 164.601 0 142 164.601 0 142 172.519 0 145.2 243.232 0 145.2 284.046 0 142 278.491 0 142 264.42 0 151.6 23.6139 0 151.6 135.399 0 151.6 100.812 0 148.4 255.999 0 148.4 284.843 0 148.4 164.601 0 145.2 291.252 0 142 294.9 0</DataArray>
</Points>
<Verts>
 <DataArray type="Int64" Name="connectivity" format="ascii">0 1 2 3 4 5 6 7 8 9 10 11 12 13 14 15 16 17 18 19 20 21 22 23 24 25 26 27 28 29</DataArray>
 <DataArray type="Int64" Name="offsets" format="ascii">30</DataArray>
</Verts>
<Lines>
 <DataArray type="Int64" Name="connectivity" format="ascii"/>
 <DataArray type="Int64" Name="offsets" format="ascii"/>
</Lines>
<Stripes>
 <DataArray type="Int64" Name="connectivity" format="ascii"/>
 <DataArray type="Int64" Name="offsets" format="ascii"/>
</Stripes>
<Polys>
 <DataArray type="Int64" Name="connectivity" format="ascii"/>
 <DataArray type="Int64" Name="offsets" format="ascii"/>
</Polys>
</Piece>
</PolyData>
</VTKFile>