<?xml version="1.0" encoding="UTF-8" ?>
<VTKFile type="PolyData" version="0.1" order="LittleEndian">
<PolyData>
 <Piece NumberOfPoints="26" NumberOfVerts="1" NumberOfLines="0" NumberOfStrips="0" NumberOfPolys="0">
<PointData>
 <DataArray type="Float64" Name="speed" format="ascii">0 0 0 0 0 0 0 0 0 0 0 0 0 0 4.47021 0 0 0 0 12.5919 0 0 0 0 0 0</DataArray>
</PointData>
<CellData/>
<Points>
 <DataArray type="Float64" Name="Points" NumberOfComponents="3" format="ascii">115.166 145.2 0 46.8416 142 0 11.5218 145.2 0 17.6879 142 0 5.1 142 0 154.8 59.1601 0 158 51.9879 0 158 136.4 0 154.8 52.1866 0 158 18.8925 0 158 5.1 0 180.92 158 0 164.601 154.8 0 170.994 158 0 181.181 154.8 0 275.143 154.8 0 294.9 158 0 145.2 283.171 0 145.2 290.207 0 142 187.968 0 142 288.053 0 151.6 24.4178 0 151.6 45.6053 0 148.4 222.581 0 142 294.9 0 148.4 264.677 0</DataArray>
</Points>
<Verts>
 <DataArray type="Int64" Name="connectivity" format="ascii">0 1 2 3 4 5 6 7 8 9 10 11 12 13 14 15 16 17 18 19 20 21 22 23 24 25</DataArray>
 <DataArray type="Int64" Name="offsets" format="ascii">26</DataArray>
</Verts>
<Lines>
 <DataArray type="Int64" Name="connectivity" format="ascii"/>
 <DataArray type="Int64" Name="offsets" format="ascii"/>
</Lines>
<Stripes>
 <DataArray type="Int64" Name="connectivity" format="ascii"/>
 <DataArray type="Int64" Name="offsets" format="ascii"/>
</Stripes>
<Polys>
 <DataArray type="Int64" Name="connectivity" format="ascii"/>
 <DataArray type="Int64" Name="offsets" format="ascii"/>
</Polys>
</Piece>
</PolyData>
</VTKFile>