<?xml version="1.0" encoding="UTF-8" ?>
<VTKFile type="PolyData" version="0.1" order="LittleEndian">
<PolyData>
 <Piece NumberOfPoints="19" NumberOfVerts="1" NumberOfLines="0" NumberOfStrips="0" NumberOfPolys="0">
<PointData>
 <DataArray type="Float64" Name="speed" format="ascii">0 0 0 0 0 0 0 0 0 44.5 2.40101 0 45 2.93929 1.21851 2.26025 0 0 13.04</DataArray>
</PointData>
<CellData/>
<Points>
 <DataArray type="Float64" Name="Points" NumberOfComponents="3" format="ascii">6.03703 145.2 0 5.71508 142 0 154.8 7.98256 0 154.8 135.399 0 158 128.784 0 158 43.3148 0 264.058 158 0 164.601 154.8 0 281.883 154.8 0 109.15 158 0 293.699 158 0 145.2 267.95 0 142 131.4 0 145.2 279.549 0 145.2 287.495 0 142 292.39 0 151.6 24.1215 0 158 10.1 0 148.4 256.781 0</DataArray>
</Points>
<Verts>
 <DataArray type="Int64" Name="connectivity" format="ascii">0 1 2 3 4 5 6 7 8 9 10 11 12 13 14 15 16 17 18</DataArray>
 <DataArray type="Int64" Name="offsets" format="ascii">19</DataArray>
</Verts>
<Lines>
 <DataArray type="Int64" Name="connectivity" format="ascii"/>
 <DataArray type="Int64" Name="offsets" format="ascii"/>
</Lines>
<Stripes>
 <DataArray type="Int64" Name="connectivity" format="ascii"/>
 <DataArray type="Int64" Name="offsets" format="ascii"/>
</Stripes>
<Polys>
 <DataArray type="Int64" Name="connectivity" format="ascii"/>
 <DataArray type="Int64" Name="offsets" format="ascii"/>
</Polys>
</Piece>
</PolyData>
</VTKFile>