<?xml version="1.0" encoding="UTF-8" ?>
<VTKFile type="PolyData" version="0.1" order="LittleEndian">
<PolyData>
 <Piece NumberOfPoints="26" NumberOfVerts="1" NumberOfLines="0" NumberOfStrips="0" NumberOfPolys="0">
<PointData>
 <DataArray type="Float64" Name="speed" format="ascii">0 0 0 0 0 0 0 0 0 0 0 2.21855 5.0255 7.27534 10.5344 11.4522 11.3335 3.36804 0 0 0 0 3.15899 1.2293 11.4208 8.7976</DataArray>
</PointData>
<CellData/>
<Points>
 <DataArray type="Float64" Name="Points" NumberOfComponents="3" format="ascii">25.697 145.2 0 36.4439 142 0 5.1 142 0 154.8 30.2604 0 158 23.604 0 266.249 154.8 0 282.139 154.8 0 290.427 154.8 0 274.228 158 0 294.9 158 0 145.2 164.601 0 142 164.96 0 145.2 179.143 0 145.2 193.529 0 145.2 220.537 0 145.2 239.804 0 145.2 273.053 0 145.2 292.029 0 142 294.9 0 151.6 23.6139 0 158 14.2256 0 142 273.805 0 148.4 245.091 0 148.4 263.707 0 145.2 255.439 0 145.2 284.179 0</DataArray>
</Points>
<Verts>
 <DataArray type="Int64" Name="connectivity" format="ascii">0 1 2 3 4 5 6 7 8 9 10 11 12 13 14 15 16 17 18 19 20 21 22 23 24 25</DataArray>
 <DataArray type="Int64" Name="offsets" format="ascii">26</DataArray>
</Verts>
<Lines>
 <DataArray type="Int64" Name="connectivity" format="ascii"/>
 <DataArray type="Int64" Name="offsets" format="ascii"/>
</Lines>
<Stripes>
 <DataArray type="Int64" Name="connectivity" format="ascii"/>
 <DataArray type="Int64" Name="offsets" format="ascii"/>
</Stripes>
<Polys>
 <DataArray type="Int64" Name="connectivity" format="ascii"/>
 <DataArray type="Int64" Name="offsets" format="ascii"/>
</Polys>
</Piece>
</PolyData>
</VTKFile>