<?xml version="1.0" encoding="UTF-8" ?>
<VTKFile type="PolyData" version="0.1" order="LittleEndian">
<PolyData>
 <Piece NumberOfPoints="20" NumberOfVerts="1" NumberOfLines="0" NumberOfStrips="0" NumberOfPolys="0">
<PointData>
 <DataArray type="Float64" Name="speed" format="ascii">43.9923 43.9289 0 11.6062 8.48438 7.28544 0 0 0 0 0 0 0 0 5.91219 5.56016 4.56713 0 0 2.13441</DataArray>
</PointData>
<CellData/>
<Points>
 <DataArray type="Float64" Name="Points" NumberOfComponents="3" format="ascii">279.757 142 0 234.814 145.2 0 20.9833 148.4 0 36.1677 142 0 23.3414 145.2 0 14.4322 142 0 5.1 142 0 164.601 154.8 0 164.601 158 0 142 164.601 0 145.2 164.601 0 145.2 279.24 0 142 294.9 0 151.6 16.0593 0 151.6 42.5818 0 154.8 26.4506 0 158 14.9596 0 148.4 246.694 0 148.4 268.353 0 148.4 164.918 0</DataArray>
</Points>
<Verts>
 <DataArray type="Int64" Name="connectivity" format="ascii">0 1 2 3 4 5 6 7 8 9 10 11 12 13 14 15 16 17 18 19</DataArray>
 <DataArray type="Int64" Name="offsets" format="ascii">20</DataArray>
</Verts>
<Lines>
 <DataArray type="Int64" Name="connectivity" format="ascii"/>
 <DataArray type="Int64" Name="offsets" format="ascii"/>
</Lines>
<Stripes>
 <DataArray type="Int64" Name="connectivity" format="ascii"/>
 <DataArray type="Int64" Name="offsets" format="ascii"/>
</Stripes>
<Polys>
 <DataArray type="Int64" Name="connectivity" format="ascii"/>
 <DataArray type="Int64" Name="offsets" format="ascii"/>
</Polys>
</Piece>
</PolyData>
</VTKFile>