<?xml version="1.0" encoding="UTF-8" ?>
<VTKFile type="PolyData" version="0.1" order="LittleEndian">
<PolyData>
 <Piece NumberOfPoints="27" NumberOfVerts="1" NumberOfLines="0" NumberOfStrips="0" NumberOfPolys="0">
<PointData>
 <DataArray type="Float64" Name="speed" format="ascii">0 0 0 0 0.158946 7.12452 8.03204 2.54445 4.41524 2.04333 0 0 0 0 0 0 0 0 34.8533 15.0857 0 0 0 0 0 0 0</DataArray>
</PointData>
<CellData/>
<Points>
 <DataArray type="Float64" Name="Points" NumberOfComponents="3" format="ascii">135.399 145.2 0 20.8014 142 0 5.1 142 0 158 23.604 0 154.8 135.399 0 158 128.65 0 154.8 110.962 0 154.8 39.1826 0 154.8 22.4537 0 154.8 13.3364 0 158 5.1 0 254.26 158 0 290.858 154.8 0 290.044 158 0 142 171.317 0 145.2 263.065 0 145.2 290.494 0 145.2 164.601 0 56.1357 151.6 0 151.6 101.22 0 151.6 15.911 0 148.4 258.259 0 148.4 286.499 0 148.4 276.163 0 148.4 200.724 0 142 275.441 0 142 294.9 0</DataArray>
</Points>
<Verts>
 <DataArray type="Int64" Name="connectivity" format="ascii">0 1 2 3 4 5 6 7 8 9 10 11 12 13 14 15 16 17 18 19 20 21 22 23 24 25 26</DataArray>
 <DataArray type="Int64" Name="offsets" format="ascii">27</DataArray>
</Verts>
<Lines>
 <DataArray type="Int64" Name="connectivity" format="ascii"/>
 <DataArray type="Int64" Name="offsets" format="ascii"/>
</Lines>
<Stripes>
 <DataArray type="Int64" Name="connectivity" format="ascii"/>
 <DataArray type="Int64" Name="offsets" format="ascii"/>
</Stripes>
<Polys>
 <DataArray type="Int64" Name="connectivity" format="ascii"/>
 <DataArray type="Int64" Name="offsets" format="ascii"/>
</Polys>
</Piece>
</PolyData>
</VTKFile>