<?xml version="1.0" encoding="UTF-8" ?>
<VTKFile type="PolyData" version="0.1" order="LittleEndian">
<PolyData>
 <Piece NumberOfPoints="23" NumberOfVerts="1" NumberOfLines="0" NumberOfStrips="0" NumberOfPolys="0">
<PointData>
 <DataArray type="Float64" Name="speed" format="ascii">0 0 0 0 0 0 0 0 0 0 0 0 0 44.1906 0 0 3.0814 2.32605 0 4.62944 0 43.9163 43.0005</DataArray>
</PointData>
<CellData/>
<Points>
 <DataArray type="Float64" Name="Points" NumberOfComponents="3" format="ascii">24.9562 142 0 5.80982 145.2 0 5.94745 142 0 33.9931 145.2 0 154.8 76.3578 0 158 25.7408 0 158 5.1 0 235.451 158 0 164.601 154.8 0 271.805 154.8 0 291.695 154.8 0 276.068 158 0 294.9 158 0 142 21.2637 0 145.2 278.238 0 142 271.204 0 142 283.551 0 142 292.324 0 154.8 19.4359 0 151.03 140.389 0 151.6 53.6154 0 235.224 148.4 0 256.1 145.2 0</DataArray>
</Points>
<Verts>
 <DataArray type="Int64" Name="connectivity" format="ascii">0 1 2 3 4 5 6 7 8 9 10 11 12 13 14 15 16 17 18 19 20 21 22</DataArray>
 <DataArray type="Int64" Name="offsets" format="ascii">23</DataArray>
</Verts>
<Lines>
 <DataArray type="Int64" Name="connectivity" format="ascii"/>
 <DataArray type="Int64" Name="offsets" format="ascii"/>
</Lines>
<Stripes>
 <DataArray type="Int64" Name="connectivity" format="ascii"/>
 <DataArray type="Int64" Name="offsets" format="ascii"/>
</Stripes>
<Polys>
 <DataArray type="Int64" Name="connectivity" format="ascii"/>
 <DataArray type="Int64" Name="offsets" format="ascii"/>
</Polys>
</Piece>
</PolyData>
</VTKFile>