0.8747949699289229
0.8409218662169758
0.8600891861761427
0.8872352604464797
0.7772701313535123
0.722693831352575
0.8662663755458515
0.7902058987200891
0.8089385474860336
0.8604786923525978
0.825
0.7760325770796975
0.7752112676056339
0.7868391451068616
0.7422003284072249
0.6765197992191857
0.8170594837261503
0.7689750692520776
0.7695248498088476
0.7434758467518046
0.7300677436164669
0.7474916387959866
0.8922902494331065
0.9192372406057207
0.8522412838959601
0.8159403669724771
0.7468499427262314
0.8640325392213829
0.8573014991671294
0.7379988432620012
0.8086124401913876
0.7771051183269125
0.8010033444816054
0.8456375838926175
0.7525441885377611
0.7800111669458403
0.7884399551066218
0.831353919239905
0.7281704781704782
0.7707531610775151
0.7732463295269169
0.7122507122507122
0.7798634812286689
0.7861429350791053
0.7752442996742671
0.8045404208194906
0.7861915367483296
0.9106753812636166
0.8812170860152135
0.7197382769901853
0.7913385826771654
0.7989276139410187
0.811790156841536
0.8503589177250138
0.7961269499731038
0.7483443708609272
0.7954022988505747
0.8904709748083242
0.8406374501992032
0.756678281068525
0.8186383928571429
0.8464460119370592
0.8964769647696477
0.8163380281690141
0.826944757609921
0.7178649237472767
0.7490452809601745
0.75
0.7252625760088447
0.8474764281752635
0.7847025495750708
0.7731277533039648
0.9214922048997772
0.7916903813318156
0.8213689482470785
0.9445924347362813
0.7494369369369369
0.770546056260342
0.790633608815427
0.8327777777777777
0.7360594795539034
0.8276440962506995
0.8209351753453773
0.778794402583423
0.7998822836962919
0.7411504424778761
0.7556818181818182
0.8415786548082268
0.8107064017660044
0.763538873994638
0.7746478873239436
0.7757510729613734
0.8512676056338028
0.8497206703910615
0.7192575406032483
0.8762162162162163
0.8161044613710555
0.8026981450252951
0.7966377440347071
0.7521222410865874
0.8259911894273128
0.7218251786695987
0.9241300627495722
0.7905138339920948
0.8396946564885496
0.8537611783271962
0.8770083102493075
0.7588888888888888
0.7778381314502988
0.868421052631579
0.7447532614861032
0.7896512935883014
0.7630193095377413
0.7406789092932665
0.7223131478450627
0.7522522522522522
0.8188325991189427
0.7089305402425579
0.8485536018150879
0.8097297297297297
0.7753828701077708
0.8287292817679558
0.7662263067202757
0.8448935008192244
0.8883131836499712
0.8217716115261473
0.8448464912280702
0.9080717488789237
0.7450980392156863
0.7520391517128875
0.7738225629791895
0.8279914529914529
0.8354908306364617
0.9085297418630752
0.8347062053816584
0.838495575221239
0.7952538631346578
0.7380281690140845
0.8501722158438576
0.7504196978175713
0.8074745186862967
0.7557166759620747
0.8230683090705487
0.8183352080989876
0.8020010531858873
0.8409337676438654
0.7537108301264431
0.821753986332574
0.7804469273743017
0.781433607520564
0.8295577130528586
0.7299107142857143
0.7926367081754196
0.8022328548644339
0.80235822571589
0.7571115973741794
0.7611856823266219
0.8135048231511254
0.8752723311546841
0.8405405405405405
0.8192576654115116
0.7238421955403087
0.7596207473508088
0.8983783783783784
0.800328227571116
0.8768115942028986
0.8715953307392996
0.8199212155317952
0.7892677473448854
0.8241513633834168
0.7760270118176702
0.8288439955106621
0.7549857549857549
0.9181669394435352
0.8104291146116241
0.8392134181607865
0.7847533632286996
0.8782857142857143
0.9109663409337676
0.8018973214285714
0.8666288308740068
0.8311111111111111
0.8218142548596112
0.7797281993204983
0.8604395604395605
0.7646726862302483
0.7724324324324324
0.8259668508287292
0.8845726970033296
0.7900277008310249
0.8467966573816156
0.8236914600550964
0.7981142540210759
0.7670424047235641
0.8302101078932425
0.841589861751152
0.7746701846965699
0.8425624321389794
0.7517351841964762
0.8677130044843049
0.8161434977578476
0.764804469273743
0.8283236994219653
0.9166666666666666
0.7777777777777778
0.7492861222158766
0.8230383973288815
0.7616081540203851
0.8281338627339762
0.7571993224167137
0.8070175438596491
0.8176825919824272
0.8257448004496908
0.8613469156762875
0.9695431472081218
0.7759290072102052
0.8835690968443961
0.7995813710099424
0.826158038147139
0.7546549835706462
0.8762886597938144
0.808695652173913
0.7965050732807215
0.7717391304347826
0.8248215266337178
0.8877270225646671
0.8449349179400113
0.7637083097795364
0.7976653696498055
0.7311072056239016
0.8228941684665226
0.8223350253807107
0.8061889250814332
0.8304794520547946
0.7605711147721033
0.8483360611020185
0.8310016787912703
0.8605051664753157
0.8149804359977642
0.9007291082445317
0.8233062330623306
0.8985587583148559
0.8435814455231931
0.7895335608646189
0.7784598214285714
0.8528259653049804
0.8426900584795322
0.8561070831009482
0.8466157205240175
0.8529411764705882
0.7923655292076345
0.8137893593919653
0.7738359201773836
0.8326601269474899
0.9041248606465998
0.8320135746606335
0.7845894263217098
0.7781569965870307
0.8152793614595211
0.784640171858217
0.8424242424242424
0.7874234835837507
0.8688334300638422
0.7072072072072072
0.8268608414239482
0.8089764641488779
0.8384703196347032
0.7862723214285714
0.8387270765911543
0.8250276854928018
0.79639029892837
0.8254335260115607
0.8232636928289102
0.826547685443391
0.7718390804597701
0.755056179775281
0.8088317495807714
0.8074807480748075
0.8417894162575014
0.8217224355458036
0.8154960981047937
0.8854673149648838
0.8539682539682539
0.824332006822058
0.7534611288604899
0.7943615257048093
0.739202657807309
0.7986942328618063
0.8663721700717836
0.8541554959785522
0.7908640616400661
0.8537248504622077
0.8660260033917467
0.8332384746727376
0.7701863354037267
0.7828200972447326
0.753133514986376
0.7970183486238532
0.8059384941675504
0.8038585209003215
0.7366071428571429
0.7732073374096721
0.7548682703321878
0.8213891951488423
0.8485016648168702
0.8813465783664459
0.8673637864611998
0.8424769147202608
0.7363433667781494
0.8030803080308031
0.786735277301315
0.7704455724760293
0.816628701594533
0.942987457240593
0.8489409141583054
0.7373519913885899
0.734142305570877
0.8883953359244864
0.8252703471826978
0.7155807365439093
0.7565169162506933
0.8106103822019395
0.7855964815832875
0.8236619718309859
0.806949806949807
0.8991275899672846
0.7678864008738394
0.774671052631579
0.960272417707151
0.8636616583194212
0.8055859802847755
0.8628987129266927
0.8429468874928612
0.8263506063947078
0.7610062893081762
0.8421633554083885
0.8092518560822387
0.8365825688073395
0.7671075330649799
0.8288682340076544
0.9054586381541925
0.9716231555051078
0.8227558604917096
0.8755681818181819
0.7098387993329628
0.7579726651480638
0.8320084790673026
0.8009127210496292
0.8487106017191977
0.7420612813370474
0.8530092592592593
0.8006833712984055
0.8724573941726224
0.8792057363485934
0.7918978912319645
0.8001119820828667
0.7949561403508771
0.8898395721925134
0.7844779452819653
0.7971334068357222
0.9108910891089109
0.7542051003798155
0.8479236812570146
0.7498591549295774
0.943010752688172
0.7807215332581736
0.8385331143951834
0.7812154696132597
0.7834536368684064
0.8369803063457331
0.7608576140736668
0.768733153638814
0.7825836216839677
0.789153292750415
0.8391608391608392
0.8768115942028986
0.8539646320593268
0.8017476788640088
0.8385300668151447
0.8573825503355704
0.8448081264108352
0.758659217877095
0.8443213296398892
0.86045197740113
0.7925356750823271
0.8228822882288229
0.8127445500279485
0.7731456415809421
0.9192580469176214
0.8738187882156754
0.7853042479908151
0.7571830985915493
0.7925840092699884
0.7952488687782805
0.801123595505618
0.8369028006589786
0.7410714285714286
0.7847826086956522
0.7374080362195812
0.7451508620689655
0.8488764044943821
0.8155446086480569
0.8596685082872928
0.7700445434298441
0.7708333333333334
0.7215258855585831
0.8458998348926803
0.8297297297297297
0.7665738161559889
0.7417366946778712
0.7822102425876011
0.84375
0.7956570155902004
0.8708644610458911
0.7688113413304253
0.8740416210295728
0.7848244620611552
0.8938299055030573
0.8173719376391982
0.8117267348036579
0.7797085201793722
0.8637374860956618
0.7931995540691192
0.7961060032449973
0.7839439655172413
0.7807545106615636
0.757328990228013
0.8785996612083569
0.7733405288720993
0.9445054945054945
0.8420473307649973
0.7796797349530646
0.8398220244716351
0.906599552572707
0.6887921653971708
0.8546812176909822
0.8222923238696109
0.9237887860642352
0.8002257336343115
0.8272425249169435
0.8157033805888768
0.8487777146105742
0.7530732228754676
0.8413677130044843
0.8607021517553793
0.7898876404494382
0.7594026548672567
0.7778396436525612
0.8831596269884805
0.8675145733969264
0.8501852832186342
0.7556306306306306
0.7706725468577729
0.7278447823807027
0.8409718387631143
0.7571271929824561
0.7245543415756182
0.6922642574816488
0.8314917127071824
0.7967250141163185
0.7611017425519955
0.8224617129892229
0.7803242034656233
0.8521276595744681
0.8660812294182217
0.7749178532311063
0.7710583153347732
0.8382099827882961
0.8970189701897019
0.7664835164835165
0.8305084745762712
0.8391877058177827
0.9063526834611172
0.7318960751796573
0.8771834061135371
0.8900634249471459
0.8742547425474255
0.7380681818181818
0.7426636568848759
0.7965274009766685
0.8361320208453966
0.8738951090159104
0.7321131447587355
0.7253243090806543
0.9133261105092091
0.8671484157865481
0.799468085106383
0.7835332606324973
0.7228847245883021
0.8374730021598272
0.8124293785310734
0.7777777777777778
0.7981551817688551
0.7372881355932204
0.7548240635641317
0.7892183288409703
0.8023317435082141
0.7654941373534339
0.7434320849636669
0.8004574042309891
0.7260869565217392
0.7568627450980392
0.807909604519774
0.7755214050493963
0.8088397790055248
0.7374301675977654
0.8042505592841164
0.8434690639873083
0.8064516129032258
0.8829026937877955
0.8617381489841986
0.7678774120317821
0.739612188365651
0.7988472622478386
0.8957992362247681
0.8002250984805852
0.7472590882862089
0.8961625282167043
0.9050527484730705
0.7495881383855024
0.8321899736147758
0.8017429193899782
0.8697775366250678
0.8474007825600894
0.735933147632312
0.7070821529745043
0.8191841234840133
0.7989778534923339
0.8265993265993266
0.701783723522854
0.8470191226096738
0.7839399191218949
0.8384162653825575
0.7633756205184776
0.7252124645892352
0.7703995498030388
0.8283499446290143
0.8209606986899564
0.8219866071428571
0.7877795962902346
0.7579859231185706
0.8030050083472454
0.7615298087739033
0.8481703986892408
0.755700325732899
0.8081494057724957
0.8248095756256801
0.8745098039215686
0.7210467706013363
0.8502001143510578
0.8067226890756303
0.7879127028539452
0.818746470920384
0.8346069868995634
0.7969515514425695
0.8318872017353579
0.8674121405750799
0.8749305169538633
0.8659611992945326
0.8764352104975396
0.7917121046892039
0.8217821782178217
0.794099939795304
0.7749586321014893
0.7690246516613076
0.7513542795232936
0.8481501932633904
0.7685714285714286
0.7917115177610333
0.7808807733619764
0.8009656652360515
0.7592286501377411
0.7774049217002237
0.7541713014460512
0.7487437185929648
0.7260495156081809
0.7186800894854586
0.787366046249295
0.8543307086614174
0.7952662721893491
0.8529904974846283
0.8276053215077606
0.8241573033707865
0.7902173913043479
0.7996688741721855
0.8565955117679256
0.8058525604952167
0.8313384113166485
0.8598548297040759
0.8464034613304489
0.7474402730375427
0.7577777777777778
0.7399890290729567
0.8145620022753128
0.8382590005373455
0.793939393939394
0.7809248554913295
0.8472934472934472
0.8548827059465357
0.8125352907961604
0.8585365853658536
0.8068887634105025
0.7861529871580123
0.8187995469988675
0.8695163104611924
0.7543466068424004
0.8220011055831952
0.8187261839956451
0.7857142857142857
0.8081427774679308
0.8437667201712146
0.8324958123953099
0.7410913140311804
0.8830536004331349
0.7802565532626883
0.7963875205254516
0.7142857142857143
0.777458309373203
0.7945886250690226
0.8375690607734807
0.7851731601731602
0.8043956043956044
0.866447728516694
0.8798882681564246
0.8573027420257414
0.8841931942919868
0.7983425414364641
0.7362397820163488
0.7454942654287274
0.8814980435997765
0.7822491730981257
0.762962962962963
0.7655288192501399
0.8042035398230089
0.837248322147651
0.7691873589164786
0.8095774647887324
0.8313253012048193
0.7912029676735559
0.7360965372507869
0.8646239554317549
0.8112676056338028
0.8219718309859155
0.8239514348785872
0.8573021181716833
0.8566685113447703
0.8065217391304348
0.8930602957906713
0.8248745119910764
0.8138624930128563
0.7431791221826809
0.8403679653679653
0.7589967284623773
0.7852760736196319
0.8700595560368165
0.8
0.8564618644067796
0.8623610375860243
0.7789772727272727
0.8337934842628382
0.776047261009667
0.824736550194121
0.7514761137949544
0.7985409652076318
0.8024830699774267
0.8300220750551877
0.7804335742078933
0.7489971346704871
0.7398101619207147
0.8271812080536913
0.7649667405764967
0.8700939745715865
0.8794769755542922
0.844311377245509
0.8891224382553863
0.8278551532033426
0.8649695628112894
0.8
0.8018171493469619
0.8705555555555555
0.7589086859688196
0.7989836250705816
0.724304068522484
0.7573932092004381
0.8087284482758621
0.8883305415968733
0.7884187082405345
0.8002171552660152
0.797077922077922
0.8097345132743363
0.7970437748720864
0.8093049971280873
0.7740021574973032
0.7994490358126721
0.7921009325287987
0.8500557413600892
0.8451928299837045
0.7627388535031847
0.7713329615170106
0.7596810933940774
0.8633333333333333
0.8334264952487423
0.8258928571428571
0.8448081264108352
0.7734682405845981
0.8655367231638418
0.7532544378698225
0.7790432801822323
0.788034188034188
0.7863059083379348
0.8023450586264657
0.8299465240641711
0.872872340425532
0.8308740068104427
0.8204104903078677
0.9175646551724138
0.7837528604118993
0.832
0.7877437325905292
0.7960385438972163
0.7612197928653625
0.822979659153381
0.8251273344651953
0.7256235827664399
0.9245495495495496
0.8933333333333333
0.7522883295194508
0.750683433570257
0.7712453233564939
0.7724957555178268
0.7606412382531785
0.7754880694143167
0.7676600441501104
0.8353457738748628
0.8135135135135135
0.791594703511802
0.7266146993318485
0.7821165817770233
0.8251868890166763
0.8014959723820483
0.902229845626072
0.7575268817204301
0.7468834688346884
0.8055872291904219
0.8546731496488384
0.8305718866916088
0.7758904109589041
0.8564356435643564
0.7613895216400911
0.8382838283828383
0.7553672316384181
0.737880496054115
0.8459869848156182
0.7905292479108635
0.7969283276450512
0.7552887364208118
0.7965116279069767
0.844671201814059
0.8167770419426048
0.72271714922049
0.7104072398190046
0.7983917288914417
0.9376379690949227
0.7784123358081096
0.837116912599319
0.7401531728665208
0.8679033164699269
0.8234323432343235
0.8077138065958636
0.8202308960967565
0.8221722003376477
0.8421348314606741
0.7504225352112676
0.782876329043089
0.8016483516483517
0.729106628242075
0.781214848143982
0.807057484348321
0.8646119977985691
0.7904707233065442
0.8705430608886451
0.7498601007274762
0.8750700280112045
0.7369290038525041
0.7754886423666139
0.8194070080862533
0.7878116343490305
0.7972251867662753
0.7902621722846442
0.8245014245014245
0.8021563342318059
0.7542759407069556
0.7559782608695652
0.8215507411630558
0.858246001103144
0.7196467991169978
0.7720504009163803
0.8964769647696477
0.794392523364486
0.8617269544924154
0.744842562432139
0.8590909090909091
0.8849752339020364
0.8572219147758716
0.8608360836083608
0.848568281938326
0.7828604516502605
0.7906197654941374
0.7904979965655409
0.8243167875069716
0.8705683736634777
0.827968923418424
0.7968384074941453
0.8154435925520263
0.8475920679886686
0.7420435510887772
0.840844266970907
0.7701863354037267
0.7306190741773564
0.8217928073000537
0.8793290043290043
0.7518918918918919
0.7798989331836047
0.7690655209452202
0.8446438586651711
0.7696693272519954
0.7883333333333333
0.8326869806094183
0.7711721817162086
0.7014843320505773
0.7754642656162071
0.7997781475318912
0.7975460122699386
0.7882552230378317
0.7737961926091825
0.7288336293664891
0.7590778097982709
0.8538170005414185
0.8426966292134831
0.7786697247706422
0.7822001105583195
0.7817371937639198
0.8549658434051498
0.8327991452991453
0.8534059945504087
0.8084745762711865
0.8198198198198198
0.769804822043628
0.7920087575259989
0.7654320987654321
0.7839506172839507
0.7990115321252059
0.7780806979280261
0.7945886250690226
0.7798270893371758
0.7601736299511666
0.81068524970964
0.8094182825484765
0.8292957746478873
0.8022284122562674
0.8094962362478286
0.7272727272727273
0.8615470852017937
0.8396485447556288
0.900497512437811
0.9065685164212911
0.8645306351883081
0.7376760563380281
0.919736118746564
0.8498614958448754
0.7508305647840532
0.7783251231527094
0.7426966292134831
0.7414852037967616
0.8425770308123249
0.8539700166574126
0.8291208791208792
0.8830576155162578
0.7254584681769147
0.7448582545858811
0.9595070422535211
0.8428814520703346
0.7759237187127532
0.8521549372613202
0.8981217985202049
0.7743732590529248
0.7661987041036717
0.8063400576368877
0.7626931567328918
0.8100163309744148
0.8202687569988801
0.7675858187957231
0.7880646960401562
0.7897914379802415
0.7989100817438692
0.7848804891606448
0.7917594654788419
0.7348938486663038
0.8491930996104619
0.8617795187465025
0.8409734012450482
0.7662266226622663
0.8196256381168463
0.7627564439768543
0.8338028169014085
0.8110859728506787
0.8545454545454545
0.7600440286186021
0.8449315068493151
0.7541528239202658
0.7813012575177692
0.7743702081051479
0.7815506508205999
0.8406198118428334
0.8050896471949104
0.7766610831937465
0.8109927089175547
0.8779264214046822
0.8217765042979943
0.8882191780821918
0.7190177041690463
0.857379767827529
0.8515881708652793
0.8198614318706697
0.7901449275362319
0.9203980099502488
0.7931965442764579
0.793685356559608
0.8142548596112311
0.8501978518937253
0.7887402452619844
0.7800230946882217
0.8067083570210347
0.7990708478513356
0.7562979189485214
0.8029445073612684
0.7493082457111234
0.874931129476584
0.8741027056874655
0.7740303541315345
0.7889557135046473
0.8936049801924165
0.7575757575757576
0.7939814814814815
0.886152162014231
0.7007258514796203
0.8553696708041014
0.8039757040309221
0.7453142227122381
0.8140192198982475
0.7250287026406429
0.7417551704863052
0.8117647058823529
0.8624708624708625
0.801377726750861
0.8017391304347826
0.8251942286348501
0.7450110864745011
0.7433532284319045
0.8324324324324325
0.8383303938859494
0.8861743475846752
0.7905251141552512
0.949235807860262
0.8346368715083798
0.751441753171857
0.7758904109589041
0.8042184964845862
0.777292576419214
0.8254957507082153
0.7926267281105991
0.8408966648441771
0.8136645962732919
0.8459796149490374
0.8585972850678733
0.7761752136752137
0.8182317408017573
0.7727529677784059
0.8712328767123287
0.7613956105796286
0.8347969264544457
0.8318335208098988
0.7926215762996087
0.8583106267029973
0.7226277372262774
0.8075880758807588
0.7986425339366516
0.7622811970638057
0.7626397019691326
0.7156319290465631
0.8794366197183099
0.8317307692307693
0.7861635220125787
0.7622820919175911
0.8329596412556054
0.7376126126126126
0.9013157894736842
0.7360265633646929
0.815539407490218
0.8290743895513912
0.7677672076105204
0.7253263707571802
0.7867191896454699
0.7278761061946902
0.8504366812227074
0.8199672667757774
0.7842708902239214
0.7579365079365079
0.7907780979827089
0.8264462809917356
0.8206857785272625
0.7321826280623608
0.8147522522522522
0.7990788716177317
0.812910284463895
0.7959183673469388
0.9271058315334774
0.8738187882156754
0.8078626799557033
0.7931034482758621
0.8768613974799542
0.7619305856832972
0.7764964305326744
0.7658618753509264
0.7674418604651163
0.8409994321408291
0.8117977528089888
0.7652892561983471
0.7684619655746807
0.7740863787375415
0.7787561915244909
0.7835862844294548
0.8278551532033426
0.7923211169284468
0.816414686825054
0.7617758527341635
0.905464480874317
0.7678774120317821
0.7837690631808278
0.8953880764904387
0.7807162534435261
0.780343716433942
0.7820224719101123
0.8266304347826087
0.8202739726027397
0.8903483723586522
0.7852494577006508
0.7623421354764638
0.8496366685299049
0.8775287042099508
0.8778026905829597
0.8836549375709422
0.8280467445742905
0.8067520372526193
0.8656215005599104
0.7802863436123348
0.806881243063263
0.7926760563380282
0.8472222222222222
0.7717206132879046
0.8105147864184009
0.7696160267111853
0.9138678223185266
0.8004422332780542
0.8367573570238757
0.8
0.8142701525054467
0.7839740119112074
0.9076757917337628
0.7570781426953568
0.8531232414181205
0.7922077922077922
0.849128540305011
0.8185286103542234
0.7455790074158585
0.793496862521392
0.7791780821917809
0.7718157181571815
0.8672756582482536
0.7349330357142857
0.8622620380739082
0.7738748627881449
0.819304152637486
0.7645381984036488
0.7844036697247706
0.8409343715239155
0.7490616621983914
0.824696802646086
0.8268690275435638
0.764026402640264
0.7177375068643602
0.8174250832408435
0.9003359462486002
0.9427627958172813
0.7669851380042463
0.8235930735930735
0.7921503593145384
0.8133484162895928
0.8184836745987825
0.78965717606043
0.7637969094922737
0.7865416436845009
0.8324115044247787
0.8238482384823849
0.8531587933978372
0.8887015177065767
0.8760869565217392
0.8910256410256411
0.8223830734966593
0.8292410714285714
0.7260820045558086
0.800764192139738
0.8384572386808273
0.8122222222222222
0.9045822102425876
0.8484679665738162
0.7983098591549296
0.8283752860411899
0.8504832291074474
0.7645429362880887
0.7504051863857374
0.7610520425293789
0.8047852093529092
0.8305084745762712
0.7794444444444445
0.806695464362851
0.7803790412486065
0.8947368421052632
0.7452558941920644
0.7698280643372157
0.8305855599772598
0.894919168591224
0.7818681318681319
0.8585858585858586
0.8585858585858586
0.7956867196367764
0.7844682048396173
0.8400216919739696
0.8317204301075268
0.9139902014153511
0.8852549889135255
0.9370591427021161
0.8682952734997345
0.7422343324250681
0.8067940552016986
0.7723532638507954
0.7725040916530278
0.8323353293413174
0.8394077448747153
0.8598442714126807
0.7941339236303265
0.8541202672605791
0.7521786492374728
0.814543404735062
0.7393906420021763
0.8590785907859079
0.7563395810363837
0.8324145534729879
0.8533333333333334
0.8052088985349973
0.8076502732240437
0.8283214871514489
0.8655036578503095
0.7558739255014326
0.7565459610027855
0.7707423580786026
0.7554608417687799
0.9481776765375854
0.7447795823665894
0.7226197028068244
0.7641561297416163
0.8156579677956691
0.7525083612040134
0.8434677904876581
0.8373626373626374
0.7756124721603563
0.7887955182072829
0.7259136212624585
0.8433802816901409
0.8776085730400451
0.7988795518207283
0.8762597984322509
0.8392265193370165
0.7975113122171946
0.7892655367231638
0.9104972375690608
0.8369330453563715
0.8214489446662864
0.8002177463255308
0.8062104657849338
0.8358038768529077
0.8465941614195764
0.8026954177897574
0.7613122171945701
0.8353863381858903
0.7586009174311926
0.8163265306122449
0.8812566560170394
0.8387622149837134
0.7734994337485843
0.8052660449808009
0.8527435610302352
0.7711048158640227
0.8580931263858093
0.8145620022753128
0.7272727272727273
0.8132118451025057
0.7980613893376414
0.8088813940415964
0.821005081874647
0.7936250675310643
0.7417707150964813
0.7974413646055437
0.8966083150984683
0.7571351642434033
0.8403409090909091
0.9781144781144782
0.9072107322526551
0.7337047353760445
0.9239068710959683
0.8518316019682887
0.7736263736263737
0.8338926174496645
0.8767798466593647
0.7300613496932515
0.7844969763606378
0.8015393073117097
0.8472826086956522
0.8395480225988701
0.7355013550135502
0.819118488838008
0.725328947368421
0.7564389697648376
0.7739420935412027
0.8331503841931943
0.7622222222222222
0.7897378694924707
0.8667029379760609
0.8122562674094708
0.7766190998902305
0.863740022805017
0.8305369127516778
0.9058050383351588
0.7372697724810401
0.7719298245614035
0.9202488687782805
0.8564329099944782
0.815223386651958
0.7523041474654378
0.855031267765776
0.8079730488489613
0.8173237090505275
0.821256038647343
0.8531468531468531
0.8053841839596186
0.8430296377607025
0.869343891402715
0.8599889319313779
0.7781669585522475
0.8250428816466552
0.774230330672748
0.8388704318936877
0.7914349276974416
0.8084163898117387
0.8798211291224147
0.8494077834179357
0.7762276785714286
0.8985994397759104
0.8293460925039873
0.7530085959885386
0.8495623632385121
0.8558265582655826
0.8389409817981247
0.777458309373203
0.7473567056204786
0.8234963462619449
0.8275109170305677
0.8483516483516483
0.7917127071823205
0.8117519042437432
0.9284064665127021
0.8530884808013356
0.7917139614074915
0.8221606648199447
0.7908992416034669
0.8609085810431857
0.8563283922462942
0.7610823258491652
0.8367791077257889
0.831728045325779
0.8214486243683324
0.7745696835091616
0.8070276497695853
0.8340782122905028
0.8256880733944955
0.807007786429366
0.7694954128440367
0.8814317673378076
0.8109028960817717
0.8281338627339762
0.6775082690187431
0.8954067515218594
0.8636613523914238
0.782608695652174
0.8035126234906695
0.8681996634885025
0.6976217440543602
0.7811663991439273
0.7916666666666666
0.820837927232635
0.8600867678958786
0.8068181818181818
0.9367160775370581
0.9622234214786832
0.8927752293577982
0.7631123919308357
0.7316414686825053
0.7325013564839935
0.8344947735191638
0.8180272108843537
0.7882736156351792
0.8982589771490751
0.8715179079022172
0.8257309941520468
0.7768456375838926
0.755056179775281
0.7639915522703273
0.7495580436063641
0.7504273504273504
0.7716970702045329
0.8522853957636566
0.7714285714285715
0.8035921205098494
0.8765227021040974
0.7810177244139508
0.8931782125859333
0.903918411164788
0.8395691609977324
0.7378472222222222
0.7819956616052061
0.8004574042309891
0.7922993492407809
0.7948303715670436
0.811822125813449
0.8472906403940886
0.8278551532033426
0.7851284855112083
0.7707659115426105
0.8811111111111111
0.8442756375474769
0.8105975197294251
0.7312430011198209
0.8024485253199778
0.7927031509121062
0.7556456282570932
0.7385984427141268
0.9163879598662207
0.7702227432590856
0.8169491525423729
0.813614262560778
0.8284611141753999
0.7624861265260822
0.8203040173724213
0.7401098901098901
0.8278965129358831
0.7827822120866591
0.798154555940023
0.8056951423785594
0.8219101123595506
0.9363295880149812
0.8807439824945296
0.7909635274904736
0.8285398230088495
0.8132045088566827
0.756952169076752
0.8886401790710688
0.8009153318077803
0.8264738598442715
0.7979017117614577
0.7415230683713174
0.7915309446254072
0.8322147651006712
0.7502805836139169
0.7938975244674726
0.738403451995685
0.8449349179400113
0.8312985571587126
0.8610188261351052
0.7664945496270797
0.7433831990794016
0.8619382782891175
0.8096280087527352
0.7704646017699115
0.7751572327044025
0.7040871934604904
0.8191489361702128
0.9239130434782609
0.8617363344051447
0.8257956448911222
0.773459189339256
0.8543849972421401
0.8447238928376162
0.800794551645857
0.8053728070175439
0.8135964912280702
0.8119846069268829
0.8360655737704918
0.9020156774916014
0.7981090100111234
0.8179824561403509
0.8245125348189415
0.7379619260918253
0.816079295154185
0.7925445705024311
0.80125284738041
0.8491978609625669
0.8095768374164811
0.7924217462932455
0.75
0.8433128147733632
0.7955531453362256
0.7271205357142857
0.7564102564102564
0.8396118721461188
0.8503166378814048
0.8385474860335196
0.9331872946330778
0.7741761210156672
0.8881952326901249
0.8537844036697247
0.9704595185995624
0.8526556253569388
0.784366576819407
0.7498591549295774
0.810989010989011
0.9057017543859649
0.7714285714285715
0.7921787709497207
0.8513966480446927
0.8136541689983212
0.7915538711423931
0.8102425876010781
0.8231566820276498
0.8013620885357549
0.7512923607122344
0.916219119226638
0.732498577120091
0.79490022172949
0.7953311617806732
0.8139784946236559
0.7461669505962522
0.8227917121046892
0.7577951002227171
0.7357222844344905
0.7932992617830777
0.8295766904892798
0.8141891891891891
0.8416572077185017
0.8116107000569152
0.7662479519388312
0.7584650112866818
0.8445287107258939
0.8471910112359551
0.7455357142857143
0.9031884057971015
0.7757062146892655
0.7946982515510435
0.8005763688760807
0.7203682393555811
0.7681641708264004
0.8052516411378556
0.8853538123971476
0.7427317608337904
0.8834733893557423
0.817818389491719
0.7255892255892256
0.7924737133370227
0.8165745856353591
0.7924528301886793
0.7608085345311623
0.9357384441939121
0.8931339977851606
0.9261971830985916
0.8321878579610539
0.8414634146341463
0.7945736434108527
0.7815366972477065
0.8074837310195228
0.708710407239819
0.8632573652028905
0.7746100053792362
0.8461965574680733
0.8212862834376778
0.794679005205321
0.8111050626020686
0.7976811594202898
0.8508224617129893
0.8060467769537935
0.8457583547557841
