1789
1739
1789
1722
1693
1739
1748
1789
1806
1707
1807
1787
1798
1746
1745
1802
1758
1795
1758
1751
1840
1794
1788
1728
1840
1761
1753
1773
1771
1739
1784
1724
1813
1780
1816
1714
1827
1811
1796
1816
1829
1707
1785
1768
1778
1812
1740
1852
1798
1749
1763
1796
1819
1846
1780
1804
1803
1765
1804
1759
1748
1699
1760
1783
1810
1738
1778
1795
1745
1800
1675
1827
1726
1830
1699
1862
1805
1765
1842
1699
1757
1702
1694
1734
1823
1774
1759
1792
1795
1841
1751
1773
1800
1781
1793
1776
1790
1790
1704
1793
1771
1818
1727
1813
1752
1813
1726
1776
1789
1745
1713
1710
1812
1776
1773
1804
1818
1810
1833
1815
1808
1789
1760
1829
1777
1795
1824
1753
1789
1786
1839
1824
1799
1749
1696
1776
1792
1863
1730
1747
1782
1804
1780
1851
1744
1801
1748
1782
1743
1780
1845
1727
1840
1733
1772
1822
1752
1786
1716
1812
1774
1691
1748
1760
1797
1747
1708
1759
1794
1743
1828
1787
1780
1770
1726
1687
1722
1840
1713
1795
1753
1770
1786
1816
1784
1740
1820
1848
1736
1786
1812
1778
1762
1702
1787
1767
1791
1783
1741
1751
1765
1758
1774
1735
1813
1745
1887
1790
1772
1759
1765
1761
1736
1830
1803
1830
1729
1804
1799
1768
1836
1860
1820
1756
1762
1802
1734
1794
1773
1724
1819
1834
1750
1730
1709
1719
1740
1743
1769
1708
1810
1789
1808
1804
1817
1745
1772
1823
1848
1713
1817
1847
1790
1772
1697
1787
1808
1782
1769
1791
1743
1773
1832
1788
1783
1763
1651
1799
1779
1773
1783
1780
1673
1748
1733
1774
1706
1721
1777
1749
1825
1754
1769
1805
1791
1715
1739
1777
1768
1729
1807
1818
1818
1787
1771
1784
1781
1742
1805
1735
1786
1801
1787
1786
1847
1764
1747
1751
1687
1868
1886
1865
1752
1768
1702
1751
1804
1742
1701
1741
1804
1736
1754
1765
1740
1838
1763
1757
1756
1800
1809
1815
1749
1727
1815
1793
1734
1735
1777
1706
1661
1768
1780
1786
1754
1822
1767
1822
1787
1737
1781
1763
1804
1738
1830
1772
1733
1818
1818
1770
1731
1805
1837
1787
1714
1745
1765
1787
1733
1845
1797
1721
1791
1784
1811
1804
1777
1786
1783
1750
1773
1736
1740
1719
1784
1795
1755
1705
1760
1759
1738
1738
1820
1738
1805
1787
1795
1814
1713
1792
1695
1808
1677
1786
1776
1814
1730
1806
1793
1755
1776
1776
1747
1797
1740
1839
1738
1792
1775
1866
1844
1779
1764
1788
1774
1749
1767
1696
1744
1735
1776
1695
1744
1701
1785
1784
1731
1765
1748
1803
1825
1784
1778
1778
1745
1723
1744
1778
1721
1737
1810
1740
1763
1774
1766
1766
1791
1770
1785
1772
1792
1850
1729
1760
1729
1770
1796
1852
1822
1768
1786
1837
1774
1718
1750
1682
1742
1779
1777
1771
1739
1694
1731
1788
1817
1804
1712
1788
1872
1735
1823
1735
1785
1877
1748
1807
1743
1771
1751
